"Type","Colour","True/False"
"Window Browse","=DEC2HEX(15592674)&""H"""
"Window Form","=DEC2HEX(15592674)&""H"""
"Window Other","=DEC2HEX(15592674)&""H"""
"Window Override","","1"
"String Font","=DEC2HEX(-1)&""H"""
"String Back","=DEC2HEX(15066597)&""H"""
"Browse String Font","=DEC2HEX(-1)&""H"""
"Browse String Back","=DEC2HEX(15066597)&""H"""
"String Transparent","","0"
"String Override","","1"
"Entry Font","=DEC2HEX(65793)&""H"""
"Entry Back","=DEC2HEX(16777215)&""H"""
"Entry Required Font","=DEC2HEX(65793)&""H"""
"Entry Required Back","=DEC2HEX(8454143)&""H"""
"Entry Read Only Font","=DEC2HEX(65793)&""H"""
"Entry Read Only Back","=DEC2HEX(15066597)&""H"""
"Entry Bold","","1"
"Entry Transparent","","0"
"Entry Override","","1"
"Group Font","=DEC2HEX(-1)&""H"""
"Group Back","=DEC2HEX(15066597)&""H"""
"Browse Group Font","=DEC2HEX(-1)&""H"""
"Browse Group Back","=DEC2HEX(15066597)&""H"""
"Group Tranparent","","0"
"Group Override","","1"
"Sheet Browse","=DEC2HEX(15066597)&""H"""
"Sheet Form","=DEC2HEX(15066597)&""H"""
"Sheet Other","=DEC2HEX(15066597)&""H"""
"Sheet Override","","1"
"List Font","=DEC2HEX(65793)&""H"""
"List Back","=DEC2HEX(16777215)&""H"""
"List Selected Font","=DEC2HEX(16777215)&""H"""
"List Selected Back","=DEC2HEX(12937777)&""H"""
"List Override","","1"
