"HEADING","Application","Module","Procedure","Field1","Field2","Field3","Field4","Field5","Field6","Field7","Field8","Field9","Field10",Number1,Number2,Number3,Number4
"VERSION","2.00","'check_Template_version'","","28/09/2007"," 1:21PM","75514","4808321","","","","","","",,,,
"APPNAME","celrapde","","1","Main","","EXE","S:\Bryans\UKCellular\v6.1 UTL\cellular.dct","celrapde.clw","","","","","",73350,75514,5922814,4808321
"PROCEDURE","celrapde","celra001.clw","Main","","","PROCEDURE","Window","","","GENERATED(ABC)","Clarion","","",73350,73368,5923369,5912093
"WINDOW","celrapde","celra001.clw","Main","WINDOW('Days End Procedure'),AT(,,220,129),FONT('Arial',8,,FONT:regular,CHARSET:ANSI),CENTER,ICON('pc.ico'),GRAY,DOUBLE"
"OTHER","celrapde","celra001.clw","Main","","LOCVALUE","","","","","","","","",0,0,0,0
"OTHER","celrapde","celra001.clw","Main","","LOCATION","","","","","","","","",0,0,0,0
"OTHER","celrapde","celra001.clw","Main","","STOCK","","","","","","","","",0,0,0,0
"OTHER","celrapde","celra001.clw","Main","","ORDPARTS","","","","","","","","",0,0,0,0
"OTHER","celrapde","celra001.clw","Main","","RETSTOCK","","","","","","","","",0,0,0,0
"OTHER","celrapde","celra001.clw","Main","","SUPPLIER","","","","","","","","",0,0,0,0
"OTHER","celrapde","celra001.clw","Main","","SUPVALA","","","","","","","","",0,0,0,0
"OTHER","celrapde","celra001.clw","Main","","SUPVALB","","","","","","","","",0,0,0,0
"LOCALDATA","celrapde","celra001.clw","Main","tmp:StatusBox","","STRING(255)","","","","","","","",0,0,0,0
"LOCALDATA","celrapde","celra001.clw","Main","save_sto_id","","USHORT,AUTO","","","","","","","",0,0,0,0
"LOCALDATA","celrapde","celra001.clw","Main","save_loc_id","","USHORT,AUTO","","","","","","","",0,0,0,0
"LOCALDATA","celrapde","celra001.clw","Main","save_sup_id","","USHORT,AUTO","","","","","","","",0,0,0,0
"LOCALDATA","celrapde","celra001.clw","Main","save_res_id","","USHORT,AUTO","","","","","","","",0,0,0,0
"LOCALDATA","celrapde","celra001.clw","Main","tmp:OldestBackOrder","","DATE","","","","","","","",0,0,0,0
"LOCALDATA","celrapde","celra001.clw","Main","tmp:OrderValue","","REAL","","","","","","","",0,0,0,0
"TEXT","celrapde","celra001.clw","Main","TEXT,AT(4,4,212,100),USE(tmp:StatusBox)"
"CONTROLS","celrapde","celra001.clw","Main","?Close","ICON('cancel.gif')","BUTTON('Close')","","","","","","","",0,0,0,0
"BUTTON","celrapde","celra001.clw","Main","BUTTON('Close'),AT(82,110,56,16),USE(?Close),LEFT,ICON('cancel.gif')"
"TEMPLATES","celrapde","celra001.clw","Main","","","Window","CloseButton(ABC)","","","","","","",0,0,0,0
"CONTROLS","celrapde","celra001.clw","Main","Window Icon","ICON('pc.ico')","","","window","","","","","",0,0,0,0
"TEMPLATES","celrapde","celrapde.CLW","Global Extension Template","","","GlobalExtTemplate","MessageEx(MessageExABC)","","","","","","",0,0,0,0
"TEMPLATES","celrapde","celrapde.CLW","Global Extension Template","","","GlobalExtTemplate","AppRefAutoExport(App_Ref)","","","","","","",0,0,0,0
"GLOBAL","celrapde","GlobalData","glo:ErrorText","STRING(1000)","","","","","","","","","",0,0,0,0
"GLOBAL","celrapde","GlobalData","glo:owner","STRING(20)","","","","","","","","","",0,0,0,0
"GLOBAL","celrapde","GlobalData","glo:DateModify","DATE","","","","","","","","","",0,0,0,0
"GLOBAL","celrapde","GlobalData","glo:TimeModify","TIME","","","","","","","","","",0,0,0,0
"GLOBAL","celrapde","GlobalData","glo:Notes_Global","STRING(1000)","","","","","","","","","",0,0,0,0
"GLOBAL","celrapde","GlobalData","glo:Q_Invoice","QUEUE,PRE(glo)","","","","","","","","","",0,0,0,0
"GLOBAL","celrapde","GlobalData","Invoice_Number","REAL","","","","","","","","","",0,0,0,0
"GLOBAL","celrapde","GlobalData","Account_Number","STRING(15)","","","","","","","","","",0,0,0,0
"GLOBAL","celrapde","GlobalData","","END","","","","","","","","","",0,0,0,0
"GLOBAL","celrapde","GlobalData","glo:afe_path","STRING(255)","","","","","","","","","",0,0,0,0
"GLOBAL","celrapde","GlobalData","glo:Password","STRING(20)","","","","","","","","","",0,0,0,0
"GLOBAL","celrapde","GlobalData","glo:PassAccount","STRING(30)","","","","","","","","","",0,0,0,0
"GLOBAL","celrapde","GlobalData","glo:Preview","STRING('True')","","","","","","","","","",0,0,0,0
"GLOBAL","celrapde","GlobalData","glo:q_JobNumber","QUEUE,PRE(GLO)","","","","","","","","","",0,0,0,0
"GLOBAL","celrapde","GlobalData","Job_Number_Pointer","REAL","","","","","","","","","",0,0,0,0
"GLOBAL","celrapde","GlobalData","","END","","","","","","","","","",0,0,0,0
"GLOBAL","celrapde","GlobalData","glo:Q_PartsOrder","QUEUE,PRE(GLO)","","","","","","","","","",0,0,0,0
"GLOBAL","celrapde","GlobalData","Q_Order_Number","REAL","","","","","","","","","",0,0,0,0
"GLOBAL","celrapde","GlobalData","Q_Part_Number","STRING(30)","","","","","","","","","",0,0,0,0
"GLOBAL","celrapde","GlobalData","Q_Description","STRING(30)","","","","","","","","","",0,0,0,0
"GLOBAL","celrapde","GlobalData","Q_Supplier","STRING(30)","","","","","","","","","",0,0,0,0
"GLOBAL","celrapde","GlobalData","Q_Quantity","LONG","","","","","","","","","",0,0,0,0
"GLOBAL","celrapde","GlobalData","Q_Purchase_Cost","REAL","","","","","","","","","",0,0,0,0
"GLOBAL","celrapde","GlobalData","Q_Sale_Cost","REAL","","","","","","","","","",0,0,0,0
"GLOBAL","celrapde","GlobalData","","END","","","","","","","","","",0,0,0,0
"GLOBAL","celrapde","GlobalData","glo:G_Select1","GROUP,PRE(GLO)","","","","","","","","","",0,0,0,0
"GLOBAL","celrapde","GlobalData","Select1","STRING(30)","","","","","","","","","",0,0,0,0
"GLOBAL","celrapde","GlobalData","Select2","STRING(40)","","","","","","","","","",0,0,0,0
"GLOBAL","celrapde","GlobalData","Select3","STRING(40)","","","","","","","","","",0,0,0,0
"GLOBAL","celrapde","GlobalData","Select4","STRING(40)","","","","","","","","","",0,0,0,0
"GLOBAL","celrapde","GlobalData","Select5","STRING(40)","","","","","","","","","",0,0,0,0
"GLOBAL","celrapde","GlobalData","Select6","STRING(40)","","","","","","","","","",0,0,0,0
"GLOBAL","celrapde","GlobalData","Select7","STRING(40)","","","","","","","","","",0,0,0,0
"GLOBAL","celrapde","GlobalData","Select8","STRING(40)","","","","","","","","","",0,0,0,0
"GLOBAL","celrapde","GlobalData","Select9","STRING(40)","","","","","","","","","",0,0,0,0
"GLOBAL","celrapde","GlobalData","Select10","STRING(40)","","","","","","","","","",0,0,0,0
"GLOBAL","celrapde","GlobalData","Select11","STRING(40)","","","","","","","","","",0,0,0,0
"GLOBAL","celrapde","GlobalData","Select12","STRING(40)","","","","","","","","","",0,0,0,0
"GLOBAL","celrapde","GlobalData","Select13","STRING(40)","","","","","","","","","",0,0,0,0
"GLOBAL","celrapde","GlobalData","Select14","STRING(40)","","","","","","","","","",0,0,0,0
"GLOBAL","celrapde","GlobalData","Select15","STRING(40)","","","","","","","","","",0,0,0,0
"GLOBAL","celrapde","GlobalData","Select16","STRING(40)","","","","","","","","","",0,0,0,0
"GLOBAL","celrapde","GlobalData","Select17","STRING(40)","","","","","","","","","",0,0,0,0
"GLOBAL","celrapde","GlobalData","Select18","STRING(40)","","","","","","","","","",0,0,0,0
"GLOBAL","celrapde","GlobalData","Select19","STRING(40)","","","","","","","","","",0,0,0,0
"GLOBAL","celrapde","GlobalData","Select20","STRING(40)","","","","","","","","","",0,0,0,0
"GLOBAL","celrapde","GlobalData","Select21","STRING(40)","","","","","","","","","",0,0,0,0
"GLOBAL","celrapde","GlobalData","Select22","STRING(40)","","","","","","","","","",0,0,0,0
"GLOBAL","celrapde","GlobalData","Select23","STRING(40)","","","","","","","","","",0,0,0,0
"GLOBAL","celrapde","GlobalData","Select24","STRING(40)","","","","","","","","","",0,0,0,0
"GLOBAL","celrapde","GlobalData","Select25","STRING(40)","","","","","","","","","",0,0,0,0
"GLOBAL","celrapde","GlobalData","Select26","STRING(40)","","","","","","","","","",0,0,0,0
"GLOBAL","celrapde","GlobalData","Select27","STRING(40)","","","","","","","","","",0,0,0,0
"GLOBAL","celrapde","GlobalData","Select28","STRING(40)","","","","","","","","","",0,0,0,0
"GLOBAL","celrapde","GlobalData","Select29","STRING(40)","","","","","","","","","",0,0,0,0
"GLOBAL","celrapde","GlobalData","Select30","STRING(40)","","","","","","","","","",0,0,0,0
"GLOBAL","celrapde","GlobalData","Select31","STRING(40)","","","","","","","","","",0,0,0,0
"GLOBAL","celrapde","GlobalData","Select32","STRING(40)","","","","","","","","","",0,0,0,0
"GLOBAL","celrapde","GlobalData","Select33","STRING(40)","","","","","","","","","",0,0,0,0
"GLOBAL","celrapde","GlobalData","Select34","STRING(40)","","","","","","","","","",0,0,0,0
"GLOBAL","celrapde","GlobalData","Select35","STRING(40)","","","","","","","","","",0,0,0,0
"GLOBAL","celrapde","GlobalData","Select36","STRING(40)","","","","","","","","","",0,0,0,0
"GLOBAL","celrapde","GlobalData","Select37","STRING(40)","","","","","","","","","",0,0,0,0
"GLOBAL","celrapde","GlobalData","Select38","STRING(40)","","","","","","","","","",0,0,0,0
"GLOBAL","celrapde","GlobalData","Select39","STRING(40)","","","","","","","","","",0,0,0,0
"GLOBAL","celrapde","GlobalData","Select40","STRING(40)","","","","","","","","","",0,0,0,0
"GLOBAL","celrapde","GlobalData","Select41","STRING(40)","","","","","","","","","",0,0,0,0
"GLOBAL","celrapde","GlobalData","Select42","STRING(40)","","","","","","","","","",0,0,0,0
"GLOBAL","celrapde","GlobalData","Select43","STRING(40)","","","","","","","","","",0,0,0,0
"GLOBAL","celrapde","GlobalData","Select44","STRING(40)","","","","","","","","","",0,0,0,0
"GLOBAL","celrapde","GlobalData","Select45","STRING(40)","","","","","","","","","",0,0,0,0
"GLOBAL","celrapde","GlobalData","Select46","STRING(40)","","","","","","","","","",0,0,0,0
"GLOBAL","celrapde","GlobalData","Select47","STRING(40)","","","","","","","","","",0,0,0,0
"GLOBAL","celrapde","GlobalData","Select48","STRING(40)","","","","","","","","","",0,0,0,0
"GLOBAL","celrapde","GlobalData","Select49","STRING(40)","","","","","","","","","",0,0,0,0
"GLOBAL","celrapde","GlobalData","Select50","STRING(40)","","","","","","","","","",0,0,0,0
"GLOBAL","celrapde","GlobalData","","END","","","","","","","","","",0,0,0,0
"GLOBAL","celrapde","GlobalData","glo:q_RepairType","QUEUE,PRE(GLO)","","","","","","","","","",0,0,0,0
"GLOBAL","celrapde","GlobalData","Repair_Type_Pointer","STRING(30)","","","","","","","","","",0,0,0,0
"GLOBAL","celrapde","GlobalData","","END","","","","","","","","","",0,0,0,0
"GLOBAL","celrapde","GlobalData","glo:Q_UnitType","QUEUE,PRE(GLO)","","","","","","","","","",0,0,0,0
"GLOBAL","celrapde","GlobalData","Unit_Type_Pointer","STRING(30)","","","","","","","","","",0,0,0,0
"GLOBAL","celrapde","GlobalData","","END","","","","","","","","","",0,0,0,0
"GLOBAL","celrapde","GlobalData","glo:Q_ChargeType","QUEUE,PRE(GLO)","","","","","","","","","",0,0,0,0
"GLOBAL","celrapde","GlobalData","Charge_Type_Pointer","STRING(30)","","","","","","","","","",0,0,0,0
"GLOBAL","celrapde","GlobalData","","END","","","","","","","","","",0,0,0,0
"GLOBAL","celrapde","GlobalData","glo:Q_ModelNumber","QUEUE,PRE(glo)","","","","","","","","","",0,0,0,0
"GLOBAL","celrapde","GlobalData","Model_Number_Pointer","STRING(30)","","","","","","","","","",0,0,0,0
"GLOBAL","celrapde","GlobalData","","END","","","","","","","","","",0,0,0,0
"GLOBAL","celrapde","GlobalData","glo:Q_Accessory","QUEUE,PRE(GLO)","","","","","","","","","",0,0,0,0
"GLOBAL","celrapde","GlobalData","Accessory_Pointer","STRING(30)","","","","","","","","","",0,0,0,0
"GLOBAL","celrapde","GlobalData","","END","","","","","","","","","",0,0,0,0
"GLOBAL","celrapde","GlobalData","glo:Q_AccessLevel","QUEUE,PRE(GLO)","","","","","","","","","",0,0,0,0
"GLOBAL","celrapde","GlobalData","Access_Level_Pointer","STRING(30)","","","","","","","","","",0,0,0,0
"GLOBAL","celrapde","GlobalData","","END","","","","","","","","","",0,0,0,0
"GLOBAL","celrapde","GlobalData","glo:Q_AccessAreas","QUEUE,PRE(GLO)","","","","","","","","","",0,0,0,0
"GLOBAL","celrapde","GlobalData","Access_Areas_Pointer","STRING(30)","","","","","","","","","",0,0,0,0
"GLOBAL","celrapde","GlobalData","","END","","","","","","","","","",0,0,0,0
"GLOBAL","celrapde","GlobalData","glo:Q_Notes","QUEUE,PRE(GLO)","","","","","","","","","",0,0,0,0
"GLOBAL","celrapde","GlobalData","notes_pointer","STRING(80)","","","","","","","","","",0,0,0,0
"GLOBAL","celrapde","GlobalData","","END","","","","","","","","","",0,0,0,0
"GLOBAL","celrapde","GlobalData","glo:EnableFlag","STRING(3)","","","","","","","","","",0,0,0,0
"GLOBAL","celrapde","GlobalData","glo:TimeLogged","TIME","","","","","","","","","",0,0,0,0
"GLOBAL","celrapde","GlobalData","glo:GLO:ApplicationName","STRING(8)","","","","","","","","","",0,0,0,0
"GLOBAL","celrapde","GlobalData","glo:GLO:ApplicationCreationDate","LONG","","","","","","","","","",0,0,0,0
"GLOBAL","celrapde","GlobalData","glo:GLO:ApplicationCreationTime","LONG","","","","","","","","","",0,0,0,0
"GLOBAL","celrapde","GlobalData","glo:GLO:ApplicationChangeDate","LONG","","","","","","","","","",0,0,0,0
"GLOBAL","celrapde","GlobalData","glo:GLO:ApplicationChangeTime","LONG","","","","","","","","","",0,0,0,0
"GLOBAL","celrapde","GlobalData","glo:GLO:Compiled32","BYTE","","","","","","","","","",0,0,0,0
"GLOBAL","celrapde","GlobalData","glo:GLO:AppINIFile","STRING(255)","","","","","","","","","",0,0,0,0
"GLOBAL","celrapde","GlobalData","glo:Queue","QUEUE,PRE(GLO)","","","","","","","","","",0,0,0,0
"GLOBAL","celrapde","GlobalData","Pointer","STRING(40)","","","","","","","","","",0,0,0,0
"GLOBAL","celrapde","GlobalData","","END","","","","","","","","","",0,0,0,0
"GLOBAL","celrapde","GlobalData","glo:Queue2","QUEUE,PRE(GLO)","","","","","","","","","",0,0,0,0
"GLOBAL","celrapde","GlobalData","Pointer2","STRING(40)","","","","","","","","","",0,0,0,0
"GLOBAL","celrapde","GlobalData","","END","","","","","","","","","",0,0,0,0
"GLOBAL","celrapde","GlobalData","glo:Queue3","QUEUE,PRE(GLO)","","","","","","","","","",0,0,0,0
"GLOBAL","celrapde","GlobalData","Pointer3","STRING(40)","","","","","","","","","",0,0,0,0
"GLOBAL","celrapde","GlobalData","","END","","","","","","","","","",0,0,0,0
"GLOBAL","celrapde","GlobalData","glo:Queue4","QUEUE,PRE(GLO)","","","","","","","","","",0,0,0,0
"GLOBAL","celrapde","GlobalData","Pointer4","STRING(40)","","","","","","","","","",0,0,0,0
"GLOBAL","celrapde","GlobalData","","END","","","","","","","","","",0,0,0,0
"GLOBAL","celrapde","GlobalData","glo:Queue5","QUEUE,PRE(GLO)","","","","","","","","","",0,0,0,0
"GLOBAL","celrapde","GlobalData","Pointer5","STRING(40)","","","","","","","","","",0,0,0,0
"GLOBAL","celrapde","GlobalData","","END","","","","","","","","","",0,0,0,0
"GLOBAL","celrapde","GlobalData","glo:Queue6","QUEUE,PRE(GLO)","","","","","","","","","",0,0,0,0
"GLOBAL","celrapde","GlobalData","Pointer6","STRING(40)","","","","","","","","","",0,0,0,0
"GLOBAL","celrapde","GlobalData","","END","","","","","","","","","",0,0,0,0
"GLOBAL","celrapde","GlobalData","glo:Queue7","QUEUE,PRE(GLO)","","","","","","","","","",0,0,0,0
"GLOBAL","celrapde","GlobalData","Pointer7","STRING(40)","","","","","","","","","",0,0,0,0
"GLOBAL","celrapde","GlobalData","","END","","","","","","","","","",0,0,0,0
"GLOBAL","celrapde","GlobalData","glo:Queue8","QUEUE,PRE(GLO)","","","","","","","","","",0,0,0,0
"GLOBAL","celrapde","GlobalData","Pointer8","STRING(40)","","","","","","","","","",0,0,0,0
"GLOBAL","celrapde","GlobalData","","END","","","","","","","","","",0,0,0,0
"GLOBAL","celrapde","GlobalData","glo:Queue9","QUEUE,PRE(GLO)","","","","","","","","","",0,0,0,0
"GLOBAL","celrapde","GlobalData","Pointer9","STRING(40)","","","","","","","","","",0,0,0,0
"GLOBAL","celrapde","GlobalData","","END","","","","","","","","","",0,0,0,0
"GLOBAL","celrapde","GlobalData","glo:Queue10","QUEUE,PRE(GLO)","","","","","","","","","",0,0,0,0
"GLOBAL","celrapde","GlobalData","Pointer10","STRING(40)","","","","","","","","","",0,0,0,0
"GLOBAL","celrapde","GlobalData","","END","","","","","","","","","",0,0,0,0
"GLOBAL","celrapde","GlobalData","glo:Queue11","QUEUE,PRE(GLO)","","","","","","","","","",0,0,0,0
"GLOBAL","celrapde","GlobalData","Pointer11","STRING(40)","","","","","","","","","",0,0,0,0
"GLOBAL","celrapde","GlobalData","","END","","","","","","","","","",0,0,0,0
"GLOBAL","celrapde","GlobalData","glo:Queue12","QUEUE,PRE(GLO)","","","","","","","","","",0,0,0,0
"GLOBAL","celrapde","GlobalData","Pointer12","STRING(40)","","","","","","","","","",0,0,0,0
"GLOBAL","celrapde","GlobalData","","END","","","","","","","","","",0,0,0,0
"GLOBAL","celrapde","GlobalData","glo:Queue13","QUEUE,PRE(GLO)","","","","","","","","","",0,0,0,0
"GLOBAL","celrapde","GlobalData","Pointer13","STRING(40)","","","","","","","","","",0,0,0,0
"GLOBAL","celrapde","GlobalData","","END","","","","","","","","","",0,0,0,0
"GLOBAL","celrapde","GlobalData","glo:Queue14","QUEUE,PRE(GLO)","","","","","","","","","",0,0,0,0
"GLOBAL","celrapde","GlobalData","Pointer14","STRING(40)","","","","","","","","","",0,0,0,0
"GLOBAL","celrapde","GlobalData","","END","","","","","","","","","",0,0,0,0
"GLOBAL","celrapde","GlobalData","glo:Queue15","QUEUE,PRE(GLO)","","","","","","","","","",0,0,0,0
"GLOBAL","celrapde","GlobalData","Pointer15","STRING(40)","","","","","","","","","",0,0,0,0
"GLOBAL","celrapde","GlobalData","","END","","","","","","","","","",0,0,0,0
"GLOBAL","celrapde","GlobalData","glo:Queue16","QUEUE,PRE(GLO)","","","","","","","","","",0,0,0,0
"GLOBAL","celrapde","GlobalData","Pointer16","STRING(40)","","","","","","","","","",0,0,0,0
"GLOBAL","celrapde","GlobalData","","END","","","","","","","","","",0,0,0,0
"GLOBAL","celrapde","GlobalData","glo:Queue17","QUEUE,PRE(GLO)","","","","","","","","","",0,0,0,0
"GLOBAL","celrapde","GlobalData","Pointer17","STRING(40)","","","","","","","","","",0,0,0,0
"GLOBAL","celrapde","GlobalData","","END","","","","","","","","","",0,0,0,0
"GLOBAL","celrapde","GlobalData","glo:Queue18","QUEUE,PRE(GLO)","","","","","","","","","",0,0,0,0
"GLOBAL","celrapde","GlobalData","Pointer18","STRING(40)","","","","","","","","","",0,0,0,0
"GLOBAL","celrapde","GlobalData","","END","","","","","","","","","",0,0,0,0
"GLOBAL","celrapde","GlobalData","glo:Queue19","QUEUE,PRE(GLO)","","","","","","","","","",0,0,0,0
"GLOBAL","celrapde","GlobalData","Pointer19","STRING(40)","","","","","","","","","",0,0,0,0
"GLOBAL","celrapde","GlobalData","","END","","","","","","","","","",0,0,0,0
"GLOBAL","celrapde","GlobalData","glo:Queue20","QUEUE,PRE(GLO)","","","","","","","","","",0,0,0,0
"GLOBAL","celrapde","GlobalData","Pointer20","STRING(40)","","","","","","","","","",0,0,0,0
"GLOBAL","celrapde","GlobalData","","END","","","","","","","","","",0,0,0,0
"GLOBAL","celrapde","GlobalData","glo:FaultCode1","STRING(30)","","","","","","","","","",0,0,0,0
"GLOBAL","celrapde","GlobalData","glo:FaultCode2","STRING(30)","","","","","","","","","",0,0,0,0
"GLOBAL","celrapde","GlobalData","glo:FaultCode3","STRING(30)","","","","","","","","","",0,0,0,0
"GLOBAL","celrapde","GlobalData","glo:FaultCode4","STRING(30)","","","","","","","","","",0,0,0,0
"GLOBAL","celrapde","GlobalData","glo:FaultCode5","STRING(30)","","","","","","","","","",0,0,0,0
"GLOBAL","celrapde","GlobalData","glo:FaultCode6","STRING(30)","","","","","","","","","",0,0,0,0
"GLOBAL","celrapde","GlobalData","glo:FaultCode7","STRING(30)","","","","","","","","","",0,0,0,0
"GLOBAL","celrapde","GlobalData","glo:FaultCode8","STRING(30)","","","","","","","","","",0,0,0,0
"GLOBAL","celrapde","GlobalData","glo:FaultCode9","STRING(30)","","","","","","","","","",0,0,0,0
"GLOBAL","celrapde","GlobalData","glo:FaultCode10","STRING(255)","","","","","","","","","",0,0,0,0
"GLOBAL","celrapde","GlobalData","glo:FaultCode11","STRING(255)","","","","","","","","","",0,0,0,0
"GLOBAL","celrapde","GlobalData","glo:FaultCode12","STRING(255)","","","","","","","","","",0,0,0,0
"GLOBAL","celrapde","GlobalData","glo:FaultCode13","STRING(30)","","","","","","","","","",0,0,0,0
"GLOBAL","celrapde","GlobalData","glo:FaultCode14","STRING(30)","","","","","","","","","",0,0,0,0
"GLOBAL","celrapde","GlobalData","glo:FaultCode15","STRING(30)","","","","","","","","","",0,0,0,0
"GLOBAL","celrapde","GlobalData","glo:FaultCode16","STRING(30)","","","","","","","","","",0,0,0,0
"GLOBAL","celrapde","GlobalData","glo:FaultCode17","STRING(30)","","","","","","","","","",0,0,0,0
"GLOBAL","celrapde","GlobalData","glo:FaultCode18","STRING(30)","","","","","","","","","",0,0,0,0
"GLOBAL","celrapde","GlobalData","glo:FaultCode19","STRING(30)","","","","","","","","","",0,0,0,0
"GLOBAL","celrapde","GlobalData","glo:FaultCode20","STRING(30)","","","","","","","","","",0,0,0,0
"GLOBAL","celrapde","GlobalData","glo:TradeFaultCode1","STRING(30)","","","","","","","","","",0,0,0,0
"GLOBAL","celrapde","GlobalData","glo:TradeFaultCode2","STRING(30)","","","","","","","","","",0,0,0,0
"GLOBAL","celrapde","GlobalData","glo:TradeFaultCode3","STRING(30)","","","","","","","","","",0,0,0,0
"GLOBAL","celrapde","GlobalData","glo:TradeFaultCode4","STRING(30)","","","","","","","","","",0,0,0,0
"GLOBAL","celrapde","GlobalData","glo:TradeFaultCode5","STRING(30)","","","","","","","","","",0,0,0,0
"GLOBAL","celrapde","GlobalData","glo:TradeFaultCode6","STRING(30)","","","","","","","","","",0,0,0,0
"GLOBAL","celrapde","GlobalData","glo:TradeFaultCode7","STRING(30)","","","","","","","","","",0,0,0,0
"GLOBAL","celrapde","GlobalData","glo:TradeFaultCode8","STRING(30)","","","","","","","","","",0,0,0,0
"GLOBAL","celrapde","GlobalData","glo:TradeFaultCode9","STRING(30)","","","","","","","","","",0,0,0,0
"GLOBAL","celrapde","GlobalData","glo:TradeFaultCode10","STRING(30)","","","","","","","","","",0,0,0,0
"GLOBAL","celrapde","GlobalData","glo:TradeFaultCode11","STRING(30)","","","","","","","","","",0,0,0,0
"GLOBAL","celrapde","GlobalData","glo:TradeFaultCode12","STRING(30)","","","","","","","","","",0,0,0,0
