Error: General Protection Fault
   C:\C55\BIN\C55RUN.DLL 30:1072
   C:\C55\BIN\C55RUN.DLL 4f:019d
   C:\C55\BIN\C55ASL.DLL 26:3303
   C:\C55\BIN\C55ASL.DLL 26:19b3
   C:\C55\BIN\C55ASL.DLL 26:1715
   C:\C55\BIN\C55ASL.DLL 26:29db
   C:\C55\BIN\C55ASL.DLL 26:1e63
   C:\C55\BIN\C55ASL.DLL 26:1dc7
   C:\C55\BIN\C55ASL.DLL  e:165f
   C:\C55\BIN\C55ASL.DLL  e:15d5
   C:\C55\BIN\C55GEN.DLL 12:0fe6
   C:\C55\BIN\C55GEN.DLL 2e:1d36
   C:\C55\BIN\C55GEN.DLL 13:1151
   C:\C55\BIN\C55GEN.DLL 2d:1a3e
   C:\C55\BIN\C55GEN.DLL 21:02b7
   C:\C55\BIN\C55GEN.DLL 12:124c
----------------------------------
