"HEADING","Application","Module","Procedure","Field1","Field2","Field3","Field4","Field5","Field6","Field7","Field8","Field9","Field10",Number1,Number2,Number3,Number4
"VERSION","2.00","'check_Template_version'","","05/01/2005"," 9:58AM","74518","3590474","","","","","","",,,,
"APPNAME","loa01app","","1","","","DLL","S:\Bryans\UKCellular\v6.1\cellular.dct","loa01app.clw","","","","","",73061,74518,5316750,3590474
"PROCEDURE","loa01app","loa01001.clw","ExcessReport","","","PROCEDURE","UnivAbcReport","(String)","Excess_Report","GENERATED(ABC)","Clarion","","",73061,73112,5318837,5394980
"REPORT","loa01app","loa01001.clw","ExcessReport","REPORT,AT(396,2792,7521,8510),PAPER(PAPER:A4),PRE(rpt),FONT('Arial',10,,FONT:regular),THOUS"
"PRIMARY","loa01app","loa01001.clw","ExcessReport","","LOGSTOCK","","","","","","","","",0,0,0,0
"OTHER","loa01app","loa01001.clw","ExcessReport","","DEFAULTS","","","","","","","","",0,0,0,0
"OTHER","loa01app","loa01001.clw","ExcessReport","","DEFPRINT","","","","","","","","",0,0,0,0
"OTHER","loa01app","loa01001.clw","ExcessReport","","USERS","","","","","","","","",0,0,0,0
"OTHER","loa01app","loa01001.clw","ExcessReport","","LOG2TEMP","","","","","","","","",0,0,0,0
"OTHER","loa01app","loa01001.clw","ExcessReport","","LOGTEMP","","","","","","","","",0,0,0,0
"LOCALDATA","loa01app","loa01001.clw","ExcessReport","RejectRecord","","LONG,AUTO","","","","","","","",0,0,0,0
"LOCALDATA","loa01app","loa01001.clw","ExcessReport","save_logtmp_id","","USHORT,AUTO","","","","","","","",0,0,0,0
"LOCALDATA","loa01app","loa01001.clw","ExcessReport","save_lo2tmp_id","","USHORT,AUTO","","","","","","","",0,0,0,0
"LOCALDATA","loa01app","loa01001.clw","ExcessReport","LocalRequest","","LONG,AUTO","","","","","","","",0,0,0,0
"LOCALDATA","loa01app","loa01001.clw","ExcessReport","LocalResponse","","LONG,AUTO","","","","","","","",0,0,0,0
"LOCALDATA","loa01app","loa01001.clw","ExcessReport","FilesOpened","","LONG","","","","","","","",0,0,0,0
"LOCALDATA","loa01app","loa01001.clw","ExcessReport","WindowOpened","","LONG","","","","","","","",0,0,0,0
"LOCALDATA","loa01app","loa01001.clw","ExcessReport","RecordsToProcess","","LONG,AUTO","","","","","","","",0,0,0,0
"LOCALDATA","loa01app","loa01001.clw","ExcessReport","RecordsProcessed","","LONG,AUTO","","","","","","","",0,0,0,0
"LOCALDATA","loa01app","loa01001.clw","ExcessReport","RecordsPerCycle","","LONG,AUTO","","","","","","","",0,0,0,0
"LOCALDATA","loa01app","loa01001.clw","ExcessReport","RecordsThisCycle","","LONG,AUTO","","","","","","","",0,0,0,0
"LOCALDATA","loa01app","loa01001.clw","ExcessReport","PercentProgress","","BYTE","","","","","","","",0,0,0,0
"LOCALDATA","loa01app","loa01001.clw","ExcessReport","RecordStatus","","BYTE,AUTO","","","","","","","",0,0,0,0
"LOCALDATA","loa01app","loa01001.clw","ExcessReport","EndOfReport","","BYTE,AUTO","","","","","","","",0,0,0,0
"LOCALDATA","loa01app","loa01001.clw","ExcessReport","ReportRunDate","","LONG,AUTO","","","","","","","",0,0,0,0
"LOCALDATA","loa01app","loa01001.clw","ExcessReport","ReportRunTime","","LONG,AUTO","","","","","","","",0,0,0,0
"LOCALDATA","loa01app","loa01001.clw","ExcessReport","ReportPageNo","","SHORT,AUTO","","","","","","","",0,0,0,0
"LOCALDATA","loa01app","loa01001.clw","ExcessReport","FileOpensReached","","BYTE","","","","","","","",0,0,0,0
"LOCALDATA","loa01app","loa01001.clw","ExcessReport","PartialPreviewReq","","BYTE","","","","","","","",0,0,0,0
"LOCALDATA","loa01app","loa01001.clw","ExcessReport","DisplayProgress","","BYTE","","","","","","","",0,0,0,0
"LOCALDATA","loa01app","loa01001.clw","ExcessReport","InitialPath","","CSTRING(128)","","","","","","","",0,0,0,0
"LOCALDATA","loa01app","loa01001.clw","ExcessReport","Progress:Thermometer","","BYTE","","","","","","","",0,0,0,0
"LOCALDATA","loa01app","loa01001.clw","ExcessReport","IniFileToUse","","STRING(64)","","","","","","","",0,0,0,0
"LOCALDATA","loa01app","loa01001.clw","ExcessReport","tmp:printedby","","STRING(60)","","","","","","","",0,0,0,0
"LOCALDATA","loa01app","loa01001.clw","ExcessReport","tmp:telephonenumber","","STRING(20)","","","","","","","",0,0,0,0
"LOCALDATA","loa01app","loa01001.clw","ExcessReport","tmp:faxnumber","","STRING(20)","","","","","","","",0,0,0,0
"LOCALDATA","loa01app","loa01001.clw","ExcessReport","tmp:imei","","STRING(16),DIM(5)","","","","","","","",0,0,0,0
"LOCALDATA","loa01app","loa01001.clw","ExcessReport","LSolCtrlQ","","QUEUE,PRE()","","","","","","","",0,0,0,0
"LOCALDATA","loa01app","loa01001.clw","ExcessReport","SolaceUseRef","","LONG","","","","","","","",0,0,0,0
"LOCALDATA","loa01app","loa01001.clw","ExcessReport","SolaceCtrlName","","STRING(20)","","","","","","","",0,0,0,0
"LOCALDATA","loa01app","loa01001.clw","ExcessReport","","","END","","","","","","","",0,0,0,0
"CONTROLFILES","loa01app","loa01001.clw","ExcessReport","","LOGSTOCK","","","","","","","","",0,0,0,0
"CONTROLFILES","loa01app","loa01001.clw","ExcessReport","","LOGSTOCK","","","","","","","","",0,0,0,0
"CONTROLFILES","loa01app","loa01001.clw","ExcessReport","","LOGSTOCK","","","","","","","","",0,0,0,0
"CONTROLFILES","loa01app","loa01001.clw","ExcessReport","","LOGSTOCK","","","","","","","","",0,0,0,0
"CONTROLFILES","loa01app","loa01001.clw","ExcessReport","","LOGSTOCK","","","","","","","","",0,0,0,0
"CONTROLFILES","loa01app","loa01001.clw","ExcessReport","","LOGSTOCK","","","","","","","","",0,0,0,0
"CONTROLFILES","loa01app","loa01001.clw","ExcessReport","","LOGSTOCK","","","","","","","","",0,0,0,0
"TEMPLATES","loa01app","loa01001.clw","ExcessReport","","","UnivAbcReport","ClarioNETProcedure(ClarioNET)","","","","","","",0,0,0,0
"TEMPLATES","loa01app","loa01001.clw","ExcessReport","","","UnivAbcReport","LocalVCR(BryanTemplate)","","","","","","",0,0,0,0
"TEMPLATES","loa01app","loa01001.clw","ExcessReport","","","UnivAbcReport","CPCSReport(ABCCustomTemplate)","","","","","","",0,0,0,0
"TEMPLATES","loa01app","loa01001.clw","ExcessReport","","","UnivAbcReport","ExitReportLoop(CPCSAbcRpts)","","","","","","",0,0,0,0
"TEMPLATES","loa01app","loa01001.clw","ExcessReport","","","UnivAbcReport","LocalMakeOver(Makeover)","","","","","","",0,0,0,0
"TEMPLATES","loa01app","loa01001.clw","ExcessReport","","","UnivAbcReport","PageOfPage(CPCSAbcRpts)","","","","","","",0,0,0,0
"TEMPLATES","loa01app","loa01001.clw","ExcessReport","","","UnivAbcReport","SolaceViewVars(SolaceViewVars)","","","","","","",0,0,0,0
"PROCEDURE","loa01app","loa01002.clw","StockMovementExport","","","PROCEDURE","Window","","","GENERATED(ABC)","Clarion","","",73063,73217,6104876,6505057
"WINDOW","loa01app","loa01002.clw","StockMovementExport","WINDOW('Stock Movement Date Range'),AT(,,220,99),FONT('Arial',8,,FONT:regular,CHARSET:ANSI),CENTER,ICON('pc.ico'),GRAY,DOUBLE"
"OTHER","loa01app","loa01002.clw","StockMovementExport","","LOGSTHII","","","","","","","","",0,0,0,0
"OTHER","loa01app","loa01002.clw","StockMovementExport","","LOGSTHIS","","","","","","","","",0,0,0,0
"OTHER","loa01app","loa01002.clw","StockMovementExport","","LOGSTOCK","","","","","","","","",0,0,0,0
"OTHER","loa01app","loa01002.clw","StockMovementExport","","MODELNUM","","","","","","","","",0,0,0,0
"LOCALDATA","loa01app","loa01002.clw","StockMovementExport","tmp:startdate","","DATE","","","","","","","",0,0,0,0
"LOCALDATA","loa01app","loa01002.clw","StockMovementExport","tmp:ModelNumber","","STRING(30)","","","","","","","",0,0,0,0
"LOCALDATA","loa01app","loa01002.clw","StockMovementExport","tmp:SMPFNumber","","STRING(30)","","","","","","","",0,0,0,0
"LOCALDATA","loa01app","loa01002.clw","StockMovementExport","tmp:DeliveryNote","","STRING(30)","","","","","","","",0,0,0,0
"LOCALDATA","loa01app","loa01002.clw","StockMovementExport","savepath","","STRING(255)","","","","","","","",0,0,0,0
"LOCALDATA","loa01app","loa01002.clw","StockMovementExport","save_mod_id","","USHORT,AUTO","","","","","","","",0,0,0,0
"LOCALDATA","loa01app","loa01002.clw","StockMovementExport","save_logsth_id","","USHORT,AUTO","","","","","","","",0,0,0,0
"LOCALDATA","loa01app","loa01002.clw","StockMovementExport","tmp:EndDate","","DATE","","","","","","","",0,0,0,0
"LOCALDATA","loa01app","loa01002.clw","StockMovementExport","tmp:StockLocation","","STRING(30)","","","","","","","",0,0,0,0
"LOCALDATA","loa01app","loa01002.clw","StockMovementExport","LSolCtrlQ","","QUEUE,PRE()","","","","","","","",0,0,0,0
"LOCALDATA","loa01app","loa01002.clw","StockMovementExport","SolaceUseRef","","LONG","","","","","","","",0,0,0,0
"LOCALDATA","loa01app","loa01002.clw","StockMovementExport","SolaceCtrlName","","STRING(20)","","","","","","","",0,0,0,0
"LOCALDATA","loa01app","loa01002.clw","StockMovementExport","","","END","","","","","","","",0,0,0,0
"CONTROLFILES","loa01app","loa01002.clw","StockMovementExport","","LOGSTOLC","","","","","","","","",0,0,0,0
"ENTRY","loa01app","loa01002.clw","StockMovementExport","ENTRY(@d6),AT(84,36,64,10),USE(tmp:startdate),LEFT,FONT('Arial',8,,FONT:bold,CHARSET:ANSI),UPR"
"CONTROLS","loa01app","loa01002.clw","StockMovementExport","?PopCalendar","ICON('calenda2.ico')","BUTTON","","","","","","","",0,0,0,0
"BUTTON","loa01app","loa01002.clw","StockMovementExport","BUTTON,AT(152,36,10,10),USE(?PopCalendar),SKIP,ICON('calenda2.ico')"
"ENTRY","loa01app","loa01002.clw","StockMovementExport","ENTRY(@d6),AT(84,52,64,10),USE(tmp:EndDate),LEFT,FONT('Arial',8,,FONT:bold,CHARSET:ANSI),UPR"
"CONTROLS","loa01app","loa01002.clw","StockMovementExport","?PopCalendar:2","ICON('calenda2.ico')","BUTTON","","","","","","","",0,0,0,0
"BUTTON","loa01app","loa01002.clw","StockMovementExport","BUTTON,AT(152,52,10,10),USE(?PopCalendar:2),SKIP,ICON('calenda2.ico')"
"CONTROLS","loa01app","loa01002.clw","StockMovementExport","?OK","ICON('ok.gif')","BUTTON('&OK')","","","","","","","",0,0,0,0
"BUTTON","loa01app","loa01002.clw","StockMovementExport","BUTTON('&OK'),AT(100,76,56,16),USE(?OK),LEFT,ICON('ok.gif')"
"CONTROLS","loa01app","loa01002.clw","StockMovementExport","?Close","ICON('cancel.gif')","BUTTON('Cancel')","","","","","","","",0,0,0,0
"BUTTON","loa01app","loa01002.clw","StockMovementExport","BUTTON('Cancel'),AT(156,76,56,16),USE(?Close),LEFT,ICON('cancel.gif')"
"TEMPLATES","loa01app","loa01002.clw","StockMovementExport","","","Window","ClarioNETProcedure(ClarioNET)","","","","","","",0,0,0,0
"TEMPLATES","loa01app","loa01002.clw","StockMovementExport","","","Window","LocalVCR(BryanTemplate)","","","","","","",0,0,0,0
"TEMPLATES","loa01app","loa01002.clw","StockMovementExport","","","Window","CloseButton(ABC)","","","","","","",0,0,0,0
"TEMPLATES","loa01app","loa01002.clw","StockMovementExport","","","Window","LocalMakeOver(Makeover)","","","","","","",0,0,0,0
"TEMPLATES","loa01app","loa01002.clw","StockMovementExport","","","Window","TINCalendarLookup(TINTOOLSABC)","","","","","","",0,0,0,0
"TEMPLATES","loa01app","loa01002.clw","StockMovementExport","","","Window","FileDropCombo(ABC)","","","","","","",0,0,0,0
"TEMPLATES","loa01app","loa01002.clw","StockMovementExport","","","Window","SolaceViewVars(SolaceViewVars)","","","","","","",0,0,0,0
"CONTROLS","loa01app","loa01002.clw","StockMovementExport","Window Icon","ICON('pc.ico')","","","window","","","","","",0,0,0,0
"PROCEDURE","loa01app","loa01003.clw","DoNotDeleteLog2","","","PROCEDURE","Window","","","GENERATED(ABC)","Clarion","","",73063,73063,6479627,6480929
"WINDOW","loa01app","loa01003.clw","DoNotDeleteLog2","WINDOW('Caption'),AT(,,260,100),GRAY,DOUBLE"
"OTHER","loa01app","loa01003.clw","DoNotDeleteLog2","","EXPGENDM","","","","","","","","",0,0,0,0
"LOCALDATA","loa01app","loa01003.clw","DoNotDeleteLog2","LSolCtrlQ","","QUEUE,PRE()","","","","","","","",0,0,0,0
"LOCALDATA","loa01app","loa01003.clw","DoNotDeleteLog2","SolaceUseRef","","LONG","","","","","","","",0,0,0,0
"LOCALDATA","loa01app","loa01003.clw","DoNotDeleteLog2","SolaceCtrlName","","STRING(20)","","","","","","","",0,0,0,0
"LOCALDATA","loa01app","loa01003.clw","DoNotDeleteLog2","","","END","","","","","","","",0,0,0,0
"TEMPLATES","loa01app","loa01003.clw","DoNotDeleteLog2","","","Window","ClarioNETProcedure(ClarioNET)","","","","","","",0,0,0,0
"TEMPLATES","loa01app","loa01003.clw","DoNotDeleteLog2","","","Window","LocalVCR(BryanTemplate)","","","","","","",0,0,0,0
"TEMPLATES","loa01app","loa01003.clw","DoNotDeleteLog2","","","Window","LocalMakeOver(Makeover)","","","","","","",0,0,0,0
"TEMPLATES","loa01app","loa01003.clw","DoNotDeleteLog2","","","Window","SolaceViewVars(SolaceViewVars)","","","","","","",0,0,0,0
"PROCEDURE","loa01app","loa01004.clw","LogDespatchNote","","","PROCEDURE","UnivAbcReport","(Long)","Despatch Note","GENERATED(ABC)","Clarion","","",73069,73112,3511612,5398440
"REPORT","loa01app","loa01004.clw","LogDespatchNote","REPORT,AT(396,3865,7521,7438),PAPER(PAPER:A4),PRE(rpt),FONT('Arial',10,,FONT:regular),THOUS"
"PRIMARY","loa01app","loa01004.clw","LogDespatchNote","","LOGSTOCK","","","","","","","","",0,0,0,0
"OTHER","loa01app","loa01004.clw","LogDespatchNote","","LOGSTHIS","","","","","","","","",0,0,0,0
"OTHER","loa01app","loa01004.clw","LogDespatchNote","","LOGSTHII","","","","","","","","",0,0,0,0
"OTHER","loa01app","loa01004.clw","LogDespatchNote","","STANTEXT","","","","","","","","",0,0,0,0
"OTHER","loa01app","loa01004.clw","LogDespatchNote","","DEFAULTS","","","","","","","","",0,0,0,0
"OTHER","loa01app","loa01004.clw","LogDespatchNote","","DEFPRINT","","","","","","","","",0,0,0,0
"OTHER","loa01app","loa01004.clw","LogDespatchNote","","LOGCLSTE","","","","","","","","",0,0,0,0
"LOCALDATA","loa01app","loa01004.clw","LogDespatchNote","RejectRecord","","LONG,AUTO","","","","","","","",0,0,0,0
"LOCALDATA","loa01app","loa01004.clw","LogDespatchNote","save_logsti_id","","USHORT,AUTO","","","","","","","",0,0,0,0
"LOCALDATA","loa01app","loa01004.clw","LogDespatchNote","LocalRequest","","LONG,AUTO","","","","","","","",0,0,0,0
"LOCALDATA","loa01app","loa01004.clw","LogDespatchNote","LocalResponse","","LONG,AUTO","","","","","","","",0,0,0,0
"LOCALDATA","loa01app","loa01004.clw","LogDespatchNote","FilesOpened","","LONG","","","","","","","",0,0,0,0
"LOCALDATA","loa01app","loa01004.clw","LogDespatchNote","WindowOpened","","LONG","","","","","","","",0,0,0,0
"LOCALDATA","loa01app","loa01004.clw","LogDespatchNote","RecordsToProcess","","LONG,AUTO","","","","","","","",0,0,0,0
"LOCALDATA","loa01app","loa01004.clw","LogDespatchNote","RecordsProcessed","","LONG,AUTO","","","","","","","",0,0,0,0
"LOCALDATA","loa01app","loa01004.clw","LogDespatchNote","RecordsPerCycle","","LONG,AUTO","","","","","","","",0,0,0,0
"LOCALDATA","loa01app","loa01004.clw","LogDespatchNote","RecordsThisCycle","","LONG,AUTO","","","","","","","",0,0,0,0
"LOCALDATA","loa01app","loa01004.clw","LogDespatchNote","PercentProgress","","BYTE","","","","","","","",0,0,0,0
"LOCALDATA","loa01app","loa01004.clw","LogDespatchNote","RecordStatus","","BYTE,AUTO","","","","","","","",0,0,0,0
"LOCALDATA","loa01app","loa01004.clw","LogDespatchNote","EndOfReport","","BYTE,AUTO","","","","","","","",0,0,0,0
"LOCALDATA","loa01app","loa01004.clw","LogDespatchNote","ReportRunDate","","LONG,AUTO","","","","","","","",0,0,0,0
"LOCALDATA","loa01app","loa01004.clw","LogDespatchNote","ReportRunTime","","LONG,AUTO","","","","","","","",0,0,0,0
"LOCALDATA","loa01app","loa01004.clw","LogDespatchNote","ReportPageNo","","SHORT,AUTO","","","","","","","",0,0,0,0
"LOCALDATA","loa01app","loa01004.clw","LogDespatchNote","FileOpensReached","","BYTE","","","","","","","",0,0,0,0
"LOCALDATA","loa01app","loa01004.clw","LogDespatchNote","PartialPreviewReq","","BYTE","","","","","","","",0,0,0,0
"LOCALDATA","loa01app","loa01004.clw","LogDespatchNote","DisplayProgress","","BYTE","","","","","","","",0,0,0,0
"LOCALDATA","loa01app","loa01004.clw","LogDespatchNote","InitialPath","","CSTRING(128)","","","","","","","",0,0,0,0
"LOCALDATA","loa01app","loa01004.clw","LogDespatchNote","Progress:Thermometer","","BYTE","","","","","","","",0,0,0,0
"LOCALDATA","loa01app","loa01004.clw","LogDespatchNote","IniFileToUse","","STRING(64)","","","","","","","",0,0,0,0
"LOCALDATA","loa01app","loa01004.clw","LogDespatchNote","tmp:count","","LONG","","","","","","","",0,0,0,0
"LOCALDATA","loa01app","loa01004.clw","LogDespatchNote","tmp:printedby","","STRING(60)","","","","","","","",0,0,0,0
"LOCALDATA","loa01app","loa01004.clw","LogDespatchNote","tmp:defaulttelephone","","STRING(20)","","","","","","","",0,0,0,0
"LOCALDATA","loa01app","loa01004.clw","LogDespatchNote","tmp:defaultfax","","STRING(20)","","","","","","","",0,0,0,0
"LOCALDATA","loa01app","loa01004.clw","LogDespatchNote","LSolCtrlQ","","QUEUE,PRE()","","","","","","","",0,0,0,0
"LOCALDATA","loa01app","loa01004.clw","LogDespatchNote","SolaceUseRef","","LONG","","","","","","","",0,0,0,0
"LOCALDATA","loa01app","loa01004.clw","LogDespatchNote","SolaceCtrlName","","STRING(20)","","","","","","","",0,0,0,0
"LOCALDATA","loa01app","loa01004.clw","LogDespatchNote","","","END","","","","","","","",0,0,0,0
"CONTROLFILES","loa01app","loa01004.clw","LogDespatchNote","","LOGSTOCK","","","","","","","","",0,0,0,0
"CONTROLFILES","loa01app","loa01004.clw","LogDespatchNote","","LOGSTOCK","","","","","","","","",0,0,0,0
"CONTROLFILES","loa01app","loa01004.clw","LogDespatchNote","","LOGSTOCK","","","","","","","","",0,0,0,0
"CONTROLFILES","loa01app","loa01004.clw","LogDespatchNote","","LOGSTOCK","","","","","","","","",0,0,0,0
"CONTROLFILES","loa01app","loa01004.clw","LogDespatchNote","","LOGSTOCK","","","","","","","","",0,0,0,0
"CONTROLFILES","loa01app","loa01004.clw","LogDespatchNote","","LOGSTOCK","","","","","","","","",0,0,0,0
"CONTROLFILES","loa01app","loa01004.clw","LogDespatchNote","","LOGSTOCK","","","","","","","","",0,0,0,0
"TEMPLATES","loa01app","loa01004.clw","LogDespatchNote","","","UnivAbcReport","ClarioNETProcedure(ClarioNET)","","","","","","",0,0,0,0
"TEMPLATES","loa01app","loa01004.clw","LogDespatchNote","","","UnivAbcReport","LocalVCR(BryanTemplate)","","","","","","",0,0,0,0
"TEMPLATES","loa01app","loa01004.clw","LogDespatchNote","","","UnivAbcReport","LocalMakeOver(Makeover)","","","","","","",0,0,0,0
"TEMPLATES","loa01app","loa01004.clw","LogDespatchNote","","","UnivAbcReport","CPCSReport(ABCCustomTemplate)","","","","","","",0,0,0,0
"TEMPLATES","loa01app","loa01004.clw","LogDespatchNote","","","UnivAbcReport","ExitReportLoop(CPCSAbcRpts)","","","","","","",0,0,0,0
"TEMPLATES","loa01app","loa01004.clw","LogDespatchNote","","","UnivAbcReport","PageOfPage(CPCSAbcRpts)","","","","","","",0,0,0,0
"TEMPLATES","loa01app","loa01004.clw","LogDespatchNote","","","UnivAbcReport","SolaceViewVars(SolaceViewVars)","","","","","","",0,0,0,0
"PROCEDURE","loa01app","loa01005.clw","GlobalIMEIReport","","","PROCEDURE","UnivAbcReport","","Global IMEI Report","GENERATED(ABC)","Clarion","","",73069,73112,4896636,5396952
"REPORT","loa01app","loa01005.clw","GlobalIMEIReport","REPORT,AT(396,2792,7521,8510),PAPER(PAPER:A4),PRE(rpt),FONT('Arial',10,,FONT:regular),THOUS"
"PRIMARY","loa01app","loa01005.clw","GlobalIMEIReport","","LOGSTOCK","","","","","","","","",0,0,0,0
"OTHER","loa01app","loa01005.clw","GlobalIMEIReport","","LOGSTHIS","","","","","","","","",0,0,0,0
"OTHER","loa01app","loa01005.clw","GlobalIMEIReport","","LOGSTHII","","","","","","","","",0,0,0,0
"OTHER","loa01app","loa01005.clw","GlobalIMEIReport","","DEFAULTS","","","","","","","","",0,0,0,0
"OTHER","loa01app","loa01005.clw","GlobalIMEIReport","","USERS","","","","","","","","",0,0,0,0
"LOCALDATA","loa01app","loa01005.clw","GlobalIMEIReport","RejectRecord","","LONG,AUTO","","","","","","","",0,0,0,0
"LOCALDATA","loa01app","loa01005.clw","GlobalIMEIReport","save_logsti_id","","USHORT,AUTO","","","","","","","",0,0,0,0
"LOCALDATA","loa01app","loa01005.clw","GlobalIMEIReport","LocalRequest","","LONG,AUTO","","","","","","","",0,0,0,0
"LOCALDATA","loa01app","loa01005.clw","GlobalIMEIReport","LocalResponse","","LONG,AUTO","","","","","","","",0,0,0,0
"LOCALDATA","loa01app","loa01005.clw","GlobalIMEIReport","FilesOpened","","LONG","","","","","","","",0,0,0,0
"LOCALDATA","loa01app","loa01005.clw","GlobalIMEIReport","WindowOpened","","LONG","","","","","","","",0,0,0,0
"LOCALDATA","loa01app","loa01005.clw","GlobalIMEIReport","RecordsToProcess","","LONG,AUTO","","","","","","","",0,0,0,0
"LOCALDATA","loa01app","loa01005.clw","GlobalIMEIReport","RecordsProcessed","","LONG,AUTO","","","","","","","",0,0,0,0
"LOCALDATA","loa01app","loa01005.clw","GlobalIMEIReport","RecordsPerCycle","","LONG,AUTO","","","","","","","",0,0,0,0
"LOCALDATA","loa01app","loa01005.clw","GlobalIMEIReport","RecordsThisCycle","","LONG,AUTO","","","","","","","",0,0,0,0
"LOCALDATA","loa01app","loa01005.clw","GlobalIMEIReport","PercentProgress","","BYTE","","","","","","","",0,0,0,0
"LOCALDATA","loa01app","loa01005.clw","GlobalIMEIReport","RecordStatus","","BYTE,AUTO","","","","","","","",0,0,0,0
"LOCALDATA","loa01app","loa01005.clw","GlobalIMEIReport","EndOfReport","","BYTE,AUTO","","","","","","","",0,0,0,0
"LOCALDATA","loa01app","loa01005.clw","GlobalIMEIReport","ReportRunDate","","LONG,AUTO","","","","","","","",0,0,0,0
"LOCALDATA","loa01app","loa01005.clw","GlobalIMEIReport","ReportRunTime","","LONG,AUTO","","","","","","","",0,0,0,0
"LOCALDATA","loa01app","loa01005.clw","GlobalIMEIReport","ReportPageNo","","SHORT,AUTO","","","","","","","",0,0,0,0
"LOCALDATA","loa01app","loa01005.clw","GlobalIMEIReport","FileOpensReached","","BYTE","","","","","","","",0,0,0,0
"LOCALDATA","loa01app","loa01005.clw","GlobalIMEIReport","PartialPreviewReq","","BYTE","","","","","","","",0,0,0,0
"LOCALDATA","loa01app","loa01005.clw","GlobalIMEIReport","DisplayProgress","","BYTE","","","","","","","",0,0,0,0
"LOCALDATA","loa01app","loa01005.clw","GlobalIMEIReport","InitialPath","","CSTRING(128)","","","","","","","",0,0,0,0
"LOCALDATA","loa01app","loa01005.clw","GlobalIMEIReport","Progress:Thermometer","","BYTE","","","","","","","",0,0,0,0
"LOCALDATA","loa01app","loa01005.clw","GlobalIMEIReport","IniFileToUse","","STRING(64)","","","","","","","",0,0,0,0
"LOCALDATA","loa01app","loa01005.clw","GlobalIMEIReport","tmp:printedby","","STRING(60)","","","","","","","",0,0,0,0
"LOCALDATA","loa01app","loa01005.clw","GlobalIMEIReport","tmp:telephonenumber","","STRING(20)","","","","","","","",0,0,0,0
"LOCALDATA","loa01app","loa01005.clw","GlobalIMEIReport","tmp:faxnumber","","STRING(20)","","","","","","","",0,0,0,0
"LOCALDATA","loa01app","loa01005.clw","GlobalIMEIReport","LSolCtrlQ","","QUEUE,PRE()","","","","","","","",0,0,0,0
"LOCALDATA","loa01app","loa01005.clw","GlobalIMEIReport","SolaceUseRef","","LONG","","","","","","","",0,0,0,0
"LOCALDATA","loa01app","loa01005.clw","GlobalIMEIReport","SolaceCtrlName","","STRING(20)","","","","","","","",0,0,0,0
"LOCALDATA","loa01app","loa01005.clw","GlobalIMEIReport","","","END","","","","","","","",0,0,0,0
"CONTROLFILES","loa01app","loa01005.clw","GlobalIMEIReport","","LOGSTOCK","","","","","","","","",0,0,0,0
"CONTROLFILES","loa01app","loa01005.clw","GlobalIMEIReport","","LOGSTOCK","","","","","","","","",0,0,0,0
"CONTROLFILES","loa01app","loa01005.clw","GlobalIMEIReport","","LOGSTOCK","","","","","","","","",0,0,0,0
"CONTROLFILES","loa01app","loa01005.clw","GlobalIMEIReport","","LOGSTOCK","","","","","","","","",0,0,0,0
"CONTROLFILES","loa01app","loa01005.clw","GlobalIMEIReport","","LOGSTOCK","","","","","","","","",0,0,0,0
"CONTROLFILES","loa01app","loa01005.clw","GlobalIMEIReport","","LOGSTOCK","","","","","","","","",0,0,0,0
"CONTROLFILES","loa01app","loa01005.clw","GlobalIMEIReport","","LOGSTOCK","","","","","","","","",0,0,0,0
"TEMPLATES","loa01app","loa01005.clw","GlobalIMEIReport","","","UnivAbcReport","ClarioNETProcedure(ClarioNET)","","","","","","",0,0,0,0
"TEMPLATES","loa01app","loa01005.clw","GlobalIMEIReport","","","UnivAbcReport","LocalVCR(BryanTemplate)","","","","","","",0,0,0,0
"TEMPLATES","loa01app","loa01005.clw","GlobalIMEIReport","","","UnivAbcReport","LocalMakeOver(Makeover)","","","","","","",0,0,0,0
"TEMPLATES","loa01app","loa01005.clw","GlobalIMEIReport","","","UnivAbcReport","ExitReportLoop(CPCSAbcRpts)","","","","","","",0,0,0,0
"TEMPLATES","loa01app","loa01005.clw","GlobalIMEIReport","","","UnivAbcReport","PageOfPage(CPCSAbcRpts)","","","","","","",0,0,0,0
"TEMPLATES","loa01app","loa01005.clw","GlobalIMEIReport","","","UnivAbcReport","SolaceViewVars(SolaceViewVars)","","","","","","",0,0,0,0
"TEMPLATES","loa01app","loa01005.clw","GlobalIMEIReport","","","UnivAbcReport","CPCSReport(ABCCustomTemplate)","","","","","","",0,0,0,0
"PROCEDURE","loa01app","loa01006.clw","GlobalIMEICriteria","","","PROCEDURE","Window","","","GENERATED(ABC)","Clarion","","",73069,73217,5690441,6487355
"WINDOW","loa01app","loa01006.clw","GlobalIMEICriteria","WINDOW('I.M.E.I. History Report'),AT(,,220,71),FONT('Arial',8,,FONT:regular,CHARSET:ANSI),CENTER,ICON('pc.ico'),GRAY,DOUBLE"
"CALLTO","loa01app","loa01006.clw","GlobalIMEICriteria","GlobalIMEIReport","","","","","","","","","",0,0,0,0
"LOCALDATA","loa01app","loa01006.clw","GlobalIMEICriteria","LSolCtrlQ","","QUEUE,PRE()","","","","","","","",0,0,0,0
"LOCALDATA","loa01app","loa01006.clw","GlobalIMEICriteria","SolaceUseRef","","LONG","","","","","","","",0,0,0,0
"LOCALDATA","loa01app","loa01006.clw","GlobalIMEICriteria","SolaceCtrlName","","STRING(20)","","","","","","","",0,0,0,0
"LOCALDATA","loa01app","loa01006.clw","GlobalIMEICriteria","","","END","","","","","","","",0,0,0,0
"ENTRY","loa01app","loa01006.clw","GlobalIMEICriteria","ENTRY(@s16),AT(84,20,124,10),USE(GLO:Select1),FONT(,,,FONT:bold)"
"CONTROLS","loa01app","loa01006.clw","GlobalIMEICriteria","?Button2","ICON('ok.gif')","BUTTON('&OK')","","","","","","","",0,0,0,0
"BUTTON","loa01app","loa01006.clw","GlobalIMEICriteria","BUTTON('&OK'),AT(100,48,56,16),USE(?Button2),LEFT,ICON('ok.gif')"
"CONTROLS","loa01app","loa01006.clw","GlobalIMEICriteria","?Close","ICON('cancel.gif')","BUTTON('Cancel')","","","","","","","",0,0,0,0
"BUTTON","loa01app","loa01006.clw","GlobalIMEICriteria","BUTTON('Cancel'),AT(156,48,56,16),USE(?Close),LEFT,ICON('cancel.gif')"
"TEMPLATES","loa01app","loa01006.clw","GlobalIMEICriteria","","","Window","ClarioNETProcedure(ClarioNET)","","","","","","",0,0,0,0
"TEMPLATES","loa01app","loa01006.clw","GlobalIMEICriteria","","","Window","LocalVCR(BryanTemplate)","","","","","","",0,0,0,0
"TEMPLATES","loa01app","loa01006.clw","GlobalIMEICriteria","","","Window","LocalMakeOver(Makeover)","","","","","","",0,0,0,0
"TEMPLATES","loa01app","loa01006.clw","GlobalIMEICriteria","","","Window","CloseButton(ABC)","","","","","","",0,0,0,0
"TEMPLATES","loa01app","loa01006.clw","GlobalIMEICriteria","","","Window","SolaceViewVars(SolaceViewVars)","","","","","","",0,0,0,0
"CONTROLS","loa01app","loa01006.clw","GlobalIMEICriteria","Window Icon","ICON('pc.ico')","","","window","","","","","",0,0,0,0
"PROCEDURE","loa01app","loa01007.clw","StockLevelCriteria","","","PROCEDURE","Window","","","GENERATED(ABC)","Clarion","","",73075,73217,6173637,6485883
"WINDOW","loa01app","loa01007.clw","StockLevelCriteria","WINDOW('Stock Level Report Criteria'),AT(,,248,259),FONT('Arial',8,,FONT:regular,CHARSET:ANSI),CENTER,IMM,ICON('pc.ico'),GRAY,DOUBLE"
"CALLTO","loa01app","loa01007.clw","StockLevelCriteria","StockLevelReport","","","","","","","","","",0,0,0,0
"LOCALDATA","loa01app","loa01007.clw","StockLevelCriteria","tmp:tag","","STRING(1)","","","","","","","",0,0,0,0
"LOCALDATA","loa01app","loa01007.clw","StockLevelCriteria","tmp:tag2","","STRING(1)","","","","","","","",0,0,0,0
"LOCALDATA","loa01app","loa01007.clw","StockLevelCriteria","LSolCtrlQ","","QUEUE,PRE()","","","","","","","",0,0,0,0
"LOCALDATA","loa01app","loa01007.clw","StockLevelCriteria","SolaceUseRef","","LONG","","","","","","","",0,0,0,0
"LOCALDATA","loa01app","loa01007.clw","StockLevelCriteria","SolaceCtrlName","","STRING(20)","","","","","","","",0,0,0,0
"LOCALDATA","loa01app","loa01007.clw","StockLevelCriteria","","","END","","","","","","","",0,0,0,0
"CONTROLFILES","loa01app","loa01007.clw","StockLevelCriteria","","LOGSTOLC","","","","","","","","",0,0,0,0
"CONTROLFILES","loa01app","loa01007.clw","StockLevelCriteria","","LOGCLSTE","","","","","","","","",0,0,0,0
"CONTROLFILES","loa01app","loa01007.clw","StockLevelCriteria","","LOGSTOLC","","","","","","","","",0,0,0,0
"CONTROLFILES","loa01app","loa01007.clw","StockLevelCriteria","","LOGCLSTE","","","","","","","","",0,0,0,0
"CONTROLS","loa01app","loa01007.clw","StockLevelCriteria","?VSBackButton","ICON(ICON:VCRrewind)","BUTTON('&Back')","","","","","","","",0,0,0,0
"BUTTON","loa01app","loa01007.clw","StockLevelCriteria","BUTTON('&Back'),AT(8,236,56,16),USE(?VSBackButton),LEFT,ICON(ICON:VCRrewind)"
"CONTROLS","loa01app","loa01007.clw","StockLevelCriteria","?VSNextButton","ICON(ICON:VCRfastforward)","BUTTON('&Next')","","","","","","","",0,0,0,0
"BUTTON","loa01app","loa01007.clw","StockLevelCriteria","BUTTON('&Next'),AT(64,236,56,16),USE(?VSNextButton),LEFT,ICON(ICON:VCRfastforward)"
"CONTROLS","loa01app","loa01007.clw","StockLevelCriteria","?Finish","ICON('thumbs.gif')","BUTTON('&Finish')","","","","","","","",0,0,0,0
"BUTTON","loa01app","loa01007.clw","StockLevelCriteria","BUTTON('&Finish'),AT(128,236,56,16),USE(?Finish),LEFT,ICON('thumbs.gif')"
"CONTROLS","loa01app","loa01007.clw","StockLevelCriteria","?Close","ICON('cancel.gif')","BUTTON('Close')","","","","","","","",0,0,0,0
"BUTTON","loa01app","loa01007.clw","StockLevelCriteria","BUTTON('Close'),AT(184,236,56,16),USE(?Close),LEFT,ICON('cancel.gif')"
"LIST","loa01app","loa01007.clw","StockLevelCriteria","USE(?List)","FROM(Queue:Browse)","","VSCROLL","","MSG('Browsing Records')","","IMM","","",0,0,0,0
"CONTROLS","loa01app","loa01007.clw","StockLevelCriteria","?DASREVTAG","","BUTTON('&Rev tags')","","","","","","","",0,0,0,0
"BUTTON","loa01app","loa01007.clw","StockLevelCriteria","BUTTON('&Rev tags'),AT(141,100,50,13),USE(?DASREVTAG),HIDE"
"CONTROLS","loa01app","loa01007.clw","StockLevelCriteria","?DASSHOWTAG","","BUTTON('sho&W tags')","","","","","","","",0,0,0,0
"BUTTON","loa01app","loa01007.clw","StockLevelCriteria","BUTTON('sho&W tags'),AT(149,124,70,13),USE(?DASSHOWTAG),HIDE"
"CONTROLS","loa01app","loa01007.clw","StockLevelCriteria","?DASTAG","ICON('tag.gif')","BUTTON('&Tag')","","","","","","","",0,0,0,0
"BUTTON","loa01app","loa01007.clw","StockLevelCriteria","BUTTON('&Tag'),AT(92,204,48,16),USE(?DASTAG),LEFT,ICON('tag.gif')"
"CONTROLS","loa01app","loa01007.clw","StockLevelCriteria","?DASTAGAll","ICON('tagall.gif')","BUTTON('T&ag All')","","","","","","","",0,0,0,0
"BUTTON","loa01app","loa01007.clw","StockLevelCriteria","BUTTON('T&ag All'),AT(140,204,48,16),USE(?DASTAGAll),LEFT,ICON('tagall.gif')"
"CONTROLS","loa01app","loa01007.clw","StockLevelCriteria","?DASUNTAGALL","ICON('untag.gif')","BUTTON('&Untag All')","","","","","","","",0,0,0,0
"BUTTON","loa01app","loa01007.clw","StockLevelCriteria","BUTTON('&Untag All'),AT(189,204,48,16),USE(?DASUNTAGALL),LEFT,ICON('untag.gif')"
"LIST","loa01app","loa01007.clw","StockLevelCriteria","USE(?List:2)","FROM(Queue:Browse:1)","","VSCROLL","","MSG('Browsing Records')","","IMM","","",0,0,0,0
"CONTROLS","loa01app","loa01007.clw","StockLevelCriteria","?DASREVTAG:2","","BUTTON('&Rev tags')","","","","","","","",0,0,0,0
"BUTTON","loa01app","loa01007.clw","StockLevelCriteria","BUTTON('&Rev tags'),AT(133,124,50,13),USE(?DASREVTAG:2),HIDE"
"CONTROLS","loa01app","loa01007.clw","StockLevelCriteria","?DASSHOWTAG:2","","BUTTON('sho&W tags')","","","","","","","",0,0,0,0
"BUTTON","loa01app","loa01007.clw","StockLevelCriteria","BUTTON('sho&W tags'),AT(141,148,70,13),USE(?DASSHOWTAG:2),HIDE"
"CONTROLS","loa01app","loa01007.clw","StockLevelCriteria","?DASTAG:2","ICON('tag.gif')","BUTTON('&Tag')","","","","","","","",0,0,0,0
"BUTTON","loa01app","loa01007.clw","StockLevelCriteria","BUTTON('&Tag'),AT(92,204,48,16),USE(?DASTAG:2),LEFT,ICON('tag.gif')"
"CONTROLS","loa01app","loa01007.clw","StockLevelCriteria","?DASTAGAll:2","ICON('tagall.gif')","BUTTON('T&ag All')","","","","","","","",0,0,0,0
"BUTTON","loa01app","loa01007.clw","StockLevelCriteria","BUTTON('T&ag All'),AT(140,204,48,16),USE(?DASTAGAll:2),LEFT,ICON('tagall.gif')"
"CONTROLS","loa01app","loa01007.clw","StockLevelCriteria","?DASUNTAGALL:2","ICON('untag.gif')","BUTTON('&Untag All')","","","","","","","",0,0,0,0
"BUTTON","loa01app","loa01007.clw","StockLevelCriteria","BUTTON('&Untag All'),AT(188,204,48,16),USE(?DASUNTAGALL:2),LEFT,ICON('untag.gif')"
"CONTROLS","loa01app","loa01007.clw","StockLevelCriteria","?Image1","","","IMAGE('wizard.gif')","","","","","","",0,0,0,0
"TEMPLATES","loa01app","loa01007.clw","StockLevelCriteria","","","Window","ClarioNETProcedure(ClarioNET)","","","","","","",0,0,0,0
"TEMPLATES","loa01app","loa01007.clw","StockLevelCriteria","","","Window","LocalVCR(BryanTemplate)","","","","","","",0,0,0,0
"TEMPLATES","loa01app","loa01007.clw","StockLevelCriteria","","","Window","DAS_TagBrowseABC(DAS_TagingABC)","","","","","","",0,0,0,0
"TEMPLATES","loa01app","loa01007.clw","StockLevelCriteria","","","Window","LocalMakeOver(Makeover)","","","","","","",0,0,0,0
"TEMPLATES","loa01app","loa01007.clw","StockLevelCriteria","","","Window","BrowseBox(ABC)","","","","","","",0,0,0,0
"TEMPLATES","loa01app","loa01007.clw","StockLevelCriteria","","","Window","CloseButton(ABC)","","","","","","",0,0,0,0
"TEMPLATES","loa01app","loa01007.clw","StockLevelCriteria","","","Window","FormWizardButtonClass(ABCFree)","","","","","","",0,0,0,0
"TEMPLATES","loa01app","loa01007.clw","StockLevelCriteria","","","Window","SolaceViewVars(SolaceViewVars)","","","","","","",0,0,0,0
"CONTROLS","loa01app","loa01007.clw","StockLevelCriteria","Window Icon","ICON('pc.ico')","","","window","","","","","",0,0,0,0
"PROCEDURE","loa01app","loa01008.clw","StockLevelReport","","","PROCEDURE","UnivAbcReport","","Stock Level Report","GENERATED(ABC)","Clarion","","",73075,73112,6254971,5399819
"REPORT","loa01app","loa01008.clw","StockLevelReport","REPORT,AT(396,2792,7521,8510),PAPER(PAPER:A4),PRE(rpt),FONT('Arial',10,,FONT:regular),THOUS"
"PRIMARY","loa01app","loa01008.clw","StockLevelReport","","LOGSTOCK","","","","","","","","",0,0,0,0
"OTHER","loa01app","loa01008.clw","StockLevelReport","","LOGSTLOC","","","","","","","","",0,0,0,0
"OTHER","loa01app","loa01008.clw","StockLevelReport","","LOGSERST","","","","","","","","",0,0,0,0
"OTHER","loa01app","loa01008.clw","StockLevelReport","","DEFAULTS","","","","","","","","",0,0,0,0
"OTHER","loa01app","loa01008.clw","StockLevelReport","","DEFPRINT","","","","","","","","",0,0,0,0
"OTHER","loa01app","loa01008.clw","StockLevelReport","","USERS","","","","","","","","",0,0,0,0
"LOCALDATA","loa01app","loa01008.clw","StockLevelReport","RejectRecord","","LONG,AUTO","","","","","","","",0,0,0,0
"LOCALDATA","loa01app","loa01008.clw","StockLevelReport","save_lstl_id","","USHORT,AUTO","","","","","","","",0,0,0,0
"LOCALDATA","loa01app","loa01008.clw","StockLevelReport","save_logser_id","","USHORT,AUTO","","","","","","","",0,0,0,0
"LOCALDATA","loa01app","loa01008.clw","StockLevelReport","save_logsto_id","","USHORT,AUTO","","","","","","","",0,0,0,0
"LOCALDATA","loa01app","loa01008.clw","StockLevelReport","LocalRequest","","LONG,AUTO","","","","","","","",0,0,0,0
"LOCALDATA","loa01app","loa01008.clw","StockLevelReport","LocalResponse","","LONG,AUTO","","","","","","","",0,0,0,0
"LOCALDATA","loa01app","loa01008.clw","StockLevelReport","FilesOpened","","LONG","","","","","","","",0,0,0,0
"LOCALDATA","loa01app","loa01008.clw","StockLevelReport","WindowOpened","","LONG","","","","","","","",0,0,0,0
"LOCALDATA","loa01app","loa01008.clw","StockLevelReport","RecordsToProcess","","LONG,AUTO","","","","","","","",0,0,0,0
"LOCALDATA","loa01app","loa01008.clw","StockLevelReport","RecordsProcessed","","LONG,AUTO","","","","","","","",0,0,0,0
"LOCALDATA","loa01app","loa01008.clw","StockLevelReport","RecordsPerCycle","","LONG,AUTO","","","","","","","",0,0,0,0
"LOCALDATA","loa01app","loa01008.clw","StockLevelReport","RecordsThisCycle","","LONG,AUTO","","","","","","","",0,0,0,0
"LOCALDATA","loa01app","loa01008.clw","StockLevelReport","PercentProgress","","BYTE","","","","","","","",0,0,0,0
"LOCALDATA","loa01app","loa01008.clw","StockLevelReport","RecordStatus","","BYTE,AUTO","","","","","","","",0,0,0,0
"LOCALDATA","loa01app","loa01008.clw","StockLevelReport","EndOfReport","","BYTE,AUTO","","","","","","","",0,0,0,0
"LOCALDATA","loa01app","loa01008.clw","StockLevelReport","ReportRunDate","","LONG,AUTO","","","","","","","",0,0,0,0
"LOCALDATA","loa01app","loa01008.clw","StockLevelReport","ReportRunTime","","LONG,AUTO","","","","","","","",0,0,0,0
"LOCALDATA","loa01app","loa01008.clw","StockLevelReport","ReportPageNo","","SHORT,AUTO","","","","","","","",0,0,0,0
"LOCALDATA","loa01app","loa01008.clw","StockLevelReport","FileOpensReached","","BYTE","","","","","","","",0,0,0,0
"LOCALDATA","loa01app","loa01008.clw","StockLevelReport","PartialPreviewReq","","BYTE","","","","","","","",0,0,0,0
"LOCALDATA","loa01app","loa01008.clw","StockLevelReport","DisplayProgress","","BYTE","","","","","","","",0,0,0,0
"LOCALDATA","loa01app","loa01008.clw","StockLevelReport","InitialPath","","CSTRING(128)","","","","","","","",0,0,0,0
"LOCALDATA","loa01app","loa01008.clw","StockLevelReport","Progress:Thermometer","","BYTE","","","","","","","",0,0,0,0
"LOCALDATA","loa01app","loa01008.clw","StockLevelReport","IniFileToUse","","STRING(64)","","","","","","","",0,0,0,0
"LOCALDATA","loa01app","loa01008.clw","StockLevelReport","tmp:printedby","","STRING(60)","","","","","","","",0,0,0,0
"LOCALDATA","loa01app","loa01008.clw","StockLevelReport","tmp:telephonenumber","","STRING(20)","","","","","","","",0,0,0,0
"LOCALDATA","loa01app","loa01008.clw","StockLevelReport","tmp:faxnumber","","STRING(20)","","","","","","","",0,0,0,0
"LOCALDATA","loa01app","loa01008.clw","StockLevelReport","tmp:ClubNokiaSite","","STRING(30)","","","","","","","",0,0,0,0
"LOCALDATA","loa01app","loa01008.clw","StockLevelReport","tmp:quantity","","LONG","","","","","","","",0,0,0,0
"LOCALDATA","loa01app","loa01008.clw","StockLevelReport","tmp:count","","LONG","","","","","","","",0,0,0,0
"LOCALDATA","loa01app","loa01008.clw","StockLevelReport","tmp:totalquantity","","LONG","","","","","","","",0,0,0,0
"LOCALDATA","loa01app","loa01008.clw","StockLevelReport","LSolCtrlQ","","QUEUE,PRE()","","","","","","","",0,0,0,0
"LOCALDATA","loa01app","loa01008.clw","StockLevelReport","SolaceUseRef","","LONG","","","","","","","",0,0,0,0
"LOCALDATA","loa01app","loa01008.clw","StockLevelReport","SolaceCtrlName","","STRING(20)","","","","","","","",0,0,0,0
"LOCALDATA","loa01app","loa01008.clw","StockLevelReport","","","END","","","","","","","",0,0,0,0
"CONTROLFILES","loa01app","loa01008.clw","StockLevelReport","","LOGSTOCK","","","","","","","","",0,0,0,0
"CONTROLFILES","loa01app","loa01008.clw","StockLevelReport","","LOGSTOCK","","","","","","","","",0,0,0,0
"CONTROLFILES","loa01app","loa01008.clw","StockLevelReport","","LOGSTOCK","","","","","","","","",0,0,0,0
"CONTROLFILES","loa01app","loa01008.clw","StockLevelReport","","LOGSTOCK","","","","","","","","",0,0,0,0
"CONTROLFILES","loa01app","loa01008.clw","StockLevelReport","","LOGSTOCK","","","","","","","","",0,0,0,0
"CONTROLFILES","loa01app","loa01008.clw","StockLevelReport","","LOGSTOCK","","","","","","","","",0,0,0,0
"CONTROLFILES","loa01app","loa01008.clw","StockLevelReport","","LOGSTOCK","","","","","","","","",0,0,0,0
"TEMPLATES","loa01app","loa01008.clw","StockLevelReport","","","UnivAbcReport","ClarioNETProcedure(ClarioNET)","","","","","","",0,0,0,0
"TEMPLATES","loa01app","loa01008.clw","StockLevelReport","","","UnivAbcReport","LocalVCR(BryanTemplate)","","","","","","",0,0,0,0
"TEMPLATES","loa01app","loa01008.clw","StockLevelReport","","","UnivAbcReport","LocalMakeOver(Makeover)","","","","","","",0,0,0,0
"TEMPLATES","loa01app","loa01008.clw","StockLevelReport","","","UnivAbcReport","ExitReportLoop(CPCSAbcRpts)","","","","","","",0,0,0,0
"TEMPLATES","loa01app","loa01008.clw","StockLevelReport","","","UnivAbcReport","PageOfPage(CPCSAbcRpts)","","","","","","",0,0,0,0
"TEMPLATES","loa01app","loa01008.clw","StockLevelReport","","","UnivAbcReport","CPCSReport(ABCCustomTemplate)","","","","","","",0,0,0,0
"TEMPLATES","loa01app","loa01008.clw","StockLevelReport","","","UnivAbcReport","SolaceViewVars(SolaceViewVars)","","","","","","",0,0,0,0
"TEMPLATES","loa01app","loa01app.CLW","Global Extension Template","","","GlobalExtTemplate","ClarioNET(ClarioNET)","","","","","","",0,0,0,0
"TEMPLATES","loa01app","loa01app.CLW","Global Extension Template","","","GlobalExtTemplate","CPCS5Reporting(CPCSAbcRpts)","","","","","","",0,0,0,0
"TEMPLATES","loa01app","loa01app.CLW","Global Extension Template","","","GlobalExtTemplate","MessageEx(MessageExABC)","","","","","","",0,0,0,0
"TEMPLATES","loa01app","loa01app.CLW","Global Extension Template","","","GlobalExtTemplate","Activate_MakeOver(Makeover)","","","","","","",0,0,0,0
"TEMPLATES","loa01app","loa01app.CLW","Global Extension Template","","","GlobalExtTemplate","TINTOOLS(TINTOOLSABC)","","","","","","",0,0,0,0
"TEMPLATES","loa01app","loa01app.CLW","Global Extension Template","","","GlobalExtTemplate","AddVCR(BryanTemplate)","","","","","","",0,0,0,0
"TEMPLATES","loa01app","loa01app.CLW","Global Extension Template","","","GlobalExtTemplate","SolaceViewVarGlobal(SolaceViewVars)","","","","","","",0,0,0,0
"TEMPLATES","loa01app","loa01app.CLW","Global Extension Template","","","GlobalExtTemplate","AppRefAutoExport(App_Ref)","","","","","","",0,0,0,0
"GLOBAL","loa01app","GlobalData","glo:ErrorText","STRING(1000)","","","","","","","","","",0,0,0,0
"GLOBAL","loa01app","GlobalData","glo:owner","STRING(20)","","","","","","","","","",0,0,0,0
"GLOBAL","loa01app","GlobalData","glo:DateModify","DATE","","","","","","","","","",0,0,0,0
"GLOBAL","loa01app","GlobalData","glo:TimeModify","TIME","","","","","","","","","",0,0,0,0
"GLOBAL","loa01app","GlobalData","glo:Notes_Global","STRING(1000)","","","","","","","","","",0,0,0,0
"GLOBAL","loa01app","GlobalData","glo:Q_Invoice","QUEUE,PRE(glo)","","","","","","","","","",0,0,0,0
"GLOBAL","loa01app","GlobalData","Invoice_Number","REAL","","","","","","","","","",0,0,0,0
"GLOBAL","loa01app","GlobalData","Account_Number","STRING(15)","","","","","","","","","",0,0,0,0
"GLOBAL","loa01app","GlobalData","","END","","","","","","","","","",0,0,0,0
"GLOBAL","loa01app","GlobalData","glo:afe_path","STRING(255)","","","","","","","","","",0,0,0,0
"GLOBAL","loa01app","GlobalData","glo:Password","STRING(20)","","","","","","","","","",0,0,0,0
"GLOBAL","loa01app","GlobalData","glo:PassAccount","STRING(30)","","","","","","","","","",0,0,0,0
"GLOBAL","loa01app","GlobalData","glo:Preview","STRING('True')","","","","","","","","","",0,0,0,0
"GLOBAL","loa01app","GlobalData","glo:q_JobNumber","QUEUE,PRE(GLO)","","","","","","","","","",0,0,0,0
"GLOBAL","loa01app","GlobalData","Job_Number_Pointer","REAL","","","","","","","","","",0,0,0,0
"GLOBAL","loa01app","GlobalData","","END","","","","","","","","","",0,0,0,0
"GLOBAL","loa01app","GlobalData","glo:Q_PartsOrder","QUEUE,PRE(GLO)","","","","","","","","","",0,0,0,0
"GLOBAL","loa01app","GlobalData","Q_Order_Number","REAL","","","","","","","","","",0,0,0,0
"GLOBAL","loa01app","GlobalData","Q_Part_Number","STRING(30)","","","","","","","","","",0,0,0,0
"GLOBAL","loa01app","GlobalData","Q_Description","STRING(30)","","","","","","","","","",0,0,0,0
"GLOBAL","loa01app","GlobalData","Q_Supplier","STRING(30)","","","","","","","","","",0,0,0,0
"GLOBAL","loa01app","GlobalData","Q_Quantity","LONG","","","","","","","","","",0,0,0,0
"GLOBAL","loa01app","GlobalData","Q_Purchase_Cost","REAL","","","","","","","","","",0,0,0,0
"GLOBAL","loa01app","GlobalData","Q_Sale_Cost","REAL","","","","","","","","","",0,0,0,0
"GLOBAL","loa01app","GlobalData","","END","","","","","","","","","",0,0,0,0
"GLOBAL","loa01app","GlobalData","glo:G_Select1","GROUP,PRE(GLO)","","","","","","","","","",0,0,0,0
"GLOBAL","loa01app","GlobalData","Select1","STRING(30)","","","","","","","","","",0,0,0,0
"GLOBAL","loa01app","GlobalData","Select2","STRING(40)","","","","","","","","","",0,0,0,0
"GLOBAL","loa01app","GlobalData","Select3","STRING(40)","","","","","","","","","",0,0,0,0
"GLOBAL","loa01app","GlobalData","Select4","STRING(40)","","","","","","","","","",0,0,0,0
"GLOBAL","loa01app","GlobalData","Select5","STRING(40)","","","","","","","","","",0,0,0,0
"GLOBAL","loa01app","GlobalData","Select6","STRING(40)","","","","","","","","","",0,0,0,0
"GLOBAL","loa01app","GlobalData","Select7","STRING(40)","","","","","","","","","",0,0,0,0
"GLOBAL","loa01app","GlobalData","Select8","STRING(40)","","","","","","","","","",0,0,0,0
"GLOBAL","loa01app","GlobalData","Select9","STRING(40)","","","","","","","","","",0,0,0,0
"GLOBAL","loa01app","GlobalData","Select10","STRING(40)","","","","","","","","","",0,0,0,0
"GLOBAL","loa01app","GlobalData","Select11","STRING(40)","","","","","","","","","",0,0,0,0
"GLOBAL","loa01app","GlobalData","Select12","STRING(40)","","","","","","","","","",0,0,0,0
"GLOBAL","loa01app","GlobalData","Select13","STRING(40)","","","","","","","","","",0,0,0,0
"GLOBAL","loa01app","GlobalData","Select14","STRING(40)","","","","","","","","","",0,0,0,0
"GLOBAL","loa01app","GlobalData","Select15","STRING(40)","","","","","","","","","",0,0,0,0
"GLOBAL","loa01app","GlobalData","Select16","STRING(40)","","","","","","","","","",0,0,0,0
"GLOBAL","loa01app","GlobalData","Select17","STRING(40)","","","","","","","","","",0,0,0,0
"GLOBAL","loa01app","GlobalData","Select18","STRING(40)","","","","","","","","","",0,0,0,0
"GLOBAL","loa01app","GlobalData","Select19","STRING(40)","","","","","","","","","",0,0,0,0
"GLOBAL","loa01app","GlobalData","Select20","STRING(40)","","","","","","","","","",0,0,0,0
"GLOBAL","loa01app","GlobalData","Select21","STRING(40)","","","","","","","","","",0,0,0,0
"GLOBAL","loa01app","GlobalData","Select22","STRING(40)","","","","","","","","","",0,0,0,0
"GLOBAL","loa01app","GlobalData","Select23","STRING(40)","","","","","","","","","",0,0,0,0
"GLOBAL","loa01app","GlobalData","Select24","STRING(40)","","","","","","","","","",0,0,0,0
"GLOBAL","loa01app","GlobalData","Select25","STRING(40)","","","","","","","","","",0,0,0,0
"GLOBAL","loa01app","GlobalData","Select26","STRING(40)","","","","","","","","","",0,0,0,0
"GLOBAL","loa01app","GlobalData","Select27","STRING(40)","","","","","","","","","",0,0,0,0
"GLOBAL","loa01app","GlobalData","Select28","STRING(40)","","","","","","","","","",0,0,0,0
"GLOBAL","loa01app","GlobalData","Select29","STRING(40)","","","","","","","","","",0,0,0,0
"GLOBAL","loa01app","GlobalData","Select30","STRING(40)","","","","","","","","","",0,0,0,0
"GLOBAL","loa01app","GlobalData","Select31","STRING(40)","","","","","","","","","",0,0,0,0
"GLOBAL","loa01app","GlobalData","Select32","STRING(40)","","","","","","","","","",0,0,0,0
"GLOBAL","loa01app","GlobalData","Select33","STRING(40)","","","","","","","","","",0,0,0,0
"GLOBAL","loa01app","GlobalData","Select34","STRING(40)","","","","","","","","","",0,0,0,0
"GLOBAL","loa01app","GlobalData","Select35","STRING(40)","","","","","","","","","",0,0,0,0
"GLOBAL","loa01app","GlobalData","Select36","STRING(40)","","","","","","","","","",0,0,0,0
"GLOBAL","loa01app","GlobalData","Select37","STRING(40)","","","","","","","","","",0,0,0,0
"GLOBAL","loa01app","GlobalData","Select38","STRING(40)","","","","","","","","","",0,0,0,0
"GLOBAL","loa01app","GlobalData","Select39","STRING(40)","","","","","","","","","",0,0,0,0
"GLOBAL","loa01app","GlobalData","Select40","STRING(40)","","","","","","","","","",0,0,0,0
"GLOBAL","loa01app","GlobalData","Select41","STRING(40)","","","","","","","","","",0,0,0,0
"GLOBAL","loa01app","GlobalData","Select42","STRING(40)","","","","","","","","","",0,0,0,0
"GLOBAL","loa01app","GlobalData","Select43","STRING(40)","","","","","","","","","",0,0,0,0
"GLOBAL","loa01app","GlobalData","Select44","STRING(40)","","","","","","","","","",0,0,0,0
"GLOBAL","loa01app","GlobalData","Select45","STRING(40)","","","","","","","","","",0,0,0,0
"GLOBAL","loa01app","GlobalData","Select46","STRING(40)","","","","","","","","","",0,0,0,0
"GLOBAL","loa01app","GlobalData","Select47","STRING(40)","","","","","","","","","",0,0,0,0
"GLOBAL","loa01app","GlobalData","Select48","STRING(40)","","","","","","","","","",0,0,0,0
"GLOBAL","loa01app","GlobalData","Select49","STRING(40)","","","","","","","","","",0,0,0,0
"GLOBAL","loa01app","GlobalData","Select50","STRING(40)","","","","","","","","","",0,0,0,0
"GLOBAL","loa01app","GlobalData","","END","","","","","","","","","",0,0,0,0
"GLOBAL","loa01app","GlobalData","glo:q_RepairType","QUEUE,PRE(GLO)","","","","","","","","","",0,0,0,0
"GLOBAL","loa01app","GlobalData","Repair_Type_Pointer","STRING(30)","","","","","","","","","",0,0,0,0
"GLOBAL","loa01app","GlobalData","","END","","","","","","","","","",0,0,0,0
"GLOBAL","loa01app","GlobalData","glo:Q_UnitType","QUEUE,PRE(GLO)","","","","","","","","","",0,0,0,0
"GLOBAL","loa01app","GlobalData","Unit_Type_Pointer","STRING(30)","","","","","","","","","",0,0,0,0
"GLOBAL","loa01app","GlobalData","","END","","","","","","","","","",0,0,0,0
"GLOBAL","loa01app","GlobalData","glo:Q_ChargeType","QUEUE,PRE(GLO)","","","","","","","","","",0,0,0,0
"GLOBAL","loa01app","GlobalData","Charge_Type_Pointer","STRING(30)","","","","","","","","","",0,0,0,0
"GLOBAL","loa01app","GlobalData","","END","","","","","","","","","",0,0,0,0
"GLOBAL","loa01app","GlobalData","glo:Q_ModelNumber","QUEUE,PRE(glo)","","","","","","","","","",0,0,0,0
"GLOBAL","loa01app","GlobalData","Model_Number_Pointer","STRING(30)","","","","","","","","","",0,0,0,0
"GLOBAL","loa01app","GlobalData","","END","","","","","","","","","",0,0,0,0
"GLOBAL","loa01app","GlobalData","glo:Q_Accessory","QUEUE,PRE(GLO)","","","","","","","","","",0,0,0,0
"GLOBAL","loa01app","GlobalData","Accessory_Pointer","STRING(30)","","","","","","","","","",0,0,0,0
"GLOBAL","loa01app","GlobalData","","END","","","","","","","","","",0,0,0,0
"GLOBAL","loa01app","GlobalData","glo:Q_AccessLevel","QUEUE,PRE(GLO)","","","","","","","","","",0,0,0,0
"GLOBAL","loa01app","GlobalData","Access_Level_Pointer","STRING(30)","","","","","","","","","",0,0,0,0
"GLOBAL","loa01app","GlobalData","","END","","","","","","","","","",0,0,0,0
"GLOBAL","loa01app","GlobalData","glo:Q_AccessAreas","QUEUE,PRE(GLO)","","","","","","","","","",0,0,0,0
"GLOBAL","loa01app","GlobalData","Access_Areas_Pointer","STRING(30)","","","","","","","","","",0,0,0,0
"GLOBAL","loa01app","GlobalData","","END","","","","","","","","","",0,0,0,0
"GLOBAL","loa01app","GlobalData","glo:Q_Notes","QUEUE,PRE(GLO)","","","","","","","","","",0,0,0,0
"GLOBAL","loa01app","GlobalData","notes_pointer","STRING(80)","","","","","","","","","",0,0,0,0
"GLOBAL","loa01app","GlobalData","","END","","","","","","","","","",0,0,0,0
"GLOBAL","loa01app","GlobalData","glo:EnableFlag","STRING(3)","","","","","","","","","",0,0,0,0
"GLOBAL","loa01app","GlobalData","glo:TimeLogged","TIME","","","","","","","","","",0,0,0,0
"GLOBAL","loa01app","GlobalData","glo:GLO:ApplicationName","STRING(8)","","","","","","","","","",0,0,0,0
"GLOBAL","loa01app","GlobalData","glo:GLO:ApplicationCreationDate","LONG","","","","","","","","","",0,0,0,0
"GLOBAL","loa01app","GlobalData","glo:GLO:ApplicationCreationTime","LONG","","","","","","","","","",0,0,0,0
"GLOBAL","loa01app","GlobalData","glo:GLO:ApplicationChangeDate","LONG","","","","","","","","","",0,0,0,0
"GLOBAL","loa01app","GlobalData","glo:GLO:ApplicationChangeTime","LONG","","","","","","","","","",0,0,0,0
"GLOBAL","loa01app","GlobalData","glo:GLO:Compiled32","BYTE","","","","","","","","","",0,0,0,0
"GLOBAL","loa01app","GlobalData","glo:GLO:AppINIFile","STRING(255)","","","","","","","","","",0,0,0,0
"GLOBAL","loa01app","GlobalData","glo:Queue","QUEUE,PRE(GLO)","","","","","","","","","",0,0,0,0
"GLOBAL","loa01app","GlobalData","Pointer","STRING(40)","","","","","","","","","",0,0,0,0
"GLOBAL","loa01app","GlobalData","","END","","","","","","","","","",0,0,0,0
"GLOBAL","loa01app","GlobalData","glo:Queue2","QUEUE,PRE(GLO)","","","","","","","","","",0,0,0,0
"GLOBAL","loa01app","GlobalData","Pointer2","STRING(40)","","","","","","","","","",0,0,0,0
"GLOBAL","loa01app","GlobalData","","END","","","","","","","","","",0,0,0,0
"GLOBAL","loa01app","GlobalData","glo:Queue3","QUEUE,PRE(GLO)","","","","","","","","","",0,0,0,0
"GLOBAL","loa01app","GlobalData","Pointer3","STRING(40)","","","","","","","","","",0,0,0,0
"GLOBAL","loa01app","GlobalData","","END","","","","","","","","","",0,0,0,0
"GLOBAL","loa01app","GlobalData","glo:Queue4","QUEUE,PRE(GLO)","","","","","","","","","",0,0,0,0
"GLOBAL","loa01app","GlobalData","Pointer4","STRING(40)","","","","","","","","","",0,0,0,0
"GLOBAL","loa01app","GlobalData","","END","","","","","","","","","",0,0,0,0
"GLOBAL","loa01app","GlobalData","glo:Queue5","QUEUE,PRE(GLO)","","","","","","","","","",0,0,0,0
"GLOBAL","loa01app","GlobalData","Pointer5","STRING(40)","","","","","","","","","",0,0,0,0
"GLOBAL","loa01app","GlobalData","","END","","","","","","","","","",0,0,0,0
"GLOBAL","loa01app","GlobalData","glo:Queue6","QUEUE,PRE(GLO)","","","","","","","","","",0,0,0,0
"GLOBAL","loa01app","GlobalData","Pointer6","STRING(40)","","","","","","","","","",0,0,0,0
"GLOBAL","loa01app","GlobalData","","END","","","","","","","","","",0,0,0,0
"GLOBAL","loa01app","GlobalData","glo:Queue7","QUEUE,PRE(GLO)","","","","","","","","","",0,0,0,0
"GLOBAL","loa01app","GlobalData","Pointer7","STRING(40)","","","","","","","","","",0,0,0,0
"GLOBAL","loa01app","GlobalData","","END","","","","","","","","","",0,0,0,0
"GLOBAL","loa01app","GlobalData","glo:Queue8","QUEUE,PRE(GLO)","","","","","","","","","",0,0,0,0
"GLOBAL","loa01app","GlobalData","Pointer8","STRING(40)","","","","","","","","","",0,0,0,0
"GLOBAL","loa01app","GlobalData","","END","","","","","","","","","",0,0,0,0
"GLOBAL","loa01app","GlobalData","glo:Queue9","QUEUE,PRE(GLO)","","","","","","","","","",0,0,0,0
"GLOBAL","loa01app","GlobalData","Pointer9","STRING(40)","","","","","","","","","",0,0,0,0
"GLOBAL","loa01app","GlobalData","","END","","","","","","","","","",0,0,0,0
"GLOBAL","loa01app","GlobalData","glo:Queue10","QUEUE,PRE(GLO)","","","","","","","","","",0,0,0,0
"GLOBAL","loa01app","GlobalData","Pointer10","STRING(40)","","","","","","","","","",0,0,0,0
"GLOBAL","loa01app","GlobalData","","END","","","","","","","","","",0,0,0,0
"GLOBAL","loa01app","GlobalData","glo:Queue11","QUEUE,PRE(GLO)","","","","","","","","","",0,0,0,0
"GLOBAL","loa01app","GlobalData","Pointer11","STRING(40)","","","","","","","","","",0,0,0,0
"GLOBAL","loa01app","GlobalData","","END","","","","","","","","","",0,0,0,0
"GLOBAL","loa01app","GlobalData","glo:Queue12","QUEUE,PRE(GLO)","","","","","","","","","",0,0,0,0
"GLOBAL","loa01app","GlobalData","Pointer12","STRING(40)","","","","","","","","","",0,0,0,0
"GLOBAL","loa01app","GlobalData","","END","","","","","","","","","",0,0,0,0
"GLOBAL","loa01app","GlobalData","glo:Queue13","QUEUE,PRE(GLO)","","","","","","","","","",0,0,0,0
"GLOBAL","loa01app","GlobalData","Pointer13","STRING(40)","","","","","","","","","",0,0,0,0
"GLOBAL","loa01app","GlobalData","","END","","","","","","","","","",0,0,0,0
"GLOBAL","loa01app","GlobalData","glo:Queue14","QUEUE,PRE(GLO)","","","","","","","","","",0,0,0,0
"GLOBAL","loa01app","GlobalData","Pointer14","STRING(40)","","","","","","","","","",0,0,0,0
"GLOBAL","loa01app","GlobalData","","END","","","","","","","","","",0,0,0,0
"GLOBAL","loa01app","GlobalData","glo:Queue15","QUEUE,PRE(GLO)","","","","","","","","","",0,0,0,0
"GLOBAL","loa01app","GlobalData","Pointer15","STRING(40)","","","","","","","","","",0,0,0,0
"GLOBAL","loa01app","GlobalData","","END","","","","","","","","","",0,0,0,0
"GLOBAL","loa01app","GlobalData","glo:Queue16","QUEUE,PRE(GLO)","","","","","","","","","",0,0,0,0
"GLOBAL","loa01app","GlobalData","Pointer16","STRING(40)","","","","","","","","","",0,0,0,0
"GLOBAL","loa01app","GlobalData","","END","","","","","","","","","",0,0,0,0
"GLOBAL","loa01app","GlobalData","glo:Queue17","QUEUE,PRE(GLO)","","","","","","","","","",0,0,0,0
"GLOBAL","loa01app","GlobalData","Pointer17","STRING(40)","","","","","","","","","",0,0,0,0
"GLOBAL","loa01app","GlobalData","","END","","","","","","","","","",0,0,0,0
"GLOBAL","loa01app","GlobalData","glo:Queue18","QUEUE,PRE(GLO)","","","","","","","","","",0,0,0,0
"GLOBAL","loa01app","GlobalData","Pointer18","STRING(40)","","","","","","","","","",0,0,0,0
"GLOBAL","loa01app","GlobalData","","END","","","","","","","","","",0,0,0,0
"GLOBAL","loa01app","GlobalData","glo:Queue19","QUEUE,PRE(GLO)","","","","","","","","","",0,0,0,0
"GLOBAL","loa01app","GlobalData","Pointer19","STRING(40)","","","","","","","","","",0,0,0,0
"GLOBAL","loa01app","GlobalData","","END","","","","","","","","","",0,0,0,0
"GLOBAL","loa01app","GlobalData","glo:Queue20","QUEUE,PRE(GLO)","","","","","","","","","",0,0,0,0
"GLOBAL","loa01app","GlobalData","Pointer20","STRING(40)","","","","","","","","","",0,0,0,0
"GLOBAL","loa01app","GlobalData","","END","","","","","","","","","",0,0,0,0
"GLOBAL","loa01app","GlobalData","glo:FaultCode1","STRING(30)","","","","","","","","","",0,0,0,0
"GLOBAL","loa01app","GlobalData","glo:FaultCode2","STRING(30)","","","","","","","","","",0,0,0,0
"GLOBAL","loa01app","GlobalData","glo:FaultCode3","STRING(30)","","","","","","","","","",0,0,0,0
"GLOBAL","loa01app","GlobalData","glo:FaultCode4","STRING(30)","","","","","","","","","",0,0,0,0
"GLOBAL","loa01app","GlobalData","glo:FaultCode5","STRING(30)","","","","","","","","","",0,0,0,0
"GLOBAL","loa01app","GlobalData","glo:FaultCode6","STRING(30)","","","","","","","","","",0,0,0,0
"GLOBAL","loa01app","GlobalData","glo:FaultCode7","STRING(30)","","","","","","","","","",0,0,0,0
"GLOBAL","loa01app","GlobalData","glo:FaultCode8","STRING(30)","","","","","","","","","",0,0,0,0
"GLOBAL","loa01app","GlobalData","glo:FaultCode9","STRING(30)","","","","","","","","","",0,0,0,0
"GLOBAL","loa01app","GlobalData","glo:FaultCode10","STRING(255)","","","","","","","","","",0,0,0,0
"GLOBAL","loa01app","GlobalData","glo:FaultCode11","STRING(255)","","","","","","","","","",0,0,0,0
"GLOBAL","loa01app","GlobalData","glo:FaultCode12","STRING(255)","","","","","","","","","",0,0,0,0
"GLOBAL","loa01app","GlobalData","glo:FaultCode13","STRING(30)","","","","","","","","","",0,0,0,0
"GLOBAL","loa01app","GlobalData","glo:FaultCode14","STRING(30)","","","","","","","","","",0,0,0,0
"GLOBAL","loa01app","GlobalData","glo:FaultCode15","STRING(30)","","","","","","","","","",0,0,0,0
"GLOBAL","loa01app","GlobalData","glo:FaultCode16","STRING(30)","","","","","","","","","",0,0,0,0
"GLOBAL","loa01app","GlobalData","glo:FaultCode17","STRING(30)","","","","","","","","","",0,0,0,0
"GLOBAL","loa01app","GlobalData","glo:FaultCode18","STRING(30)","","","","","","","","","",0,0,0,0
"GLOBAL","loa01app","GlobalData","glo:FaultCode19","STRING(30)","","","","","","","","","",0,0,0,0
"GLOBAL","loa01app","GlobalData","glo:FaultCode20","STRING(30)","","","","","","","","","",0,0,0,0
"GLOBAL","loa01app","GlobalData","glo:TradeFaultCode1","STRING(30)","","","","","","","","","",0,0,0,0
"GLOBAL","loa01app","GlobalData","glo:TradeFaultCode2","STRING(30)","","","","","","","","","",0,0,0,0
"GLOBAL","loa01app","GlobalData","glo:TradeFaultCode3","STRING(30)","","","","","","","","","",0,0,0,0
"GLOBAL","loa01app","GlobalData","glo:TradeFaultCode4","STRING(30)","","","","","","","","","",0,0,0,0
"GLOBAL","loa01app","GlobalData","glo:TradeFaultCode5","STRING(30)","","","","","","","","","",0,0,0,0
"GLOBAL","loa01app","GlobalData","glo:TradeFaultCode6","STRING(30)","","","","","","","","","",0,0,0,0
"GLOBAL","loa01app","GlobalData","glo:TradeFaultCode7","STRING(30)","","","","","","","","","",0,0,0,0
"GLOBAL","loa01app","GlobalData","glo:TradeFaultCode8","STRING(30)","","","","","","","","","",0,0,0,0
"GLOBAL","loa01app","GlobalData","glo:TradeFaultCode9","STRING(30)","","","","","","","","","",0,0,0,0
"GLOBAL","loa01app","GlobalData","glo:TradeFaultCode10","STRING(30)","","","","","","","","","",0,0,0,0
"GLOBAL","loa01app","GlobalData","glo:TradeFaultCode11","STRING(30)","","","","","","","","","",0,0,0,0
"GLOBAL","loa01app","GlobalData","glo:TradeFaultCode12","STRING(30)","","","","","","","","","",0,0,0,0
"GLOBAL","loa01app","GlobalData","glo:file_name","STRING(255),EXTERNAL,DLL(dll_mode)","","","","","","","","","",0,0,0,0
