"HEADING","Application","Module","Procedure","Field1","Field2","Field3","Field4","Field5","Field6","Field7","Field8","Field9","Field10",Number1,Number2,Number3,Number4
"VERSION","2.00","'check_Template_version'","","28/09/2007"," 1:20PM","75514","4803718","","","","","","",,,,
"APPNAME","celrapda","","1","Main","","EXE","S:\Bryans\UKCellular\v6.1 UTL\cellular.dct","celrapda.clw","","","","","",73235,75514,5758933,4803718
"PROCEDURE","celrapda","celra001.clw","Main","","","PROCEDURE","Frame","","Front Screen","GENERATED(ABC)","Clarion","","",73235,74784,5766035,5054964
"WINDOW","celrapda","celra001.clw","Main","APPLICATION('Rapid Stock Audit - ServiceBase 2000'),AT(,,320,199),FONT('Tahoma',8,,),CENTER,IMM,ICON('Pc.ico'),ALRT(F12Key),SYSTEM,MAX,DOUBLE"
"CALLTO","celrapda","celra001.clw","Main","BrowseAudit","","","","","","","","","",0,0,0,0
"OTHER","celrapda","celra001.clw","Main","","DEFAULTS","","","","","","","","",0,0,0,0
"OTHER","celrapda","celra001.clw","Main","","LOGGED","","","","","","","","",0,0,0,0
"OTHER","celrapda","celra001.clw","Main","","USERS","","","","","","","","",0,0,0,0
"LOCALDATA","celrapda","celra001.clw","Main","LocalRequest","","LONG","","","","","","","",0,0,0,0
"LOCALDATA","celrapda","celra001.clw","Main","start_help_temp","","STRING(255)","","","","","","","",0,0,0,0
"LOCALDATA","celrapda","celra001.clw","Main","pos","","STRING(255)","","","","","","","",0,0,0,0
"LOCALDATA","celrapda","celra001.clw","Main","loc:lastcount","","LONG","","","","","","","",0,0,0,0
"LOCALDATA","celrapda","celra001.clw","Main","loc:lasttime","","LONG","","","","","","","",0,0,0,0
"LOCALDATA","celrapda","celra001.clw","Main","FilesOpened","","BYTE","","","","","","","",0,0,0,0
"LOCALDATA","celrapda","celra001.clw","Main","CurrentTab","","STRING(80)","","","","","","","",0,0,0,0
"LOCALDATA","celrapda","celra001.clw","Main","FP::PopupString","","STRING(4096)","","","","","","","",0,0,0,0
"LOCALDATA","celrapda","celra001.clw","Main","FP::ReturnValues","","QUEUE,PRE(FP:)","","","","","","","",0,0,0,0
"LOCALDATA","celrapda","celra001.clw","Main","RVPtr","","LONG","","","","","","","",0,0,0,0
"LOCALDATA","celrapda","celra001.clw","Main","","","END","","","","","","","",0,0,0,0
"LOCALDATA","celrapda","celra001.clw","Main","comp_name_temp","","STRING(255)","","","","","","","",0,0,0,0
"LOCALDATA","celrapda","celra001.clw","Main","AllowUserToExit","","BYTE","","","","","","","",0,0,0,0
"LOCALDATA","celrapda","celra001.clw","Main","Date_Temp","","STRING(60)","","","","","","","",0,0,0,0
"LOCALDATA","celrapda","celra001.clw","Main","Time_Temp","","STRING(60)","","","","","","","",0,0,0,0
"LOCALDATA","celrapda","celra001.clw","Main","SRCF::Version","","STRING(512)","","","","","","","",0,0,0,0
"LOCALDATA","celrapda","celra001.clw","Main","SRCF::Format","","STRING(512)","","","","","","","",0,0,0,0
"LOCALDATA","celrapda","celra001.clw","Main","CPCSExecutePopUp","","BYTE","","","","","","","",0,0,0,0
"LOCALDATA","celrapda","celra001.clw","Main","BackerDDEName","","STRING(30)","","","","","","","",0,0,0,0
"LOCALDATA","celrapda","celra001.clw","Main","LSolCtrlQ","","QUEUE,PRE()","","","","","","","",0,0,0,0
"LOCALDATA","celrapda","celra001.clw","Main","SolaceUseRef","","LONG","","","","","","","",0,0,0,0
"LOCALDATA","celrapda","celra001.clw","Main","SolaceCtrlName","","STRING(20)","","","","","","","",0,0,0,0
"LOCALDATA","celrapda","celra001.clw","Main","","","END","","","","","","","",0,0,0,0
"CONTROLS","celrapda","celra001.clw","Main","?Button6","","BUTTON('Exit')","","","","","","","",0,0,0,0
"BUTTON","celrapda","celra001.clw","Main","BUTTON('Exit'),AT(92,2,52,11),USE(?Button6),FLAT,LEFT,STD(STD:Close)"
"CONTROLS","celrapda","celra001.clw","Main","?Preliminary_QA","","BUTTON('Stock Audit')","","","","","","","",0,0,0,0
"BUTTON","celrapda","celra001.clw","Main","BUTTON('Stock Audit'),AT(4,2,52,11),USE(?Preliminary_QA),FLAT,LEFT"
"TEMPLATES","celrapda","celra001.clw","Main","","","Frame","LocalForceColourFields(BryanTemplate)","","","","","","",0,0,0,0
"TEMPLATES","celrapda","celra001.clw","Main","","","Frame","SolaceViewVars(SolaceViewVars)","","","","","","",0,0,0,0
"TEMPLATES","celrapda","celra001.clw","Main","","","Frame","LocalVCR(BryanTemplate)","","","","","","",0,0,0,0
"TEMPLATES","celrapda","celra001.clw","Main","","","Frame","AddStartScreenProcedure(BryanTemplate)","","","","","","",0,0,0,0
"TEMPLATES","celrapda","celra001.clw","Main","","","Frame","ForceWindowToTopOnOpen(FreeAPIToolkit)","","","","","","",0,0,0,0
"TEMPLATES","celrapda","celra001.clw","Main","","","Frame","WindowResize(ABC)","","","","","","",0,0,0,0
"TEMPLATES","celrapda","celra001.clw","Main","","","Frame","IncludeNetTalkObject(NetTalk)","","","","","","",0,0,0,0
"CONTROLS","celrapda","celra001.clw","Main","Window Icon","ICON('Pc.ico')","","","AppFrame","","","","","",0,0,0,0
"PROCEDURE","celrapda","celra002.clw","Stock_Check_Procedure","","","PROCEDURE","Window","","Browse the Stock File","GENERATED(ABC)","Clarion","","",73267,74784,5031478,5054964
"WINDOW","celrapda","celra002.clw","Stock_Check_Procedure","WINDOW('Browse Stock '),AT(,,320,168),FONT('Tahoma',8,,,CHARSET:ANSI),CENTER,IMM,HLP('Stock_Check_Procedure'),SYSTEM,GRAY,RESIZE,MDI"
"CALLTO","celrapda","celra002.clw","Stock_Check_Procedure","Update_Stock_Audit","","","","","","","","","",0,0,0,0
"OTHER","celrapda","celra002.clw","Stock_Check_Procedure","","STMASAUD","","","","","","","","",0,0,0,0
"LOCALDATA","celrapda","celra002.clw","Stock_Check_Procedure","CurrentTab","","STRING(80)","","","","","","","",0,0,0,0
"LOCALDATA","celrapda","celra002.clw","Stock_Check_Procedure","Stock_Query","","STRING(30)","","","","","","","",0,0,0,0
"LOCALDATA","celrapda","celra002.clw","Stock_Check_Procedure","LOC:Amount","","DECIMAL(15,2)","","","","","","","",0,0,0,0
"LOCALDATA","celrapda","celra002.clw","Stock_Check_Procedure","No_Find","","BYTE","","","","","","","",0,0,0,0
"LOCALDATA","celrapda","celra002.clw","Stock_Check_Procedure","BrLocator1","","STRING(50)","","","","","","","",0,0,0,0
"LOCALDATA","celrapda","celra002.clw","Stock_Check_Procedure","LSolCtrlQ","","QUEUE,PRE()","","","","","","","",0,0,0,0
"LOCALDATA","celrapda","celra002.clw","Stock_Check_Procedure","SolaceUseRef","","LONG","","","","","","","",0,0,0,0
"LOCALDATA","celrapda","celra002.clw","Stock_Check_Procedure","SolaceCtrlName","","STRING(20)","","","","","","","",0,0,0,0
"LOCALDATA","celrapda","celra002.clw","Stock_Check_Procedure","","","END","","","","","","","",0,0,0,0
"LOCALDATA","celrapda","celra002.clw","Stock_Check_Procedure","Master_Location","","STRING(30)","","","","","","","",0,0,0,0
"CONTROLFILES","celrapda","celra002.clw","Stock_Check_Procedure","","STOAUDIT","","","","","","","","",0,0,0,0
"CONTROLSECOND","celrapda","celra002.clw","Stock_Check_Procedure","","STOCK","","","","","","","","",0,0,0,0
"CONTROLFILES","celrapda","celra002.clw","Stock_Check_Procedure","","STOAUDIT","","","","","","","","",0,0,0,0
"CONTROLSECOND","celrapda","celra002.clw","Stock_Check_Procedure","","STOCK","","","","","","","","",0,0,0,0
"CONTROLFILES","celrapda","celra002.clw","Stock_Check_Procedure","","LOCATION","","","","","","","","",0,0,0,0
"ENTRY","celrapda","celra002.clw","Stock_Check_Procedure","ENTRY(@s30),AT(8,36,124,10),USE(Stock_Query),FONT(,,,FONT:bold),UPR"
"LIST","celrapda","celra002.clw","Stock_Check_Procedure","USE(?Browse:1)","FROM(Queue:Browse:1)","","HVSCROLL","","MSG('Browsing Records')","","IMM","","",0,0,0,0
"TEMPLATES","celrapda","celra002.clw","Stock_Check_Procedure","","","Window","LocalForceColourFields(BryanTemplate)","","","","","","",0,0,0,0
"TEMPLATES","celrapda","celra002.clw","Stock_Check_Procedure","","","Window","SolaceViewVars(SolaceViewVars)","","","","","","",0,0,0,0
"TEMPLATES","celrapda","celra002.clw","Stock_Check_Procedure","","","Window","LocalVCR(BryanTemplate)","","","","","","",0,0,0,0
"TEMPLATES","celrapda","celra002.clw","Stock_Check_Procedure","","","Window","BrowseBox(ABC)","","","","","","",0,0,0,0
"TEMPLATES","celrapda","celra002.clw","Stock_Check_Procedure","","","Window","HigherKeys(ABC_jw)","","","","","","",0,0,0,0
"TEMPLATES","celrapda","celra002.clw","Stock_Check_Procedure","","","Window","WindowResize(ABC)","","","","","","",0,0,0,0
"TEMPLATES","celrapda","celra002.clw","Stock_Check_Procedure","","","Window","FileDropCombo(ABC)","","","","","","",0,0,0,0
"PROCEDURE","celrapda","celra003.clw","Update_Stock_Audit","","","PROCEDURE","Window","","Update the StockAudit File","GENERATED(ABC)","Clarion","","",73267,74784,5031483,5054964
"WINDOW","celrapda","celra003.clw","Update_Stock_Audit","WINDOW('Stock Take Update'),AT(,,292,116),FONT('Tahoma',8,,,CHARSET:ANSI),CENTER,IMM,HLP('Update_Stock_Audit'),SYSTEM,GRAY,RESIZE,MDI"
"CALLTO","celrapda","celra003.clw","Update_Stock_Audit","Add_Stock","","","","","","","","","",0,0,0,0
"CALLTO","celrapda","celra003.clw","Update_Stock_Audit","Deplete_Stock","","","","","","","","","",0,0,0,0
"OTHER","celrapda","celra003.clw","Update_Stock_Audit","","GENSHORT","","","","","","","","",0,0,0,0
"OTHER","celrapda","celra003.clw","Update_Stock_Audit","","STOCK","","","","","","","","",0,0,0,0
"LOCALDATA","celrapda","celra003.clw","Update_Stock_Audit","CurrentTab","","STRING(80)","","","","","","","",0,0,0,0
"LOCALDATA","celrapda","celra003.clw","Update_Stock_Audit","Found_Match","","BYTE","","","","","","","",0,0,0,0
"LOCALDATA","celrapda","celra003.clw","Update_Stock_Audit","ActionMessage","","CSTRING(40)","","","","","","","",0,0,0,0
"LOCALDATA","celrapda","celra003.clw","Update_Stock_Audit","List_Query","","STRING(30)","","","","","","","",0,0,0,0
"LOCALDATA","celrapda","celra003.clw","Update_Stock_Audit","Available_Counter","","LONG","","","","","","","",0,0,0,0
"LOCALDATA","celrapda","celra003.clw","Update_Stock_Audit","Stock_Level","","LONG","","","","","","","",0,0,0,0
"LOCALDATA","celrapda","celra003.clw","Update_Stock_Audit","pos","","STRING(255)","","","","","","","",0,0,0,0
"LOCALDATA","celrapda","celra003.clw","Update_Stock_Audit","LSolCtrlQ","","QUEUE,PRE()","","","","","","","",0,0,0,0
"LOCALDATA","celrapda","celra003.clw","Update_Stock_Audit","SolaceUseRef","","LONG","","","","","","","",0,0,0,0
"LOCALDATA","celrapda","celra003.clw","Update_Stock_Audit","SolaceCtrlName","","STRING(20)","","","","","","","",0,0,0,0
"LOCALDATA","celrapda","celra003.clw","Update_Stock_Audit","","","END","","","","","","","",0,0,0,0
"CONTROLFILES","celrapda","celra003.clw","Update_Stock_Audit","","STOAUDIT","","","","","","","","",0,0,0,0
"ENTRY","celrapda","celra003.clw","Update_Stock_Audit","ENTRY(@s30),AT(68,20,,10),USE(sto:Part_Number),SKIP,FONT(,,,FONT:bold),READONLY"
"ENTRY","celrapda","celra003.clw","Update_Stock_Audit","ENTRY(@s30),AT(68,36,,10),USE(sto:Description),SKIP,FONT(,,,FONT:bold),READONLY"
"ENTRY","celrapda","celra003.clw","Update_Stock_Audit","ENTRY(@s30),AT(68,52,,10),USE(sto:Shelf_Location),SKIP,FONT(,,,FONT:bold),READONLY"
"CONTROLS","celrapda","celra003.clw","Update_Stock_Audit","?OK","ICON('OK.gif')","BUTTON('OK')","","","","","","","",0,0,0,0
"BUTTON","celrapda","celra003.clw","Update_Stock_Audit","BUTTON('OK'),AT(228,92,56,16),USE(?OK),FLAT,LEFT,ICON('OK.gif'),DEFAULT"
"TEMPLATES","celrapda","celra003.clw","Update_Stock_Audit","","","Window","LocalForceColourFields(BryanTemplate)","","","","","","",0,0,0,0
"TEMPLATES","celrapda","celra003.clw","Update_Stock_Audit","","","Window","SolaceViewVars(SolaceViewVars)","","","","","","",0,0,0,0
"TEMPLATES","celrapda","celra003.clw","Update_Stock_Audit","","","Window","LocalVCR(BryanTemplate)","","","","","","",0,0,0,0
"TEMPLATES","celrapda","celra003.clw","Update_Stock_Audit","","","Window","RecordValidation(ABC)","","","","","","",0,0,0,0
"TEMPLATES","celrapda","celra003.clw","Update_Stock_Audit","","","Window","SaveButton(ABC)","","","","","","",0,0,0,0
"TEMPLATES","celrapda","celra003.clw","Update_Stock_Audit","","","Window","WindowResize(ABC)","","","","","","",0,0,0,0
"PROCEDURE","celrapda","celra004.clw","Add_Stock","","","PROCEDURE","Window","(Long)","","GENERATED(ABC)","Clarion","","",73267,74784,5031483,5054969
"WINDOW","celrapda","celra004.clw","Add_Stock","WINDOW('Add Stock'),AT(,,219,211),FONT('Tahoma',8,,),CENTER,ICON('PC.ICO'),TILED,GRAY,DOUBLE,MDI"
"CALLTO","celrapda","celra004.clw","Add_Stock","Stock_Label","","","","","","","","","",0,0,0,0
"CALLTO","celrapda","celra004.clw","Add_Stock","Stock_Label_B452","","","","","","","","","",0,0,0,0
"OTHER","celrapda","celra004.clw","Add_Stock","","STOCK","","","","","","","","",0,0,0,0
"OTHER","celrapda","celra004.clw","Add_Stock","","STOHIST","","","","","","","","",0,0,0,0
"OTHER","celrapda","celra004.clw","Add_Stock","","DEFAULTS","","","","","","","","",0,0,0,0
"OTHER","celrapda","celra004.clw","Add_Stock","","STOAUDIT","","","","","","","","",0,0,0,0
"LOCALDATA","celrapda","celra004.clw","Add_Stock","LocalRequest","","LONG","","","","","","","",0,0,0,0
"LOCALDATA","celrapda","celra004.clw","Add_Stock","FilesOpened","","BYTE","","","","","","","",0,0,0,0
"LOCALDATA","celrapda","celra004.clw","Add_Stock","quantity_temp","","LONG","","","","","","","",0,0,0,0
"LOCALDATA","celrapda","celra004.clw","Add_Stock","purchase_cost_Temp","","REAL","","","","","","","",0,0,0,0
"LOCALDATA","celrapda","celra004.clw","Add_Stock","sale_cost_temp","","REAL","","","","","","","",0,0,0,0
"LOCALDATA","celrapda","celra004.clw","Add_Stock","date_received_temp","","DATE","","","","","","","",0,0,0,0
"LOCALDATA","celrapda","celra004.clw","Add_Stock","additional_notes_temp","","STRING(255)","","","","","","","",0,0,0,0
"LOCALDATA","celrapda","celra004.clw","Add_Stock","despatch_note_temp","","STRING(30)","","","","","","","",0,0,0,0
"LOCALDATA","celrapda","celra004.clw","Add_Stock","percentage_mark_up_temp","","REAL","","","","","","","",0,0,0,0
"LOCALDATA","celrapda","celra004.clw","Add_Stock","no_of_labels_temp","","REAL","","","","","","","",0,0,0,0
"LOCALDATA","celrapda","celra004.clw","Add_Stock","retail_cost_temp","","REAL","","","","","","","",0,0,0,0
"LOCALDATA","celrapda","celra004.clw","Add_Stock","LSolCtrlQ","","QUEUE,PRE()","","","","","","","",0,0,0,0
"LOCALDATA","celrapda","celra004.clw","Add_Stock","SolaceUseRef","","LONG","","","","","","","",0,0,0,0
"LOCALDATA","celrapda","celra004.clw","Add_Stock","SolaceCtrlName","","STRING(20)","","","","","","","",0,0,0,0
"LOCALDATA","celrapda","celra004.clw","Add_Stock","","","END","","","","","","","",0,0,0,0
"ENTRY","celrapda","celra004.clw","Add_Stock","ENTRY(@s30),AT(84,36,124,10),USE(despatch_note_temp),SKIP,FONT('Tahoma',8,,FONT:bold),UPR,READONLY"
"ENTRY","celrapda","celra004.clw","Add_Stock","ENTRY(@n14.2),AT(84,52,64,10),USE(purchase_cost_Temp),SKIP,FONT('Tahoma',8,,FONT:bold),READONLY"
"ENTRY","celrapda","celra004.clw","Add_Stock","ENTRY(@n7.2),AT(84,68,64,10),USE(percentage_mark_up_temp),SKIP,FONT('Tahoma',8,,FONT:bold),READONLY"
"ENTRY","celrapda","celra004.clw","Add_Stock","ENTRY(@n14.2),AT(84,84,64,10),USE(sale_cost_temp),SKIP,FONT('Tahoma',8,,FONT:bold),READONLY"
"ENTRY","celrapda","celra004.clw","Add_Stock","ENTRY(@n14.2),AT(84,100,64,10),USE(retail_cost_temp),SKIP,FONT('Tahoma',8,,FONT:bold,CHARSET:ANSI),COLOR(COLOR:White),READONLY"
"ENTRY","celrapda","celra004.clw","Add_Stock","ENTRY(@d6b),AT(84,116,64,10),USE(date_received_temp),SKIP,FONT('Tahoma',,,FONT:bold),READONLY"
"TEXT","celrapda","celra004.clw","Add_Stock","TEXT,AT(84,132,124,28),USE(additional_notes_temp),FONT(,,,FONT:bold),REQ,UPR"
"CONTROLS","celrapda","celra004.clw","Add_Stock","?OkButton","ICON('OK.gif')","BUTTON('&OK')","","","","","","","",0,0,0,0
"BUTTON","celrapda","celra004.clw","Add_Stock","BUTTON('&OK'),AT(156,188,56,16),USE(?OkButton),LEFT,ICON('OK.gif')"
"CONTROLS","celrapda","celra004.clw","Add_Stock","?CancelButton","ICON('Cancel.gif')","BUTTON('Cancel')","","","","","","","",0,0,0,0
"BUTTON","celrapda","celra004.clw","Add_Stock","BUTTON('Cancel'),AT(8,188,56,16),USE(?CancelButton),HIDE,LEFT,ICON('Cancel.gif')"
"TEMPLATES","celrapda","celra004.clw","Add_Stock","","","Window","LocalForceColourFields(BryanTemplate)","","","","","","",0,0,0,0
"TEMPLATES","celrapda","celra004.clw","Add_Stock","","","Window","SolaceViewVars(SolaceViewVars)","","","","","","",0,0,0,0
"TEMPLATES","celrapda","celra004.clw","Add_Stock","","","Window","LocalVCR(BryanTemplate)","","","","","","",0,0,0,0
"TEMPLATES","celrapda","celra004.clw","Add_Stock","","","Window","CloseCurrentWindow(ABC)","","","","","","",0,0,0,0
"CONTROLS","celrapda","celra004.clw","Add_Stock","Window Icon","ICON('PC.ICO')","","","window","","","","","",0,0,0,0
"PROCEDURE","celrapda","celra005.clw","Deplete_Stock","","","PROCEDURE","Window","(Long)","","GENERATED(ABC)","Clarion","","",73267,74784,5031483,5054986
"WINDOW","celrapda","celra005.clw","Deplete_Stock","WINDOW('Decrement Stock Level'),AT(,,215,115),FONT('Tahoma',8,,),CENTER,ICON('PC.ICO'),TILED,GRAY,DOUBLE,MDI"
"CALLTO","celrapda","celra005.clw","Deplete_Stock","Stock_Label","","","","","","","","","",0,0,0,0
"CALLTO","celrapda","celra005.clw","Deplete_Stock","Stock_Label_B452","","","","","","","","","",0,0,0,0
"OTHER","celrapda","celra005.clw","Deplete_Stock","","STOCK","","","","","","","","",0,0,0,0
"OTHER","celrapda","celra005.clw","Deplete_Stock","","STOHIST","","","","","","","","",0,0,0,0
"OTHER","celrapda","celra005.clw","Deplete_Stock","","USERS","","","","","","","","",0,0,0,0
"OTHER","celrapda","celra005.clw","Deplete_Stock","","STOAUDIT","","","","","","","","",0,0,0,0
"LOCALDATA","celrapda","celra005.clw","Deplete_Stock","LocalRequest","","LONG","","","","","","","",0,0,0,0
"LOCALDATA","celrapda","celra005.clw","Deplete_Stock","FilesOpened","","BYTE","","","","","","","",0,0,0,0
"LOCALDATA","celrapda","celra005.clw","Deplete_Stock","quantity_temp","","LONG","","","","","","","",0,0,0,0
"LOCALDATA","celrapda","celra005.clw","Deplete_Stock","purchase_cost_Temp","","REAL","","","","","","","",0,0,0,0
"LOCALDATA","celrapda","celra005.clw","Deplete_Stock","sale_cost_temp","","REAL","","","","","","","",0,0,0,0
"LOCALDATA","celrapda","celra005.clw","Deplete_Stock","date_received_temp","","DATE","","","","","","","",0,0,0,0
"LOCALDATA","celrapda","celra005.clw","Deplete_Stock","additional_notes_temp","","STRING(255)","","","","","","","",0,0,0,0
"LOCALDATA","celrapda","celra005.clw","Deplete_Stock","despatch_note_temp","","STRING(30)","","","","","","","",0,0,0,0
"LOCALDATA","celrapda","celra005.clw","Deplete_Stock","LSolCtrlQ","","QUEUE,PRE()","","","","","","","",0,0,0,0
"LOCALDATA","celrapda","celra005.clw","Deplete_Stock","SolaceUseRef","","LONG","","","","","","","",0,0,0,0
"LOCALDATA","celrapda","celra005.clw","Deplete_Stock","SolaceCtrlName","","STRING(20)","","","","","","","",0,0,0,0
"LOCALDATA","celrapda","celra005.clw","Deplete_Stock","","","END","","","","","","","",0,0,0,0
"ENTRY","celrapda","celra005.clw","Deplete_Stock","ENTRY(@d6b),AT(84,36,64,10),USE(date_received_temp),SKIP,FONT('Tahoma',8,,FONT:bold),UPR,READONLY"
"TEXT","celrapda","celra005.clw","Deplete_Stock","TEXT,AT(84,52,124,24),USE(additional_notes_temp),FONT('Tahoma',8,,FONT:bold),UPR"
"CONTROLS","celrapda","celra005.clw","Deplete_Stock","?OkButton","ICON('OK.gif')","BUTTON('&OK')","","","","","","","",0,0,0,0
"BUTTON","celrapda","celra005.clw","Deplete_Stock","BUTTON('&OK'),AT(152,92,56,16),USE(?OkButton),LEFT,ICON('OK.gif')"
"CONTROLS","celrapda","celra005.clw","Deplete_Stock","?CancelButton","ICON('Cancel.gif')","BUTTON('Cancel')","","","","","","","",0,0,0,0
"BUTTON","celrapda","celra005.clw","Deplete_Stock","BUTTON('Cancel'),AT(8,92,56,16),USE(?CancelButton),HIDE,LEFT,ICON('Cancel.gif')"
"TEMPLATES","celrapda","celra005.clw","Deplete_Stock","","","Window","LocalForceColourFields(BryanTemplate)","","","","","","",0,0,0,0
"TEMPLATES","celrapda","celra005.clw","Deplete_Stock","","","Window","SolaceViewVars(SolaceViewVars)","","","","","","",0,0,0,0
"TEMPLATES","celrapda","celra005.clw","Deplete_Stock","","","Window","LocalVCR(BryanTemplate)","","","","","","",0,0,0,0
"TEMPLATES","celrapda","celra005.clw","Deplete_Stock","","","Window","CloseCurrentWindow(ABC)","","","","","","",0,0,0,0
"CONTROLS","celrapda","celra005.clw","Deplete_Stock","Window Icon","ICON('PC.ICO')","","","window","","","","","",0,0,0,0
"PROCEDURE","celrapda","celra006.clw","BrowseAudit","","","PROCEDURE","Window","","Browse the StockMasterAudit File","GENERATED(ABC)","Clarion","","",73267,74784,5031489,5054986
"WINDOW","celrapda","celra006.clw","BrowseAudit","WINDOW('Browse Stock Audits'),AT(,,320,172),FONT('Tahoma',8,,,CHARSET:ANSI),CENTER,IMM,HLP('BrowseAudit'),SYSTEM,GRAY,RESIZE,MDI"
"CALLTO","celrapda","celra006.clw","BrowseAudit","Stock_Check_Procedure","","","","","","","","","",0,0,0,0
"CALLTO","celrapda","celra006.clw","BrowseAudit","Stock_Audit_Report","","","","","","","","","",0,0,0,0
"OTHER","celrapda","celra006.clw","BrowseAudit","","STOAUDIT","","","","","","","","",0,0,0,0
"OTHER","celrapda","celra006.clw","BrowseAudit","","USERS","","","","","","","","",0,0,0,0
"LOCALDATA","celrapda","celra006.clw","BrowseAudit","CurrentTab","","STRING(80)","","","","","","","",0,0,0,0
"LOCALDATA","celrapda","celra006.clw","BrowseAudit","LSolCtrlQ","","QUEUE,PRE()","","","","","","","",0,0,0,0
"LOCALDATA","celrapda","celra006.clw","BrowseAudit","SolaceUseRef","","LONG","","","","","","","",0,0,0,0
"LOCALDATA","celrapda","celra006.clw","BrowseAudit","SolaceCtrlName","","STRING(20)","","","","","","","",0,0,0,0
"LOCALDATA","celrapda","celra006.clw","BrowseAudit","","","END","","","","","","","",0,0,0,0
"CONTROLFILES","celrapda","celra006.clw","BrowseAudit","","STMASAUD","","","","","","","","",0,0,0,0
"LIST","celrapda","celra006.clw","BrowseAudit","USE(?Browse:1)","FROM(Queue:Browse:1)","","VSCROLL","","MSG('Browsing Records')","","IMM","","",0,0,0,0
"CONTROLS","celrapda","celra006.clw","BrowseAudit","?Button2","ICON('Cabinet.gif')","BUTTON('Create Audit')","","","","","","","",0,0,0,0
"BUTTON","celrapda","celra006.clw","BrowseAudit","BUTTON('Create Audit'),AT(240,32,76,20),USE(?Button2),LEFT,ICON('Cabinet.gif')"
"CONTROLS","celrapda","celra006.clw","BrowseAudit","?Button3","ICON('transfer.gif')","BUTTON('Continue Audit')","","","","","","","",0,0,0,0
"BUTTON","celrapda","celra006.clw","BrowseAudit","BUTTON('Continue Audit'),AT(240,56,76,20),USE(?Button3),LEFT,ICON('transfer.gif')"
"CONTROLS","celrapda","celra006.clw","BrowseAudit","?Button4","ICON('Wizok.ico')","BUTTON('Complete Audit')","","","","","","","",0,0,0,0
"BUTTON","celrapda","celra006.clw","BrowseAudit","BUTTON('Complete Audit'),AT(240,80,76,20),USE(?Button4),LEFT,ICON('Wizok.ico')"
"CONTROLS","celrapda","celra006.clw","BrowseAudit","?Button5","ICON(ICON:Print1)","BUTTON('Reprint Audit')","","","","","","","",0,0,0,0
"BUTTON","celrapda","celra006.clw","BrowseAudit","BUTTON('Reprint Audit'),AT(240,104,76,20),USE(?Button5),LEFT,ICON(ICON:Print1)"
"ENTRY","celrapda","celra006.clw","BrowseAudit","ENTRY(@n-14),AT(8,16,64,12),USE(stom:Audit_No),RIGHT(1),FONT(,,,FONT:bold)"
"CONTROLS","celrapda","celra006.clw","BrowseAudit","?Close","ICON('Cancel.ico')","BUTTON('Close')","","","","","","","",0,0,0,0
"BUTTON","celrapda","celra006.clw","BrowseAudit","BUTTON('Close'),AT(240,148,76,20),USE(?Close),LEFT,ICON('Cancel.ico')"
"TEMPLATES","celrapda","celra006.clw","BrowseAudit","","","Window","LocalForceColourFields(BryanTemplate)","","","","","","",0,0,0,0
"TEMPLATES","celrapda","celra006.clw","BrowseAudit","","","Window","SolaceViewVars(SolaceViewVars)","","","","","","",0,0,0,0
"TEMPLATES","celrapda","celra006.clw","BrowseAudit","","","Window","LocalVCR(BryanTemplate)","","","","","","",0,0,0,0
"TEMPLATES","celrapda","celra006.clw","BrowseAudit","","","Window","BrowseBox(ABC)","","","","","","",0,0,0,0
"TEMPLATES","celrapda","celra006.clw","BrowseAudit","","","Window","CloseButton(ABC)","","","","","","",0,0,0,0
"TEMPLATES","celrapda","celra006.clw","BrowseAudit","","","Window","WindowResize(ABC)","","","","","","",0,0,0,0
"TEMPLATES","celrapda","celra006.clw","BrowseAudit","","","Window","ProcedureCallExt(ABCFree)","","","","","","",0,0,0,0
"PROCEDURE","celrapda","sbc01app.lib","Insert_Password","","","PROCEDURE","External","","","ExternalDLL(ABC)","External","","",73235,74784,5776306,5054958
"LOCALDATA","celrapda","sbc01app.lib","Insert_Password","LSolCtrlQ","","QUEUE,PRE()","","","","","","","",0,0,0,0
"LOCALDATA","celrapda","sbc01app.lib","Insert_Password","SolaceUseRef","","LONG","","","","","","","",0,0,0,0
"LOCALDATA","celrapda","sbc01app.lib","Insert_Password","SolaceCtrlName","","STRING(20)","","","","","","","",0,0,0,0
"LOCALDATA","celrapda","sbc01app.lib","Insert_Password","","","END","","","","","","","",0,0,0,0
"TEMPLATES","celrapda","sbc01app.lib","Insert_Password","","","External","LocalForceColourFields(BryanTemplate)","","","","","","",0,0,0,0
"TEMPLATES","celrapda","sbc01app.lib","Insert_Password","","","External","SolaceViewVars(SolaceViewVars)","","","","","","",0,0,0,0
"TEMPLATES","celrapda","sbc01app.lib","Insert_Password","","","External","LocalVCR(BryanTemplate)","","","","","","",0,0,0,0
"PROCEDURE","celrapda","sba01app.lib","Check_Access","","","PROCEDURE","External","(String,*String)","","ExternalDLL(ABC)","External","","",73235,74784,5778569,5054964
"LOCALDATA","celrapda","sba01app.lib","Check_Access","LSolCtrlQ","","QUEUE,PRE()","","","","","","","",0,0,0,0
"LOCALDATA","celrapda","sba01app.lib","Check_Access","SolaceUseRef","","LONG","","","","","","","",0,0,0,0
"LOCALDATA","celrapda","sba01app.lib","Check_Access","SolaceCtrlName","","STRING(20)","","","","","","","",0,0,0,0
"LOCALDATA","celrapda","sba01app.lib","Check_Access","","","END","","","","","","","",0,0,0,0
"TEMPLATES","celrapda","sba01app.lib","Check_Access","","","External","LocalForceColourFields(BryanTemplate)","","","","","","",0,0,0,0
"TEMPLATES","celrapda","sba01app.lib","Check_Access","","","External","SolaceViewVars(SolaceViewVars)","","","","","","",0,0,0,0
"TEMPLATES","celrapda","sba01app.lib","Check_Access","","","External","LocalVCR(BryanTemplate)","","","","","","",0,0,0,0
"PROCEDURE","celrapda","sbd02app.lib","Stock_Label","","","PROCEDURE","External","(string,string,string,string,string)","","ExternalDLL(ABC)","External","","",73267,74784,5031489,5054986
"LOCALDATA","celrapda","sbd02app.lib","Stock_Label","LSolCtrlQ","","QUEUE,PRE()","","","","","","","",0,0,0,0
"LOCALDATA","celrapda","sbd02app.lib","Stock_Label","SolaceUseRef","","LONG","","","","","","","",0,0,0,0
"LOCALDATA","celrapda","sbd02app.lib","Stock_Label","SolaceCtrlName","","STRING(20)","","","","","","","",0,0,0,0
"LOCALDATA","celrapda","sbd02app.lib","Stock_Label","","","END","","","","","","","",0,0,0,0
"TEMPLATES","celrapda","sbd02app.lib","Stock_Label","","","External","LocalForceColourFields(BryanTemplate)","","","","","","",0,0,0,0
"TEMPLATES","celrapda","sbd02app.lib","Stock_Label","","","External","SolaceViewVars(SolaceViewVars)","","","","","","",0,0,0,0
"TEMPLATES","celrapda","sbd02app.lib","Stock_Label","","","External","LocalVCR(BryanTemplate)","","","","","","",0,0,0,0
"PROCEDURE","celrapda","sbd02app.lib","Stock_Label_B452","","","PROCEDURE","External","(string,string,string,string,string)","","ExternalDLL(ABC)","External","","",73267,74784,5031489,5054986
"LOCALDATA","celrapda","sbd02app.lib","Stock_Label_B452","LSolCtrlQ","","QUEUE,PRE()","","","","","","","",0,0,0,0
"LOCALDATA","celrapda","sbd02app.lib","Stock_Label_B452","SolaceUseRef","","LONG","","","","","","","",0,0,0,0
"LOCALDATA","celrapda","sbd02app.lib","Stock_Label_B452","SolaceCtrlName","","STRING(20)","","","","","","","",0,0,0,0
"LOCALDATA","celrapda","sbd02app.lib","Stock_Label_B452","","","END","","","","","","","",0,0,0,0
"TEMPLATES","celrapda","sbd02app.lib","Stock_Label_B452","","","External","LocalForceColourFields(BryanTemplate)","","","","","","",0,0,0,0
"TEMPLATES","celrapda","sbd02app.lib","Stock_Label_B452","","","External","SolaceViewVars(SolaceViewVars)","","","","","","",0,0,0,0
"TEMPLATES","celrapda","sbd02app.lib","Stock_Label_B452","","","External","LocalVCR(BryanTemplate)","","","","","","",0,0,0,0
"PROCEDURE","celrapda","sbd03app.lib","Stock_Audit_Report","","","PROCEDURE","External","(String)","","ExternalDLL(ABC)","External","","",73270,74784,5556796,5054986
"LOCALDATA","celrapda","sbd03app.lib","Stock_Audit_Report","LSolCtrlQ","","QUEUE,PRE()","","","","","","","",0,0,0,0
"LOCALDATA","celrapda","sbd03app.lib","Stock_Audit_Report","SolaceUseRef","","LONG","","","","","","","",0,0,0,0
"LOCALDATA","celrapda","sbd03app.lib","Stock_Audit_Report","SolaceCtrlName","","STRING(20)","","","","","","","",0,0,0,0
"LOCALDATA","celrapda","sbd03app.lib","Stock_Audit_Report","","","END","","","","","","","",0,0,0,0
"TEMPLATES","celrapda","sbd03app.lib","Stock_Audit_Report","","","External","LocalForceColourFields(BryanTemplate)","","","","","","",0,0,0,0
"TEMPLATES","celrapda","sbd03app.lib","Stock_Audit_Report","","","External","SolaceViewVars(SolaceViewVars)","","","","","","",0,0,0,0
"TEMPLATES","celrapda","sbd03app.lib","Stock_Audit_Report","","","External","LocalVCR(BryanTemplate)","","","","","","",0,0,0,0
"TEMPLATES","celrapda","celrapda.CLW","Global Extension Template","","","GlobalExtTemplate","AppRefAutoExport(App_Ref)","","","","","","",0,0,0,0
"TEMPLATES","celrapda","celrapda.CLW","Global Extension Template","","","GlobalExtTemplate","MessageEx(MessageExABC)","","","","","","",0,0,0,0
"TEMPLATES","celrapda","celrapda.CLW","Global Extension Template","","","GlobalExtTemplate","Activate_NetTalk(NetTalk)","","","","","","",0,0,0,0
"TEMPLATES","celrapda","celrapda.CLW","Global Extension Template","","","GlobalExtTemplate","AddVCR(BryanTemplate)","","","","","","",0,0,0,0
"TEMPLATES","celrapda","celrapda.CLW","Global Extension Template","","","GlobalExtTemplate","SolaceViewVarGlobal(SolaceViewVars)","","","","","","",0,0,0,0
"TEMPLATES","celrapda","celrapda.CLW","Global Extension Template","","","GlobalExtTemplate","AddStartScreen(BryanTemplate)","","","","","","",0,0,0,0
"TEMPLATES","celrapda","celrapda.CLW","Global Extension Template","","","GlobalExtTemplate","TINTOOLS(TINTOOLSABC)","","","","","","",0,0,0,0
"TEMPLATES","celrapda","celrapda.CLW","Global Extension Template","","","GlobalExtTemplate","CPCS5Reporting(CPCSAbcRpts)","","","","","","",0,0,0,0
"TEMPLATES","celrapda","celrapda.CLW","Global Extension Template","","","GlobalExtTemplate","ForceColourFields(BryanTemplate)","","","","","","",0,0,0,0
"GLOBAL","celrapda","GlobalData","glo:ErrorText","STRING(1000)","","","","","","","","","",0,0,0,0
"GLOBAL","celrapda","GlobalData","glo:owner","STRING(20)","","","","","","","","","",0,0,0,0
"GLOBAL","celrapda","GlobalData","glo:DateModify","DATE","","","","","","","","","",0,0,0,0
"GLOBAL","celrapda","GlobalData","glo:TimeModify","TIME","","","","","","","","","",0,0,0,0
"GLOBAL","celrapda","GlobalData","glo:Notes_Global","STRING(1000)","","","","","","","","","",0,0,0,0
"GLOBAL","celrapda","GlobalData","glo:Q_Invoice","QUEUE,PRE(glo)","","","","","","","","","",0,0,0,0
"GLOBAL","celrapda","GlobalData","Invoice_Number","REAL","","","","","","","","","",0,0,0,0
"GLOBAL","celrapda","GlobalData","Account_Number","STRING(15)","","","","","","","","","",0,0,0,0
"GLOBAL","celrapda","GlobalData","","END","","","","","","","","","",0,0,0,0
"GLOBAL","celrapda","GlobalData","glo:afe_path","STRING(255)","","","","","","","","","",0,0,0,0
"GLOBAL","celrapda","GlobalData","glo:Password","STRING(20)","","","","","","","","","",0,0,0,0
"GLOBAL","celrapda","GlobalData","glo:PassAccount","STRING(30)","","","","","","","","","",0,0,0,0
"GLOBAL","celrapda","GlobalData","glo:Preview","STRING('True')","","","","","","","","","",0,0,0,0
"GLOBAL","celrapda","GlobalData","glo:q_JobNumber","QUEUE,PRE(GLO)","","","","","","","","","",0,0,0,0
"GLOBAL","celrapda","GlobalData","Job_Number_Pointer","REAL","","","","","","","","","",0,0,0,0
"GLOBAL","celrapda","GlobalData","","END","","","","","","","","","",0,0,0,0
"GLOBAL","celrapda","GlobalData","glo:Q_PartsOrder","QUEUE,PRE(GLO)","","","","","","","","","",0,0,0,0
"GLOBAL","celrapda","GlobalData","Q_Order_Number","REAL","","","","","","","","","",0,0,0,0
"GLOBAL","celrapda","GlobalData","Q_Part_Number","STRING(30)","","","","","","","","","",0,0,0,0
"GLOBAL","celrapda","GlobalData","Q_Description","STRING(30)","","","","","","","","","",0,0,0,0
"GLOBAL","celrapda","GlobalData","Q_Supplier","STRING(30)","","","","","","","","","",0,0,0,0
"GLOBAL","celrapda","GlobalData","Q_Quantity","LONG","","","","","","","","","",0,0,0,0
"GLOBAL","celrapda","GlobalData","Q_Purchase_Cost","REAL","","","","","","","","","",0,0,0,0
"GLOBAL","celrapda","GlobalData","Q_Sale_Cost","REAL","","","","","","","","","",0,0,0,0
"GLOBAL","celrapda","GlobalData","","END","","","","","","","","","",0,0,0,0
"GLOBAL","celrapda","GlobalData","glo:G_Select1","GROUP,PRE(GLO)","","","","","","","","","",0,0,0,0
"GLOBAL","celrapda","GlobalData","Select1","STRING(30)","","","","","","","","","",0,0,0,0
"GLOBAL","celrapda","GlobalData","Select2","STRING(40)","","","","","","","","","",0,0,0,0
"GLOBAL","celrapda","GlobalData","Select3","STRING(40)","","","","","","","","","",0,0,0,0
"GLOBAL","celrapda","GlobalData","Select4","STRING(40)","","","","","","","","","",0,0,0,0
"GLOBAL","celrapda","GlobalData","Select5","STRING(40)","","","","","","","","","",0,0,0,0
"GLOBAL","celrapda","GlobalData","Select6","STRING(40)","","","","","","","","","",0,0,0,0
"GLOBAL","celrapda","GlobalData","Select7","STRING(40)","","","","","","","","","",0,0,0,0
"GLOBAL","celrapda","GlobalData","Select8","STRING(40)","","","","","","","","","",0,0,0,0
"GLOBAL","celrapda","GlobalData","Select9","STRING(40)","","","","","","","","","",0,0,0,0
"GLOBAL","celrapda","GlobalData","Select10","STRING(40)","","","","","","","","","",0,0,0,0
"GLOBAL","celrapda","GlobalData","Select11","STRING(40)","","","","","","","","","",0,0,0,0
"GLOBAL","celrapda","GlobalData","Select12","STRING(40)","","","","","","","","","",0,0,0,0
"GLOBAL","celrapda","GlobalData","Select13","STRING(40)","","","","","","","","","",0,0,0,0
"GLOBAL","celrapda","GlobalData","Select14","STRING(40)","","","","","","","","","",0,0,0,0
"GLOBAL","celrapda","GlobalData","Select15","STRING(40)","","","","","","","","","",0,0,0,0
"GLOBAL","celrapda","GlobalData","Select16","STRING(40)","","","","","","","","","",0,0,0,0
"GLOBAL","celrapda","GlobalData","Select17","STRING(40)","","","","","","","","","",0,0,0,0
"GLOBAL","celrapda","GlobalData","Select18","STRING(40)","","","","","","","","","",0,0,0,0
"GLOBAL","celrapda","GlobalData","Select19","STRING(40)","","","","","","","","","",0,0,0,0
"GLOBAL","celrapda","GlobalData","Select20","STRING(40)","","","","","","","","","",0,0,0,0
"GLOBAL","celrapda","GlobalData","Select21","STRING(40)","","","","","","","","","",0,0,0,0
"GLOBAL","celrapda","GlobalData","Select22","STRING(40)","","","","","","","","","",0,0,0,0
"GLOBAL","celrapda","GlobalData","Select23","STRING(40)","","","","","","","","","",0,0,0,0
"GLOBAL","celrapda","GlobalData","Select24","STRING(40)","","","","","","","","","",0,0,0,0
"GLOBAL","celrapda","GlobalData","Select25","STRING(40)","","","","","","","","","",0,0,0,0
"GLOBAL","celrapda","GlobalData","Select26","STRING(40)","","","","","","","","","",0,0,0,0
"GLOBAL","celrapda","GlobalData","Select27","STRING(40)","","","","","","","","","",0,0,0,0
"GLOBAL","celrapda","GlobalData","Select28","STRING(40)","","","","","","","","","",0,0,0,0
"GLOBAL","celrapda","GlobalData","Select29","STRING(40)","","","","","","","","","",0,0,0,0
"GLOBAL","celrapda","GlobalData","Select30","STRING(40)","","","","","","","","","",0,0,0,0
"GLOBAL","celrapda","GlobalData","Select31","STRING(40)","","","","","","","","","",0,0,0,0
"GLOBAL","celrapda","GlobalData","Select32","STRING(40)","","","","","","","","","",0,0,0,0
"GLOBAL","celrapda","GlobalData","Select33","STRING(40)","","","","","","","","","",0,0,0,0
"GLOBAL","celrapda","GlobalData","Select34","STRING(40)","","","","","","","","","",0,0,0,0
"GLOBAL","celrapda","GlobalData","Select35","STRING(40)","","","","","","","","","",0,0,0,0
"GLOBAL","celrapda","GlobalData","Select36","STRING(40)","","","","","","","","","",0,0,0,0
"GLOBAL","celrapda","GlobalData","Select37","STRING(40)","","","","","","","","","",0,0,0,0
"GLOBAL","celrapda","GlobalData","Select38","STRING(40)","","","","","","","","","",0,0,0,0
"GLOBAL","celrapda","GlobalData","Select39","STRING(40)","","","","","","","","","",0,0,0,0
"GLOBAL","celrapda","GlobalData","Select40","STRING(40)","","","","","","","","","",0,0,0,0
"GLOBAL","celrapda","GlobalData","Select41","STRING(40)","","","","","","","","","",0,0,0,0
"GLOBAL","celrapda","GlobalData","Select42","STRING(40)","","","","","","","","","",0,0,0,0
"GLOBAL","celrapda","GlobalData","Select43","STRING(40)","","","","","","","","","",0,0,0,0
"GLOBAL","celrapda","GlobalData","Select44","STRING(40)","","","","","","","","","",0,0,0,0
"GLOBAL","celrapda","GlobalData","Select45","STRING(40)","","","","","","","","","",0,0,0,0
"GLOBAL","celrapda","GlobalData","Select46","STRING(40)","","","","","","","","","",0,0,0,0
"GLOBAL","celrapda","GlobalData","Select47","STRING(40)","","","","","","","","","",0,0,0,0
"GLOBAL","celrapda","GlobalData","Select48","STRING(40)","","","","","","","","","",0,0,0,0
"GLOBAL","celrapda","GlobalData","Select49","STRING(40)","","","","","","","","","",0,0,0,0
"GLOBAL","celrapda","GlobalData","Select50","STRING(40)","","","","","","","","","",0,0,0,0
"GLOBAL","celrapda","GlobalData","","END","","","","","","","","","",0,0,0,0
"GLOBAL","celrapda","GlobalData","glo:q_RepairType","QUEUE,PRE(GLO)","","","","","","","","","",0,0,0,0
"GLOBAL","celrapda","GlobalData","Repair_Type_Pointer","STRING(30)","","","","","","","","","",0,0,0,0
"GLOBAL","celrapda","GlobalData","","END","","","","","","","","","",0,0,0,0
"GLOBAL","celrapda","GlobalData","glo:Q_UnitType","QUEUE,PRE(GLO)","","","","","","","","","",0,0,0,0
"GLOBAL","celrapda","GlobalData","Unit_Type_Pointer","STRING(30)","","","","","","","","","",0,0,0,0
"GLOBAL","celrapda","GlobalData","","END","","","","","","","","","",0,0,0,0
"GLOBAL","celrapda","GlobalData","glo:Q_ChargeType","QUEUE,PRE(GLO)","","","","","","","","","",0,0,0,0
"GLOBAL","celrapda","GlobalData","Charge_Type_Pointer","STRING(30)","","","","","","","","","",0,0,0,0
"GLOBAL","celrapda","GlobalData","","END","","","","","","","","","",0,0,0,0
"GLOBAL","celrapda","GlobalData","glo:Q_ModelNumber","QUEUE,PRE(glo)","","","","","","","","","",0,0,0,0
"GLOBAL","celrapda","GlobalData","Model_Number_Pointer","STRING(30)","","","","","","","","","",0,0,0,0
"GLOBAL","celrapda","GlobalData","","END","","","","","","","","","",0,0,0,0
"GLOBAL","celrapda","GlobalData","glo:Q_Accessory","QUEUE,PRE(GLO)","","","","","","","","","",0,0,0,0
"GLOBAL","celrapda","GlobalData","Accessory_Pointer","STRING(30)","","","","","","","","","",0,0,0,0
"GLOBAL","celrapda","GlobalData","","END","","","","","","","","","",0,0,0,0
"GLOBAL","celrapda","GlobalData","glo:Q_AccessLevel","QUEUE,PRE(GLO)","","","","","","","","","",0,0,0,0
"GLOBAL","celrapda","GlobalData","Access_Level_Pointer","STRING(30)","","","","","","","","","",0,0,0,0
"GLOBAL","celrapda","GlobalData","","END","","","","","","","","","",0,0,0,0
"GLOBAL","celrapda","GlobalData","glo:Q_AccessAreas","QUEUE,PRE(GLO)","","","","","","","","","",0,0,0,0
"GLOBAL","celrapda","GlobalData","Access_Areas_Pointer","STRING(30)","","","","","","","","","",0,0,0,0
"GLOBAL","celrapda","GlobalData","","END","","","","","","","","","",0,0,0,0
"GLOBAL","celrapda","GlobalData","glo:Q_Notes","QUEUE,PRE(GLO)","","","","","","","","","",0,0,0,0
"GLOBAL","celrapda","GlobalData","notes_pointer","STRING(80)","","","","","","","","","",0,0,0,0
"GLOBAL","celrapda","GlobalData","","END","","","","","","","","","",0,0,0,0
"GLOBAL","celrapda","GlobalData","glo:EnableFlag","STRING(3)","","","","","","","","","",0,0,0,0
"GLOBAL","celrapda","GlobalData","glo:TimeLogged","TIME","","","","","","","","","",0,0,0,0
"GLOBAL","celrapda","GlobalData","glo:GLO:ApplicationName","STRING(8)","","","","","","","","","",0,0,0,0
"GLOBAL","celrapda","GlobalData","glo:GLO:ApplicationCreationDate","LONG","","","","","","","","","",0,0,0,0
"GLOBAL","celrapda","GlobalData","glo:GLO:ApplicationCreationTime","LONG","","","","","","","","","",0,0,0,0
"GLOBAL","celrapda","GlobalData","glo:GLO:ApplicationChangeDate","LONG","","","","","","","","","",0,0,0,0
"GLOBAL","celrapda","GlobalData","glo:GLO:ApplicationChangeTime","LONG","","","","","","","","","",0,0,0,0
"GLOBAL","celrapda","GlobalData","glo:GLO:Compiled32","BYTE","","","","","","","","","",0,0,0,0
"GLOBAL","celrapda","GlobalData","glo:GLO:AppINIFile","STRING(255)","","","","","","","","","",0,0,0,0
"GLOBAL","celrapda","GlobalData","glo:Queue","QUEUE,PRE(GLO)","","","","","","","","","",0,0,0,0
"GLOBAL","celrapda","GlobalData","Pointer","STRING(40)","","","","","","","","","",0,0,0,0
"GLOBAL","celrapda","GlobalData","","END","","","","","","","","","",0,0,0,0
"GLOBAL","celrapda","GlobalData","glo:Queue2","QUEUE,PRE(GLO)","","","","","","","","","",0,0,0,0
"GLOBAL","celrapda","GlobalData","Pointer2","STRING(40)","","","","","","","","","",0,0,0,0
"GLOBAL","celrapda","GlobalData","","END","","","","","","","","","",0,0,0,0
"GLOBAL","celrapda","GlobalData","glo:Queue3","QUEUE,PRE(GLO)","","","","","","","","","",0,0,0,0
"GLOBAL","celrapda","GlobalData","Pointer3","STRING(40)","","","","","","","","","",0,0,0,0
"GLOBAL","celrapda","GlobalData","","END","","","","","","","","","",0,0,0,0
"GLOBAL","celrapda","GlobalData","glo:Queue4","QUEUE,PRE(GLO)","","","","","","","","","",0,0,0,0
"GLOBAL","celrapda","GlobalData","Pointer4","STRING(40)","","","","","","","","","",0,0,0,0
"GLOBAL","celrapda","GlobalData","","END","","","","","","","","","",0,0,0,0
"GLOBAL","celrapda","GlobalData","glo:Queue5","QUEUE,PRE(GLO)","","","","","","","","","",0,0,0,0
"GLOBAL","celrapda","GlobalData","Pointer5","STRING(40)","","","","","","","","","",0,0,0,0
"GLOBAL","celrapda","GlobalData","","END","","","","","","","","","",0,0,0,0
"GLOBAL","celrapda","GlobalData","glo:Queue6","QUEUE,PRE(GLO)","","","","","","","","","",0,0,0,0
"GLOBAL","celrapda","GlobalData","Pointer6","STRING(40)","","","","","","","","","",0,0,0,0
"GLOBAL","celrapda","GlobalData","","END","","","","","","","","","",0,0,0,0
"GLOBAL","celrapda","GlobalData","glo:Queue7","QUEUE,PRE(GLO)","","","","","","","","","",0,0,0,0
"GLOBAL","celrapda","GlobalData","Pointer7","STRING(40)","","","","","","","","","",0,0,0,0
"GLOBAL","celrapda","GlobalData","","END","","","","","","","","","",0,0,0,0
"GLOBAL","celrapda","GlobalData","glo:Queue8","QUEUE,PRE(GLO)","","","","","","","","","",0,0,0,0
"GLOBAL","celrapda","GlobalData","Pointer8","STRING(40)","","","","","","","","","",0,0,0,0
"GLOBAL","celrapda","GlobalData","","END","","","","","","","","","",0,0,0,0
"GLOBAL","celrapda","GlobalData","glo:Queue9","QUEUE,PRE(GLO)","","","","","","","","","",0,0,0,0
"GLOBAL","celrapda","GlobalData","Pointer9","STRING(40)","","","","","","","","","",0,0,0,0
"GLOBAL","celrapda","GlobalData","","END","","","","","","","","","",0,0,0,0
"GLOBAL","celrapda","GlobalData","glo:Queue10","QUEUE,PRE(GLO)","","","","","","","","","",0,0,0,0
"GLOBAL","celrapda","GlobalData","Pointer10","STRING(40)","","","","","","","","","",0,0,0,0
"GLOBAL","celrapda","GlobalData","","END","","","","","","","","","",0,0,0,0
"GLOBAL","celrapda","GlobalData","glo:Queue11","QUEUE,PRE(GLO)","","","","","","","","","",0,0,0,0
"GLOBAL","celrapda","GlobalData","Pointer11","STRING(40)","","","","","","","","","",0,0,0,0
"GLOBAL","celrapda","GlobalData","","END","","","","","","","","","",0,0,0,0
"GLOBAL","celrapda","GlobalData","glo:Queue12","QUEUE,PRE(GLO)","","","","","","","","","",0,0,0,0
"GLOBAL","celrapda","GlobalData","Pointer12","STRING(40)","","","","","","","","","",0,0,0,0
"GLOBAL","celrapda","GlobalData","","END","","","","","","","","","",0,0,0,0
"GLOBAL","celrapda","GlobalData","glo:Queue13","QUEUE,PRE(GLO)","","","","","","","","","",0,0,0,0
"GLOBAL","celrapda","GlobalData","Pointer13","STRING(40)","","","","","","","","","",0,0,0,0
"GLOBAL","celrapda","GlobalData","","END","","","","","","","","","",0,0,0,0
"GLOBAL","celrapda","GlobalData","glo:Queue14","QUEUE,PRE(GLO)","","","","","","","","","",0,0,0,0
"GLOBAL","celrapda","GlobalData","Pointer14","STRING(40)","","","","","","","","","",0,0,0,0
"GLOBAL","celrapda","GlobalData","","END","","","","","","","","","",0,0,0,0
"GLOBAL","celrapda","GlobalData","glo:Queue15","QUEUE,PRE(GLO)","","","","","","","","","",0,0,0,0
"GLOBAL","celrapda","GlobalData","Pointer15","STRING(40)","","","","","","","","","",0,0,0,0
"GLOBAL","celrapda","GlobalData","","END","","","","","","","","","",0,0,0,0
"GLOBAL","celrapda","GlobalData","glo:Queue16","QUEUE,PRE(GLO)","","","","","","","","","",0,0,0,0
"GLOBAL","celrapda","GlobalData","Pointer16","STRING(40)","","","","","","","","","",0,0,0,0
"GLOBAL","celrapda","GlobalData","","END","","","","","","","","","",0,0,0,0
"GLOBAL","celrapda","GlobalData","glo:Queue17","QUEUE,PRE(GLO)","","","","","","","","","",0,0,0,0
"GLOBAL","celrapda","GlobalData","Pointer17","STRING(40)","","","","","","","","","",0,0,0,0
"GLOBAL","celrapda","GlobalData","","END","","","","","","","","","",0,0,0,0
"GLOBAL","celrapda","GlobalData","glo:Queue18","QUEUE,PRE(GLO)","","","","","","","","","",0,0,0,0
"GLOBAL","celrapda","GlobalData","Pointer18","STRING(40)","","","","","","","","","",0,0,0,0
"GLOBAL","celrapda","GlobalData","","END","","","","","","","","","",0,0,0,0
"GLOBAL","celrapda","GlobalData","glo:Queue19","QUEUE,PRE(GLO)","","","","","","","","","",0,0,0,0
"GLOBAL","celrapda","GlobalData","Pointer19","STRING(40)","","","","","","","","","",0,0,0,0
"GLOBAL","celrapda","GlobalData","","END","","","","","","","","","",0,0,0,0
"GLOBAL","celrapda","GlobalData","glo:Queue20","QUEUE,PRE(GLO)","","","","","","","","","",0,0,0,0
"GLOBAL","celrapda","GlobalData","Pointer20","STRING(40)","","","","","","","","","",0,0,0,0
"GLOBAL","celrapda","GlobalData","","END","","","","","","","","","",0,0,0,0
"GLOBAL","celrapda","GlobalData","glo:FaultCode1","STRING(30)","","","","","","","","","",0,0,0,0
"GLOBAL","celrapda","GlobalData","glo:FaultCode2","STRING(30)","","","","","","","","","",0,0,0,0
"GLOBAL","celrapda","GlobalData","glo:FaultCode3","STRING(30)","","","","","","","","","",0,0,0,0
"GLOBAL","celrapda","GlobalData","glo:FaultCode4","STRING(30)","","","","","","","","","",0,0,0,0
"GLOBAL","celrapda","GlobalData","glo:FaultCode5","STRING(30)","","","","","","","","","",0,0,0,0
"GLOBAL","celrapda","GlobalData","glo:FaultCode6","STRING(30)","","","","","","","","","",0,0,0,0
"GLOBAL","celrapda","GlobalData","glo:FaultCode7","STRING(30)","","","","","","","","","",0,0,0,0
"GLOBAL","celrapda","GlobalData","glo:FaultCode8","STRING(30)","","","","","","","","","",0,0,0,0
"GLOBAL","celrapda","GlobalData","glo:FaultCode9","STRING(30)","","","","","","","","","",0,0,0,0
"GLOBAL","celrapda","GlobalData","glo:FaultCode10","STRING(255)","","","","","","","","","",0,0,0,0
"GLOBAL","celrapda","GlobalData","glo:FaultCode11","STRING(255)","","","","","","","","","",0,0,0,0
"GLOBAL","celrapda","GlobalData","glo:FaultCode12","STRING(255)","","","","","","","","","",0,0,0,0
"GLOBAL","celrapda","GlobalData","glo:FaultCode13","STRING(30)","","","","","","","","","",0,0,0,0
"GLOBAL","celrapda","GlobalData","glo:FaultCode14","STRING(30)","","","","","","","","","",0,0,0,0
"GLOBAL","celrapda","GlobalData","glo:FaultCode15","STRING(30)","","","","","","","","","",0,0,0,0
"GLOBAL","celrapda","GlobalData","glo:FaultCode16","STRING(30)","","","","","","","","","",0,0,0,0
"GLOBAL","celrapda","GlobalData","glo:FaultCode17","STRING(30)","","","","","","","","","",0,0,0,0
"GLOBAL","celrapda","GlobalData","glo:FaultCode18","STRING(30)","","","","","","","","","",0,0,0,0
"GLOBAL","celrapda","GlobalData","glo:FaultCode19","STRING(30)","","","","","","","","","",0,0,0,0
"GLOBAL","celrapda","GlobalData","glo:FaultCode20","STRING(30)","","","","","","","","","",0,0,0,0
"GLOBAL","celrapda","GlobalData","glo:TradeFaultCode1","STRING(30)","","","","","","","","","",0,0,0,0
"GLOBAL","celrapda","GlobalData","glo:TradeFaultCode2","STRING(30)","","","","","","","","","",0,0,0,0
"GLOBAL","celrapda","GlobalData","glo:TradeFaultCode3","STRING(30)","","","","","","","","","",0,0,0,0
"GLOBAL","celrapda","GlobalData","glo:TradeFaultCode4","STRING(30)","","","","","","","","","",0,0,0,0
"GLOBAL","celrapda","GlobalData","glo:TradeFaultCode5","STRING(30)","","","","","","","","","",0,0,0,0
"GLOBAL","celrapda","GlobalData","glo:TradeFaultCode6","STRING(30)","","","","","","","","","",0,0,0,0
"GLOBAL","celrapda","GlobalData","glo:TradeFaultCode7","STRING(30)","","","","","","","","","",0,0,0,0
"GLOBAL","celrapda","GlobalData","glo:TradeFaultCode8","STRING(30)","","","","","","","","","",0,0,0,0
"GLOBAL","celrapda","GlobalData","glo:TradeFaultCode9","STRING(30)","","","","","","","","","",0,0,0,0
"GLOBAL","celrapda","GlobalData","glo:TradeFaultCode10","STRING(30)","","","","","","","","","",0,0,0,0
"GLOBAL","celrapda","GlobalData","glo:TradeFaultCode11","STRING(30)","","","","","","","","","",0,0,0,0
"GLOBAL","celrapda","GlobalData","glo:TradeFaultCode12","STRING(30)","","","","","","","","","",0,0,0,0
"GLOBAL","celrapda","GlobalData","Global_Long","LONG","","","","","","","","","",0,0,0,0
"GLOBAL","celrapda","GlobalData","Global_User_Code","STRING(3)","","","","","","","","","",0,0,0,0
