"HEADING","Application","Module","Procedure","Field1","Field2","Field3","Field4","Field5","Field6","Field7","Field8","Field9","Field10",Number1,Number2,Number3,Number4
"VERSION","2.00","'check_Template_version'","","18/09/2007","11:26AM","75504","4117199","","","","","","",,,,
"APPNAME","sba05app","","1","SDSLabel","","DLL","S:\Bryans\UKCellular\v6.1 UTL\cellular.dct","sba05app.clw","","","","","",73354,75504,5531937,4117199
"PROCEDURE","sba05app","sba05001.clw","SDSLabel","","","PROCEDURE","ToDo","","","GENERATED(ABC)","Clarion","","",73354,73496,5532547,5839465
"PROCEDURE","sba05app","sba05005.clw","ForceTransitType","","","FUNCTION","Source","(String),Byte","","GENERATED(ABC)","Clarion","","",73496,73496,5845644,5852910
"OTHER","sba05app","sba05005.clw","ForceTransitType","","DEFAULTS","","","","","","","","",0,0,0,0
"PROCEDURE","sba05app","sba05006.clw","ForceIMEI","","","FUNCTION","Source","(String),Byte","","GENERATED(ABC)","Clarion","","",73496,73784,5853795,4081986
"OTHER","sba05app","sba05006.clw","ForceIMEI","","DEFAULTS","","","","","","","","",0,0,0,0
"PROCEDURE","sba05app","sba05007.clw","ForceMSN","","","FUNCTION","Source","(String,String,String),Byte","","GENERATED(ABC)","Clarion","","",73496,74092,5857590,4099980
"OTHER","sba05app","sba05007.clw","ForceMSN","","DEFAULTS","","","","","","","","",0,0,0,0
"PROCEDURE","sba05app","sba05008.clw","ForceModelNumber","","","FUNCTION","Source","(String),Byte","","GENERATED(ABC)","Clarion","","",73496,73496,5860062,5860957
"OTHER","sba05app","sba05008.clw","ForceModelNumber","","DEFAULTS","","","","","","","","",0,0,0,0
"PROCEDURE","sba05app","sba05009.clw","ForceUnitType","","","FUNCTION","Source","(String),Byte","","GENERATED(ABC)","Clarion","","",73496,73496,5861819,5862429
"OTHER","sba05app","sba05009.clw","ForceUnitType","","DEFAULTS","","","","","","","","",0,0,0,0
"PROCEDURE","sba05app","sba05010.clw","ForceMobileNumber","","","FUNCTION","Source","(String),Byte","","GENERATED(ABC)","Clarion","","",73496,74209,5863286,3967148
"OTHER","sba05app","sba05010.clw","ForceMobileNumber","","DEFAULTS","","","","","","","","",0,0,0,0
"PROCEDURE","sba05app","sba05011.clw","ForceColour","","","FUNCTION","Source","(String),Byte","","GENERATED(ABC)","Clarion","","",73496,73496,5864719,5865335
"OTHER","sba05app","sba05011.clw","ForceColour","","DEFAULTS","","","","","","","","",0,0,0,0
"PROCEDURE","sba05app","sba05012.clw","ForceDOP","","","FUNCTION","Source","(String,String,String,String),Byte","","GENERATED(ABC)","Clarion","","",73496,73502,5870415,4850388
"OTHER","sba05app","sba05012.clw","ForceDOP","","DEFAULTS","","","","","","","","",0,0,0,0
"OTHER","sba05app","sba05012.clw","ForceDOP","","TRANTYPE","","","","","","","","",0,0,0,0
"OTHER","sba05app","sba05012.clw","ForceDOP","","MANUFACT","","","","","","","","",0,0,0,0
"PROCEDURE","sba05app","sba05013.clw","ForceLocation","","","FUNCTION","Source","(String,String,String),Byte","","GENERATED(ABC)","Clarion","","",73496,73784,5887986,4081481
"OTHER","sba05app","sba05013.clw","ForceLocation","","DEFAULTS","","","","","","","","",0,0,0,0
"OTHER","sba05app","sba05013.clw","ForceLocation","","TRANTYPE","","","","","","","","",0,0,0,0
"PROCEDURE","sba05app","sba05014.clw","ForceAuthorityNumber","","","FUNCTION","Source","(String),Byte","","GENERATED(ABC)","Clarion","","",73496,73496,5892210,5892836
"OTHER","sba05app","sba05014.clw","ForceAuthorityNumber","","DEFAULTS","","","","","","","","",0,0,0,0
"PROCEDURE","sba05app","sba05015.clw","ForceOrderNumber","","","FUNCTION","Source","(String,String),Byte","","GENERATED(ABC)","Clarion","","",73496,74209,5894681,3970334
"OTHER","sba05app","sba05015.clw","ForceOrderNumber","","DEFAULTS","","","","","","","","",0,0,0,0
"OTHER","sba05app","sba05015.clw","ForceOrderNumber","","TRADEACC","","","","","","","","",0,0,0,0
"OTHER","sba05app","sba05015.clw","ForceOrderNumber","","SUBTRACC","","","","","","","","",0,0,0,0
"PROCEDURE","sba05app","sba05016.clw","ForceCustomerName","","","FUNCTION","Source","(String,String),Byte","","GENERATED(ABC)","Clarion","","",73496,73496,5906386,5910121
"OTHER","sba05app","sba05016.clw","ForceCustomerName","","DEFAULTS","","","","","","","","",0,0,0,0
"OTHER","sba05app","sba05016.clw","ForceCustomerName","","TRADEACC","","","","","","","","",0,0,0,0
"OTHER","sba05app","sba05016.clw","ForceCustomerName","","SUBTRACC","","","","","","","","",0,0,0,0
"PROCEDURE","sba05app","sba05017.clw","ForceIncomingCourier","","","FUNCTION","Source","(String),Byte","","GENERATED(ABC)","Clarion","","",73496,73496,5911291,5912950
"OTHER","sba05app","sba05017.clw","ForceIncomingCourier","","DEFAULTS","","","","","","","","",0,0,0,0
"OTHER","sba05app","sba05017.clw","ForceIncomingCourier","","TRADEACC","","","","","","","","",0,0,0,0
"OTHER","sba05app","sba05017.clw","ForceIncomingCourier","","SUBTRACC","","","","","","","","",0,0,0,0
"PROCEDURE","sba05app","sba01app.lib","MSNRequired","","","FUNCTION","External","(String),Byte","","ExternalDLL(ABC)","External","","",73496,73496,5916553,5917311
"PROCEDURE","sba05app","sba01app.lib","CustomerNameRequired","","","FUNCTION","External","(String),Byte","","ExternalDLL(ABC)","External","","",73496,73496,5923446,5924358
"PROCEDURE","sba05app","sba05018.clw","ForcePostcode","","","FUNCTION","Source","(String),Byte","","GENERATED(ABC)","Clarion","","",73497,73497,3730331,5283097
"OTHER","sba05app","sba05018.clw","ForcePostcode","","DEFAULTS","","","","","","","","",0,0,0,0
"PROCEDURE","sba05app","sba05019.clw","ForceDeliveryPostcode","","","FUNCTION","Source","(String),Byte","","GENERATED(ABC)","Clarion","","",73497,73497,3732995,5284163
"OTHER","sba05app","sba05019.clw","ForceDeliveryPostcode","","DEFAULTS","","","","","","","","",0,0,0,0
"PROCEDURE","sba05app","sba05020.clw","ForceFaultDescription","","","FUNCTION","Source","(String),Byte","","GENERATED(ABC)","Clarion","","",73497,73784,3761254,4083524
"OTHER","sba05app","sba05020.clw","ForceFaultDescription","","DEFAULTS","","","","","","","","",0,0,0,0
"PROCEDURE","sba05app","sba05021.clw","ForceInvoiceText","","","FUNCTION","Source","(String),Byte","","GENERATED(ABC)","Clarion","","",73497,73497,3766835,3770312
"OTHER","sba05app","sba05021.clw","ForceInvoiceText","","DEFAULTS","","","","","","","","",0,0,0,0
"PROCEDURE","sba05app","sba05022.clw","ForceRepairType","","","FUNCTION","Source","(String),Byte","","GENERATED(ABC)","Clarion","","",73497,73497,3776040,3805607
"OTHER","sba05app","sba05022.clw","ForceRepairType","","DEFAULTS","","","","","","","","",0,0,0,0
"PROCEDURE","sba05app","sba05023.clw","ForceCourier","","","FUNCTION","Source","(String),Byte","","GENERATED(ABC)","Clarion","","",73497,73497,3876730,3883299
"OTHER","sba05app","sba05023.clw","ForceCourier","","DEFAULTS","","","","","","","","",0,0,0,0
"OTHER","sba05app","sba05023.clw","ForceCourier","","TRADEACC","","","","","","","","",0,0,0,0
"OTHER","sba05app","sba05023.clw","ForceCourier","","SUBTRACC","","","","","","","","",0,0,0,0
"PROCEDURE","sba05app","sba05024.clw","ForceNetwork","","","FUNCTION","Source","(String),Byte","","GENERATED(ABC)","Clarion","","",73784,73784,4084683,4966012
"OTHER","sba05app","sba05024.clw","ForceNetwork","","DEFAULTS","","","","","","","","",0,0,0,0
"TEMPLATES","sba05app","sba05app.CLW","Global Extension Template","","","GlobalExtTemplate","MessageEx(MessageExABC)","","","","","","",0,0,0,0
"TEMPLATES","sba05app","sba05app.CLW","Global Extension Template","","","GlobalExtTemplate","AppRefAutoExport(App_Ref)","","","","","","",0,0,0,0
"TEMPLATES","sba05app","sba05app.CLW","Global Extension Template","","","GlobalExtTemplate","CPCS5Reporting(CPCSAbcRpts)","","","","","","",0,0,0,0
"GLOBAL","sba05app","GlobalData","glo:ErrorText","STRING(1000)","","","","","","","","","",0,0,0,0
"GLOBAL","sba05app","GlobalData","glo:owner","STRING(20)","","","","","","","","","",0,0,0,0
"GLOBAL","sba05app","GlobalData","glo:DateModify","DATE","","","","","","","","","",0,0,0,0
"GLOBAL","sba05app","GlobalData","glo:TimeModify","TIME","","","","","","","","","",0,0,0,0
"GLOBAL","sba05app","GlobalData","glo:Notes_Global","STRING(1000)","","","","","","","","","",0,0,0,0
"GLOBAL","sba05app","GlobalData","glo:Q_Invoice","QUEUE,PRE(glo)","","","","","","","","","",0,0,0,0
"GLOBAL","sba05app","GlobalData","Invoice_Number","REAL","","","","","","","","","",0,0,0,0
"GLOBAL","sba05app","GlobalData","Account_Number","STRING(15)","","","","","","","","","",0,0,0,0
"GLOBAL","sba05app","GlobalData","","END","","","","","","","","","",0,0,0,0
"GLOBAL","sba05app","GlobalData","glo:afe_path","STRING(255)","","","","","","","","","",0,0,0,0
"GLOBAL","sba05app","GlobalData","glo:Password","STRING(20)","","","","","","","","","",0,0,0,0
"GLOBAL","sba05app","GlobalData","glo:PassAccount","STRING(30)","","","","","","","","","",0,0,0,0
"GLOBAL","sba05app","GlobalData","glo:Preview","STRING('True')","","","","","","","","","",0,0,0,0
"GLOBAL","sba05app","GlobalData","glo:q_JobNumber","QUEUE,PRE(GLO)","","","","","","","","","",0,0,0,0
"GLOBAL","sba05app","GlobalData","Job_Number_Pointer","REAL","","","","","","","","","",0,0,0,0
"GLOBAL","sba05app","GlobalData","","END","","","","","","","","","",0,0,0,0
"GLOBAL","sba05app","GlobalData","glo:Q_PartsOrder","QUEUE,PRE(GLO)","","","","","","","","","",0,0,0,0
"GLOBAL","sba05app","GlobalData","Q_Order_Number","REAL","","","","","","","","","",0,0,0,0
"GLOBAL","sba05app","GlobalData","Q_Part_Number","STRING(30)","","","","","","","","","",0,0,0,0
"GLOBAL","sba05app","GlobalData","Q_Description","STRING(30)","","","","","","","","","",0,0,0,0
"GLOBAL","sba05app","GlobalData","Q_Supplier","STRING(30)","","","","","","","","","",0,0,0,0
"GLOBAL","sba05app","GlobalData","Q_Quantity","LONG","","","","","","","","","",0,0,0,0
"GLOBAL","sba05app","GlobalData","Q_Purchase_Cost","REAL","","","","","","","","","",0,0,0,0
"GLOBAL","sba05app","GlobalData","Q_Sale_Cost","REAL","","","","","","","","","",0,0,0,0
"GLOBAL","sba05app","GlobalData","","END","","","","","","","","","",0,0,0,0
"GLOBAL","sba05app","GlobalData","glo:G_Select1","GROUP,PRE(GLO)","","","","","","","","","",0,0,0,0
"GLOBAL","sba05app","GlobalData","Select1","STRING(30)","","","","","","","","","",0,0,0,0
"GLOBAL","sba05app","GlobalData","Select2","STRING(40)","","","","","","","","","",0,0,0,0
"GLOBAL","sba05app","GlobalData","Select3","STRING(40)","","","","","","","","","",0,0,0,0
"GLOBAL","sba05app","GlobalData","Select4","STRING(40)","","","","","","","","","",0,0,0,0
"GLOBAL","sba05app","GlobalData","Select5","STRING(40)","","","","","","","","","",0,0,0,0
"GLOBAL","sba05app","GlobalData","Select6","STRING(40)","","","","","","","","","",0,0,0,0
"GLOBAL","sba05app","GlobalData","Select7","STRING(40)","","","","","","","","","",0,0,0,0
"GLOBAL","sba05app","GlobalData","Select8","STRING(40)","","","","","","","","","",0,0,0,0
"GLOBAL","sba05app","GlobalData","Select9","STRING(40)","","","","","","","","","",0,0,0,0
"GLOBAL","sba05app","GlobalData","Select10","STRING(40)","","","","","","","","","",0,0,0,0
"GLOBAL","sba05app","GlobalData","Select11","STRING(40)","","","","","","","","","",0,0,0,0
"GLOBAL","sba05app","GlobalData","Select12","STRING(40)","","","","","","","","","",0,0,0,0
"GLOBAL","sba05app","GlobalData","Select13","STRING(40)","","","","","","","","","",0,0,0,0
"GLOBAL","sba05app","GlobalData","Select14","STRING(40)","","","","","","","","","",0,0,0,0
"GLOBAL","sba05app","GlobalData","Select15","STRING(40)","","","","","","","","","",0,0,0,0
"GLOBAL","sba05app","GlobalData","Select16","STRING(40)","","","","","","","","","",0,0,0,0
"GLOBAL","sba05app","GlobalData","Select17","STRING(40)","","","","","","","","","",0,0,0,0
"GLOBAL","sba05app","GlobalData","Select18","STRING(40)","","","","","","","","","",0,0,0,0
"GLOBAL","sba05app","GlobalData","Select19","STRING(40)","","","","","","","","","",0,0,0,0
"GLOBAL","sba05app","GlobalData","Select20","STRING(40)","","","","","","","","","",0,0,0,0
"GLOBAL","sba05app","GlobalData","Select21","STRING(40)","","","","","","","","","",0,0,0,0
"GLOBAL","sba05app","GlobalData","Select22","STRING(40)","","","","","","","","","",0,0,0,0
"GLOBAL","sba05app","GlobalData","Select23","STRING(40)","","","","","","","","","",0,0,0,0
"GLOBAL","sba05app","GlobalData","Select24","STRING(40)","","","","","","","","","",0,0,0,0
"GLOBAL","sba05app","GlobalData","Select25","STRING(40)","","","","","","","","","",0,0,0,0
"GLOBAL","sba05app","GlobalData","Select26","STRING(40)","","","","","","","","","",0,0,0,0
"GLOBAL","sba05app","GlobalData","Select27","STRING(40)","","","","","","","","","",0,0,0,0
"GLOBAL","sba05app","GlobalData","Select28","STRING(40)","","","","","","","","","",0,0,0,0
"GLOBAL","sba05app","GlobalData","Select29","STRING(40)","","","","","","","","","",0,0,0,0
"GLOBAL","sba05app","GlobalData","Select30","STRING(40)","","","","","","","","","",0,0,0,0
"GLOBAL","sba05app","GlobalData","Select31","STRING(40)","","","","","","","","","",0,0,0,0
"GLOBAL","sba05app","GlobalData","Select32","STRING(40)","","","","","","","","","",0,0,0,0
"GLOBAL","sba05app","GlobalData","Select33","STRING(40)","","","","","","","","","",0,0,0,0
"GLOBAL","sba05app","GlobalData","Select34","STRING(40)","","","","","","","","","",0,0,0,0
"GLOBAL","sba05app","GlobalData","Select35","STRING(40)","","","","","","","","","",0,0,0,0
"GLOBAL","sba05app","GlobalData","Select36","STRING(40)","","","","","","","","","",0,0,0,0
"GLOBAL","sba05app","GlobalData","Select37","STRING(40)","","","","","","","","","",0,0,0,0
"GLOBAL","sba05app","GlobalData","Select38","STRING(40)","","","","","","","","","",0,0,0,0
"GLOBAL","sba05app","GlobalData","Select39","STRING(40)","","","","","","","","","",0,0,0,0
"GLOBAL","sba05app","GlobalData","Select40","STRING(40)","","","","","","","","","",0,0,0,0
"GLOBAL","sba05app","GlobalData","Select41","STRING(40)","","","","","","","","","",0,0,0,0
"GLOBAL","sba05app","GlobalData","Select42","STRING(40)","","","","","","","","","",0,0,0,0
"GLOBAL","sba05app","GlobalData","Select43","STRING(40)","","","","","","","","","",0,0,0,0
"GLOBAL","sba05app","GlobalData","Select44","STRING(40)","","","","","","","","","",0,0,0,0
"GLOBAL","sba05app","GlobalData","Select45","STRING(40)","","","","","","","","","",0,0,0,0
"GLOBAL","sba05app","GlobalData","Select46","STRING(40)","","","","","","","","","",0,0,0,0
"GLOBAL","sba05app","GlobalData","Select47","STRING(40)","","","","","","","","","",0,0,0,0
"GLOBAL","sba05app","GlobalData","Select48","STRING(40)","","","","","","","","","",0,0,0,0
"GLOBAL","sba05app","GlobalData","Select49","STRING(40)","","","","","","","","","",0,0,0,0
"GLOBAL","sba05app","GlobalData","Select50","STRING(40)","","","","","","","","","",0,0,0,0
"GLOBAL","sba05app","GlobalData","","END","","","","","","","","","",0,0,0,0
"GLOBAL","sba05app","GlobalData","glo:q_RepairType","QUEUE,PRE(GLO)","","","","","","","","","",0,0,0,0
"GLOBAL","sba05app","GlobalData","Repair_Type_Pointer","STRING(30)","","","","","","","","","",0,0,0,0
"GLOBAL","sba05app","GlobalData","","END","","","","","","","","","",0,0,0,0
"GLOBAL","sba05app","GlobalData","glo:Q_UnitType","QUEUE,PRE(GLO)","","","","","","","","","",0,0,0,0
"GLOBAL","sba05app","GlobalData","Unit_Type_Pointer","STRING(30)","","","","","","","","","",0,0,0,0
"GLOBAL","sba05app","GlobalData","","END","","","","","","","","","",0,0,0,0
"GLOBAL","sba05app","GlobalData","glo:Q_ChargeType","QUEUE,PRE(GLO)","","","","","","","","","",0,0,0,0
"GLOBAL","sba05app","GlobalData","Charge_Type_Pointer","STRING(30)","","","","","","","","","",0,0,0,0
"GLOBAL","sba05app","GlobalData","","END","","","","","","","","","",0,0,0,0
"GLOBAL","sba05app","GlobalData","glo:Q_ModelNumber","QUEUE,PRE(glo)","","","","","","","","","",0,0,0,0
"GLOBAL","sba05app","GlobalData","Model_Number_Pointer","STRING(30)","","","","","","","","","",0,0,0,0
"GLOBAL","sba05app","GlobalData","","END","","","","","","","","","",0,0,0,0
"GLOBAL","sba05app","GlobalData","glo:Q_Accessory","QUEUE,PRE(GLO)","","","","","","","","","",0,0,0,0
"GLOBAL","sba05app","GlobalData","Accessory_Pointer","STRING(30)","","","","","","","","","",0,0,0,0
"GLOBAL","sba05app","GlobalData","","END","","","","","","","","","",0,0,0,0
"GLOBAL","sba05app","GlobalData","glo:Q_AccessLevel","QUEUE,PRE(GLO)","","","","","","","","","",0,0,0,0
"GLOBAL","sba05app","GlobalData","Access_Level_Pointer","STRING(30)","","","","","","","","","",0,0,0,0
"GLOBAL","sba05app","GlobalData","","END","","","","","","","","","",0,0,0,0
"GLOBAL","sba05app","GlobalData","glo:Q_AccessAreas","QUEUE,PRE(GLO)","","","","","","","","","",0,0,0,0
"GLOBAL","sba05app","GlobalData","Access_Areas_Pointer","STRING(30)","","","","","","","","","",0,0,0,0
"GLOBAL","sba05app","GlobalData","","END","","","","","","","","","",0,0,0,0
"GLOBAL","sba05app","GlobalData","glo:Q_Notes","QUEUE,PRE(GLO)","","","","","","","","","",0,0,0,0
"GLOBAL","sba05app","GlobalData","notes_pointer","STRING(80)","","","","","","","","","",0,0,0,0
"GLOBAL","sba05app","GlobalData","","END","","","","","","","","","",0,0,0,0
"GLOBAL","sba05app","GlobalData","glo:EnableFlag","STRING(3)","","","","","","","","","",0,0,0,0
"GLOBAL","sba05app","GlobalData","glo:TimeLogged","TIME","","","","","","","","","",0,0,0,0
"GLOBAL","sba05app","GlobalData","glo:GLO:ApplicationName","STRING(8)","","","","","","","","","",0,0,0,0
"GLOBAL","sba05app","GlobalData","glo:GLO:ApplicationCreationDate","LONG","","","","","","","","","",0,0,0,0
"GLOBAL","sba05app","GlobalData","glo:GLO:ApplicationCreationTime","LONG","","","","","","","","","",0,0,0,0
"GLOBAL","sba05app","GlobalData","glo:GLO:ApplicationChangeDate","LONG","","","","","","","","","",0,0,0,0
"GLOBAL","sba05app","GlobalData","glo:GLO:ApplicationChangeTime","LONG","","","","","","","","","",0,0,0,0
"GLOBAL","sba05app","GlobalData","glo:GLO:Compiled32","BYTE","","","","","","","","","",0,0,0,0
"GLOBAL","sba05app","GlobalData","glo:GLO:AppINIFile","STRING(255)","","","","","","","","","",0,0,0,0
"GLOBAL","sba05app","GlobalData","glo:Queue","QUEUE,PRE(GLO)","","","","","","","","","",0,0,0,0
"GLOBAL","sba05app","GlobalData","Pointer","STRING(40)","","","","","","","","","",0,0,0,0
"GLOBAL","sba05app","GlobalData","","END","","","","","","","","","",0,0,0,0
"GLOBAL","sba05app","GlobalData","glo:Queue2","QUEUE,PRE(GLO)","","","","","","","","","",0,0,0,0
"GLOBAL","sba05app","GlobalData","Pointer2","STRING(40)","","","","","","","","","",0,0,0,0
"GLOBAL","sba05app","GlobalData","","END","","","","","","","","","",0,0,0,0
"GLOBAL","sba05app","GlobalData","glo:Queue3","QUEUE,PRE(GLO)","","","","","","","","","",0,0,0,0
"GLOBAL","sba05app","GlobalData","Pointer3","STRING(40)","","","","","","","","","",0,0,0,0
"GLOBAL","sba05app","GlobalData","","END","","","","","","","","","",0,0,0,0
"GLOBAL","sba05app","GlobalData","glo:Queue4","QUEUE,PRE(GLO)","","","","","","","","","",0,0,0,0
"GLOBAL","sba05app","GlobalData","Pointer4","STRING(40)","","","","","","","","","",0,0,0,0
"GLOBAL","sba05app","GlobalData","","END","","","","","","","","","",0,0,0,0
"GLOBAL","sba05app","GlobalData","glo:Queue5","QUEUE,PRE(GLO)","","","","","","","","","",0,0,0,0
"GLOBAL","sba05app","GlobalData","Pointer5","STRING(40)","","","","","","","","","",0,0,0,0
"GLOBAL","sba05app","GlobalData","","END","","","","","","","","","",0,0,0,0
"GLOBAL","sba05app","GlobalData","glo:Queue6","QUEUE,PRE(GLO)","","","","","","","","","",0,0,0,0
"GLOBAL","sba05app","GlobalData","Pointer6","STRING(40)","","","","","","","","","",0,0,0,0
"GLOBAL","sba05app","GlobalData","","END","","","","","","","","","",0,0,0,0
"GLOBAL","sba05app","GlobalData","glo:Queue7","QUEUE,PRE(GLO)","","","","","","","","","",0,0,0,0
"GLOBAL","sba05app","GlobalData","Pointer7","STRING(40)","","","","","","","","","",0,0,0,0
"GLOBAL","sba05app","GlobalData","","END","","","","","","","","","",0,0,0,0
"GLOBAL","sba05app","GlobalData","glo:Queue8","QUEUE,PRE(GLO)","","","","","","","","","",0,0,0,0
"GLOBAL","sba05app","GlobalData","Pointer8","STRING(40)","","","","","","","","","",0,0,0,0
"GLOBAL","sba05app","GlobalData","","END","","","","","","","","","",0,0,0,0
"GLOBAL","sba05app","GlobalData","glo:Queue9","QUEUE,PRE(GLO)","","","","","","","","","",0,0,0,0
"GLOBAL","sba05app","GlobalData","Pointer9","STRING(40)","","","","","","","","","",0,0,0,0
"GLOBAL","sba05app","GlobalData","","END","","","","","","","","","",0,0,0,0
"GLOBAL","sba05app","GlobalData","glo:Queue10","QUEUE,PRE(GLO)","","","","","","","","","",0,0,0,0
"GLOBAL","sba05app","GlobalData","Pointer10","STRING(40)","","","","","","","","","",0,0,0,0
"GLOBAL","sba05app","GlobalData","","END","","","","","","","","","",0,0,0,0
"GLOBAL","sba05app","GlobalData","glo:Queue11","QUEUE,PRE(GLO)","","","","","","","","","",0,0,0,0
"GLOBAL","sba05app","GlobalData","Pointer11","STRING(40)","","","","","","","","","",0,0,0,0
"GLOBAL","sba05app","GlobalData","","END","","","","","","","","","",0,0,0,0
"GLOBAL","sba05app","GlobalData","glo:Queue12","QUEUE,PRE(GLO)","","","","","","","","","",0,0,0,0
"GLOBAL","sba05app","GlobalData","Pointer12","STRING(40)","","","","","","","","","",0,0,0,0
"GLOBAL","sba05app","GlobalData","","END","","","","","","","","","",0,0,0,0
"GLOBAL","sba05app","GlobalData","glo:Queue13","QUEUE,PRE(GLO)","","","","","","","","","",0,0,0,0
"GLOBAL","sba05app","GlobalData","Pointer13","STRING(40)","","","","","","","","","",0,0,0,0
"GLOBAL","sba05app","GlobalData","","END","","","","","","","","","",0,0,0,0
"GLOBAL","sba05app","GlobalData","glo:Queue14","QUEUE,PRE(GLO)","","","","","","","","","",0,0,0,0
"GLOBAL","sba05app","GlobalData","Pointer14","STRING(40)","","","","","","","","","",0,0,0,0
"GLOBAL","sba05app","GlobalData","","END","","","","","","","","","",0,0,0,0
"GLOBAL","sba05app","GlobalData","glo:Queue15","QUEUE,PRE(GLO)","","","","","","","","","",0,0,0,0
"GLOBAL","sba05app","GlobalData","Pointer15","STRING(40)","","","","","","","","","",0,0,0,0
"GLOBAL","sba05app","GlobalData","","END","","","","","","","","","",0,0,0,0
"GLOBAL","sba05app","GlobalData","glo:Queue16","QUEUE,PRE(GLO)","","","","","","","","","",0,0,0,0
"GLOBAL","sba05app","GlobalData","Pointer16","STRING(40)","","","","","","","","","",0,0,0,0
"GLOBAL","sba05app","GlobalData","","END","","","","","","","","","",0,0,0,0
"GLOBAL","sba05app","GlobalData","glo:Queue17","QUEUE,PRE(GLO)","","","","","","","","","",0,0,0,0
"GLOBAL","sba05app","GlobalData","Pointer17","STRING(40)","","","","","","","","","",0,0,0,0
"GLOBAL","sba05app","GlobalData","","END","","","","","","","","","",0,0,0,0
"GLOBAL","sba05app","GlobalData","glo:Queue18","QUEUE,PRE(GLO)","","","","","","","","","",0,0,0,0
"GLOBAL","sba05app","GlobalData","Pointer18","STRING(40)","","","","","","","","","",0,0,0,0
"GLOBAL","sba05app","GlobalData","","END","","","","","","","","","",0,0,0,0
"GLOBAL","sba05app","GlobalData","glo:Queue19","QUEUE,PRE(GLO)","","","","","","","","","",0,0,0,0
"GLOBAL","sba05app","GlobalData","Pointer19","STRING(40)","","","","","","","","","",0,0,0,0
"GLOBAL","sba05app","GlobalData","","END","","","","","","","","","",0,0,0,0
"GLOBAL","sba05app","GlobalData","glo:Queue20","QUEUE,PRE(GLO)","","","","","","","","","",0,0,0,0
"GLOBAL","sba05app","GlobalData","Pointer20","STRING(40)","","","","","","","","","",0,0,0,0
"GLOBAL","sba05app","GlobalData","","END","","","","","","","","","",0,0,0,0
"GLOBAL","sba05app","GlobalData","glo:FaultCode1","STRING(30)","","","","","","","","","",0,0,0,0
"GLOBAL","sba05app","GlobalData","glo:FaultCode2","STRING(30)","","","","","","","","","",0,0,0,0
"GLOBAL","sba05app","GlobalData","glo:FaultCode3","STRING(30)","","","","","","","","","",0,0,0,0
"GLOBAL","sba05app","GlobalData","glo:FaultCode4","STRING(30)","","","","","","","","","",0,0,0,0
"GLOBAL","sba05app","GlobalData","glo:FaultCode5","STRING(30)","","","","","","","","","",0,0,0,0
"GLOBAL","sba05app","GlobalData","glo:FaultCode6","STRING(30)","","","","","","","","","",0,0,0,0
"GLOBAL","sba05app","GlobalData","glo:FaultCode7","STRING(30)","","","","","","","","","",0,0,0,0
"GLOBAL","sba05app","GlobalData","glo:FaultCode8","STRING(30)","","","","","","","","","",0,0,0,0
"GLOBAL","sba05app","GlobalData","glo:FaultCode9","STRING(30)","","","","","","","","","",0,0,0,0
"GLOBAL","sba05app","GlobalData","glo:FaultCode10","STRING(255)","","","","","","","","","",0,0,0,0
"GLOBAL","sba05app","GlobalData","glo:FaultCode11","STRING(255)","","","","","","","","","",0,0,0,0
"GLOBAL","sba05app","GlobalData","glo:FaultCode12","STRING(255)","","","","","","","","","",0,0,0,0
"GLOBAL","sba05app","GlobalData","glo:FaultCode13","STRING(30)","","","","","","","","","",0,0,0,0
"GLOBAL","sba05app","GlobalData","glo:FaultCode14","STRING(30)","","","","","","","","","",0,0,0,0
"GLOBAL","sba05app","GlobalData","glo:FaultCode15","STRING(30)","","","","","","","","","",0,0,0,0
"GLOBAL","sba05app","GlobalData","glo:FaultCode16","STRING(30)","","","","","","","","","",0,0,0,0
"GLOBAL","sba05app","GlobalData","glo:FaultCode17","STRING(30)","","","","","","","","","",0,0,0,0
"GLOBAL","sba05app","GlobalData","glo:FaultCode18","STRING(30)","","","","","","","","","",0,0,0,0
"GLOBAL","sba05app","GlobalData","glo:FaultCode19","STRING(30)","","","","","","","","","",0,0,0,0
"GLOBAL","sba05app","GlobalData","glo:FaultCode20","STRING(30)","","","","","","","","","",0,0,0,0
"GLOBAL","sba05app","GlobalData","glo:TradeFaultCode1","STRING(30)","","","","","","","","","",0,0,0,0
"GLOBAL","sba05app","GlobalData","glo:TradeFaultCode2","STRING(30)","","","","","","","","","",0,0,0,0
"GLOBAL","sba05app","GlobalData","glo:TradeFaultCode3","STRING(30)","","","","","","","","","",0,0,0,0
"GLOBAL","sba05app","GlobalData","glo:TradeFaultCode4","STRING(30)","","","","","","","","","",0,0,0,0
"GLOBAL","sba05app","GlobalData","glo:TradeFaultCode5","STRING(30)","","","","","","","","","",0,0,0,0
"GLOBAL","sba05app","GlobalData","glo:TradeFaultCode6","STRING(30)","","","","","","","","","",0,0,0,0
"GLOBAL","sba05app","GlobalData","glo:TradeFaultCode7","STRING(30)","","","","","","","","","",0,0,0,0
"GLOBAL","sba05app","GlobalData","glo:TradeFaultCode8","STRING(30)","","","","","","","","","",0,0,0,0
"GLOBAL","sba05app","GlobalData","glo:TradeFaultCode9","STRING(30)","","","","","","","","","",0,0,0,0
"GLOBAL","sba05app","GlobalData","glo:TradeFaultCode10","STRING(30)","","","","","","","","","",0,0,0,0
"GLOBAL","sba05app","GlobalData","glo:TradeFaultCode11","STRING(30)","","","","","","","","","",0,0,0,0
"GLOBAL","sba05app","GlobalData","glo:TradeFaultCode12","STRING(30)","","","","","","","","","",0,0,0,0
