Error: General Protection Fault
   C:\C55\BIN\C55RUN.DLL 30:1072
   C:\C55\BIN\C55GEN.DLL 29:0082
   C:\C55\BIN\C55GEN.DLL 2e:33e7
   C:\C55\BIN\C55GEN.DLL 2e:0b2b
   C:\C55\BIN\C55GEN.DLL 23:286e
   C:\C55\BIN\C55GEN.DLL 25:1029
   C:\C55\BIN\C55GEN.DLL 1a:1783
   C:\C55\BIN\C55GEN.DLL 1a:06ac
   C:\C55\BIN\C55GEN.DLL 23:286e
   C:\C55\BIN\C55GEN.DLL 2a:3b7f
   C:\C55\BIN\C55GEN.DLL 23:2a09
   C:\C55\BIN\C55GEN.DLL 25:1ec7
   C:\C55\BIN\C55GEN.DLL 25:1db4
   C:\C55\BIN\C55GEN.DLL 29:1fbb
   C:\C55\BIN\C55GEN.DLL 29:322d
   C:\C55\BIN\C55GEN.DLL 2d:285d
----------------------------------
