"HEADING","Application","Module","Procedure","Field1","Field2","Field3","Field4","Field5","Field6","Field7","Field8","Field9","Field10",Number1,Number2,Number3,Number4
"VERSION","2.00","'check_Template_version'","","28/09/2007"," 1:33PM","75514","4880724","","","","","","",,,,
"APPNAME","celrapst","","1","Main","","EXE","S:\Bryans\UKCellular\v6.1 UTL\cellular.dct","celrapst.clw","","","","","",73139,75514,4966841,4880724
"PROCEDURE","celrapst","celra001.clw","Main","","","PROCEDURE","Frame","","Front Screen","GENERATED(ABC)","Clarion","","",73139,74784,4973389,5360201
"WINDOW","celrapst","celra001.clw","Main","APPLICATION('Rapid Status Change/ Job Allocation  - ServiceBase 2000'),AT(,,679,393),FONT('Tahoma',8,,),CENTER,IMM,HVSCROLL,ICON('Pc.ico'),ALRT(F12Key),STATUS(-1,-1),SYSTEM,MAX,MAXIMIZE,RESIZE"
"CALLTO","celrapst","celra001.clw","Main","Browse_Jobs","","","","","","","","","",0,0,0,0
"CALLTO","celrapst","celra001.clw","Main","UpdateJobExchangeStatus","","","","","","","","","",0,0,0,0
"CALLTO","celrapst","celra001.clw","Main","Update_Jobs_Status","","","","","","","","","",0,0,0,0
"OTHER","celrapst","celra001.clw","Main","","DEFAULTS","","","","","","","","",0,0,0,0
"OTHER","celrapst","celra001.clw","Main","","LOGGED","","","","","","","","",0,0,0,0
"OTHER","celrapst","celra001.clw","Main","","USERS","","","","","","","","",0,0,0,0
"LOCALDATA","celrapst","celra001.clw","Main","LocalRequest","","LONG","","","","","","","",0,0,0,0
"LOCALDATA","celrapst","celra001.clw","Main","start_help_temp","","STRING(255)","","","","","","","",0,0,0,0
"LOCALDATA","celrapst","celra001.clw","Main","pos","","STRING(255)","","","","","","","",0,0,0,0
"LOCALDATA","celrapst","celra001.clw","Main","loc:lastcount","","LONG","","","","","","","",0,0,0,0
"LOCALDATA","celrapst","celra001.clw","Main","loc:lasttime","","LONG","","","","","","","",0,0,0,0
"LOCALDATA","celrapst","celra001.clw","Main","FilesOpened","","BYTE","","","","","","","",0,0,0,0
"LOCALDATA","celrapst","celra001.clw","Main","CurrentTab","","STRING(80)","","","","","","","",0,0,0,0
"LOCALDATA","celrapst","celra001.clw","Main","FP::PopupString","","STRING(4096)","","","","","","","",0,0,0,0
"LOCALDATA","celrapst","celra001.clw","Main","FP::ReturnValues","","QUEUE,PRE(FP:)","","","","","","","",0,0,0,0
"LOCALDATA","celrapst","celra001.clw","Main","RVPtr","","LONG","","","","","","","",0,0,0,0
"LOCALDATA","celrapst","celra001.clw","Main","","","END","","","","","","","",0,0,0,0
"LOCALDATA","celrapst","celra001.clw","Main","comp_name_temp","","STRING(255)","","","","","","","",0,0,0,0
"LOCALDATA","celrapst","celra001.clw","Main","AllowUserToExit","","BYTE","","","","","","","",0,0,0,0
"LOCALDATA","celrapst","celra001.clw","Main","Date_Temp","","STRING(60)","","","","","","","",0,0,0,0
"LOCALDATA","celrapst","celra001.clw","Main","Time_Temp","","STRING(60)","","","","","","","",0,0,0,0
"LOCALDATA","celrapst","celra001.clw","Main","SRCF::Version","","STRING(512)","","","","","","","",0,0,0,0
"LOCALDATA","celrapst","celra001.clw","Main","SRCF::Format","","STRING(512)","","","","","","","",0,0,0,0
"LOCALDATA","celrapst","celra001.clw","Main","CPCSExecutePopUp","","BYTE","","","","","","","",0,0,0,0
"LOCALDATA","celrapst","celra001.clw","Main","BackerDDEName","","STRING(30)","","","","","","","",0,0,0,0
"LOCALDATA","celrapst","celra001.clw","Main","LSolCtrlQ","","QUEUE,PRE()","","","","","","","",0,0,0,0
"LOCALDATA","celrapst","celra001.clw","Main","SolaceUseRef","","LONG","","","","","","","",0,0,0,0
"LOCALDATA","celrapst","celra001.clw","Main","SolaceCtrlName","","STRING(20)","","","","","","","",0,0,0,0
"LOCALDATA","celrapst","celra001.clw","Main","","","END","","","","","","","",0,0,0,0
"CONTROLS","celrapst","celra001.clw","Main","?Button6","ICON('exitcomp.gif')","BUTTON('Exit')","","","","","","","",0,0,0,0
"BUTTON","celrapst","celra001.clw","Main","BUTTON('Exit'),AT(396,1,80,20),USE(?Button6),LEFT,ICON('exitcomp.gif'),STD(STD:Close)"
"CONTROLS","celrapst","celra001.clw","Main","?ExchangeStatusUpdate","ICON('Files.gif')","BUTTON('Ex&change Update')","","","","","","","",0,0,0,0
"BUTTON","celrapst","celra001.clw","Main","BUTTON('Ex&change Update'),AT(88,1,80,20),USE(?ExchangeStatusUpdate),LEFT,ICON('Files.gif')"
"CONTROLS","celrapst","celra001.clw","Main","?Browse_Jobs","ICON('Finder.gif')","BUTTON('Browse Jobs')","","","","","","","",0,0,0,0
"BUTTON","celrapst","celra001.clw","Main","BUTTON('Browse Jobs'),AT(172,1,80,20),USE(?Browse_Jobs),LEFT,ICON('Finder.gif')"
"CONTROLS","celrapst","celra001.clw","Main","?Status_Update","ICON('Files.gif')","BUTTON('&Job Update')","","","","","","","",0,0,0,0
"BUTTON","celrapst","celra001.clw","Main","BUTTON('&Job Update'),AT(4,1,80,20),USE(?Status_Update),LEFT,ICON('Files.gif')"
"TEMPLATES","celrapst","celra001.clw","Main","","","Frame","LocalForceColourFields(BryanTemplate)","","","","","","",0,0,0,0
"TEMPLATES","celrapst","celra001.clw","Main","","","Frame","ClarioNETProcedure(ClarioNET)","","","","","","",0,0,0,0
"TEMPLATES","celrapst","celra001.clw","Main","","","Frame","OneInstanceFrame(BryanTemplate)","","","","","","",0,0,0,0
"TEMPLATES","celrapst","celra001.clw","Main","","","Frame","AddStartScreenProcedure(BryanTemplate)","","","","","","",0,0,0,0
"TEMPLATES","celrapst","celra001.clw","Main","","","Frame","LocalVCR(BryanTemplate)","","","","","","",0,0,0,0
"TEMPLATES","celrapst","celra001.clw","Main","","","Frame","ForceWindowToTopOnOpen(FreeAPIToolkit)","","","","","","",0,0,0,0
"TEMPLATES","celrapst","celra001.clw","Main","","","Frame","DateTimeDisplay(ABC)","","","","","","",0,0,0,0
"TEMPLATES","celrapst","celra001.clw","Main","","","Frame","WindowResize(ABC)","","","","","","",0,0,0,0
"TEMPLATES","celrapst","celra001.clw","Main","","","Frame","Show_Key_Status(TINTOOLSABC)","","","","","","",0,0,0,0
"TEMPLATES","celrapst","celra001.clw","Main","","","Frame","IncludeNetTalkObject(NetTalk)","","","","","","",0,0,0,0
"TEMPLATES","celrapst","celra001.clw","Main","","","Frame","SolaceViewVars(SolaceViewVars)","","","","","","",0,0,0,0
"CONTROLS","celrapst","celra001.clw","Main","Window Icon","ICON('Pc.ico')","","","AppFrame","","","","","",0,0,0,0
"PROCEDURE","celrapst","celra002.clw","Update_Jobs_Status","","","PROCEDURE","Window","","","GENERATED(ABC)","Clarion","","",73139,74784,4973422,5360207
"WINDOW","celrapst","celra002.clw","Update_Jobs_Status","WINDOW('Rapid Status Update / Job Allocation'),AT(,,347,148),FONT('Tahoma',8,,),CENTER,GRAY,DOUBLE,MDI"
"CALLTO","celrapst","celra002.clw","Update_Jobs_Status","Browse_Available_Locations","","","","","","","","","",0,0,0,0
"CALLTO","celrapst","celra002.clw","Update_Jobs_Status","PickEngineers","","","","","","","","","",0,0,0,0
"CALLTO","celrapst","celra002.clw","Update_Jobs_Status","PickEngineersSkillLevel","","","","","","","","","",0,0,0,0
"CALLTO","celrapst","celra002.clw","Update_Jobs_Status","Rapid_Status_Update_Report","","","","","","","","","",0,0,0,0
"OTHER","celrapst","celra002.clw","Update_Jobs_Status","","JOBS","","","","","","","","",0,0,0,0
"OTHER","celrapst","celra002.clw","Update_Jobs_Status","","AUDIT","","","","","","","","",0,0,0,0
"OTHER","celrapst","celra002.clw","Update_Jobs_Status","","JOBSTAGE","","","","","","","","",0,0,0,0
"OTHER","celrapst","celra002.clw","Update_Jobs_Status","","USERS","","","","","","","","",0,0,0,0
"OTHER","celrapst","celra002.clw","Update_Jobs_Status","","LOCINTER","","","","","","","","",0,0,0,0
"OTHER","celrapst","celra002.clw","Update_Jobs_Status","","STAHEAD","","","","","","","","",0,0,0,0
"OTHER","celrapst","celra002.clw","Update_Jobs_Status","","AUDSTATS","","","","","","","","",0,0,0,0
"OTHER","celrapst","celra002.clw","Update_Jobs_Status","","DEFAULTS","","","","","","","","",0,0,0,0
"OTHER","celrapst","celra002.clw","Update_Jobs_Status","","DEFAULT2","","","","","","","","",0,0,0,0
"OTHER","celrapst","celra002.clw","Update_Jobs_Status","","JOBSE","","","","","","","","",0,0,0,0
"OTHER","celrapst","celra002.clw","Update_Jobs_Status","","JOBSENG","","","","","","","","",0,0,0,0
"LOCALDATA","celrapst","celra002.clw","Update_Jobs_Status","FilesOpened","","BYTE","","","","","","","",0,0,0,0
"LOCALDATA","celrapst","celra002.clw","Update_Jobs_Status","job_queue_temp","","QUEUE,PRE(jobque)","","","","","","","",0,0,0,0
"LOCALDATA","celrapst","celra002.clw","Update_Jobs_Status","Job_Number","","LONG","","","","","","","",0,0,0,0
"LOCALDATA","celrapst","celra002.clw","Update_Jobs_Status","record_number","","LONG","","","","","","","",0,0,0,0
"LOCALDATA","celrapst","celra002.clw","Update_Jobs_Status","","","END","","","","","","","",0,0,0,0
"LOCALDATA","celrapst","celra002.clw","Update_Jobs_Status","job_number_temp","","REAL","","","","","","","",0,0,0,0
"LOCALDATA","celrapst","celra002.clw","Update_Jobs_Status","engineer_temp","","STRING(3)","","","","","","","",0,0,0,0
"LOCALDATA","celrapst","celra002.clw","Update_Jobs_Status","engineer_name_temp","","STRING(30)","","","","","","","",0,0,0,0
"LOCALDATA","celrapst","celra002.clw","Update_Jobs_Status","old_status_temp","","STRING(30)","","","","","","","",0,0,0,0
"LOCALDATA","celrapst","celra002.clw","Update_Jobs_Status","Location_temp","","STRING(30)","","","","","","","",0,0,0,0
"LOCALDATA","celrapst","celra002.clw","Update_Jobs_Status","update_text_temp","","STRING(100)","","","","","","","",0,0,0,0
"LOCALDATA","celrapst","celra002.clw","Update_Jobs_Status","tmp:status","","STRING(30)","","","","","","","",0,0,0,0
"LOCALDATA","celrapst","celra002.clw","Update_Jobs_Status","LSolCtrlQ","","QUEUE,PRE()","","","","","","","",0,0,0,0
"LOCALDATA","celrapst","celra002.clw","Update_Jobs_Status","SolaceUseRef","","LONG","","","","","","","",0,0,0,0
"LOCALDATA","celrapst","celra002.clw","Update_Jobs_Status","SolaceCtrlName","","STRING(20)","","","","","","","",0,0,0,0
"LOCALDATA","celrapst","celra002.clw","Update_Jobs_Status","","","END","","","","","","","",0,0,0,0
"LOCALDATA","celrapst","celra002.clw","Update_Jobs_Status","tmp:SkillLevel","","LONG","","","","","","","",0,0,0,0
"CONTROLFILES","celrapst","celra002.clw","Update_Jobs_Status","","STATUS","","","","","","","","",0,0,0,0
"CONTROLS","celrapst","celra002.clw","Update_Jobs_Status","?Lookup_Engineer","ICON('list3.ico')","BUTTON","","","","","","","",0,0,0,0
"BUTTON","celrapst","celra002.clw","Update_Jobs_Status","BUTTON,AT(68,52,10,10),USE(?Lookup_Engineer),LEFT,ICON('list3.ico')"
"ENTRY","celrapst","celra002.clw","Update_Jobs_Status","ENTRY(@s30),AT(84,52,124,10),USE(engineer_name_temp),SKIP,FONT(,,,FONT:bold),UPR,READONLY"
"CONTROLS","celrapst","celra002.clw","Update_Jobs_Status","?Lookup_Location","ICON('list3.ico')","BUTTON","","","","","","","",0,0,0,0
"BUTTON","celrapst","celra002.clw","Update_Jobs_Status","BUTTON,AT(68,68,10,10),USE(?Lookup_Location),ICON('list3.ico')"
"ENTRY","celrapst","celra002.clw","Update_Jobs_Status","ENTRY(@s30),AT(84,68,124,10),USE(Location_temp),FONT('Tahoma',8,,FONT:bold),COLOR(COLOR:White),UPR"
"ENTRY","celrapst","celra002.clw","Update_Jobs_Status","ENTRY(@s9),AT(84,92,64,10),USE(job_number_temp),FONT('Tahoma',8,,FONT:bold,CHARSET:ANSI),UPR"
"CONTROLS","celrapst","celra002.clw","Update_Jobs_Status","?ImportJobsButton","ICON('DISK.GIF')","BUTTON('Import Jobs')","","","","","","","",0,0,0,0
"BUTTON","celrapst","celra002.clw","Update_Jobs_Status","BUTTON('Import Jobs'),AT(152,88,56,16),USE(?ImportJobsButton),LEFT,ICON('DISK.GIF')"
"LIST","celrapst","celra002.clw","Update_Jobs_Status","USE(?List1)","FROM(job_queue_temp)","","VSCROLL","","","","","","",0,0,0,0
"CONTROLS","celrapst","celra002.clw","Update_Jobs_Status","?Finish","ICON('thumbs.gif')","BUTTON('&Finish [ESC]')","","","","","","","",0,0,0,0
"BUTTON","celrapst","celra002.clw","Update_Jobs_Status","BUTTON('&Finish [ESC]'),AT(284,124,56,16),USE(?Finish),LEFT,ICON('thumbs.gif')"
"TEMPLATES","celrapst","celra002.clw","Update_Jobs_Status","","","Window","LocalForceColourFields(BryanTemplate)","","","","","","",0,0,0,0
"TEMPLATES","celrapst","celra002.clw","Update_Jobs_Status","","","Window","ClarioNETProcedure(ClarioNET)","","","","","","",0,0,0,0
"TEMPLATES","celrapst","celra002.clw","Update_Jobs_Status","","","Window","LocalVCR(BryanTemplate)","","","","","","",0,0,0,0
"TEMPLATES","celrapst","celra002.clw","Update_Jobs_Status","","","Window","FileDropCombo(ABC)","","","","","","",0,0,0,0
"TEMPLATES","celrapst","celra002.clw","Update_Jobs_Status","","","Window","SolaceViewVars(SolaceViewVars)","","","","","","",0,0,0,0
"TEMPLATES","celrapst","celra002.clw","Update_Jobs_Status","","","Window","DOSFileLookup(ABC)","","","","","","",0,0,0,0
"PROCEDURE","celrapst","celra003.clw","Browse_Jobs","","","PROCEDURE","Window","","Browse the JOBS File","GENERATED(ABC)","Clarion","","",73139,74784,4973422,5360212
"WINDOW","celrapst","celra003.clw","Browse_Jobs","WINDOW('Browse Jobs'),AT(,,463,260),FONT('Tahoma',8,,FONT:regular,CHARSET:ANSI),CENTER,ICON('pc.ico'),HLP('Browse_Jobs'),SYSTEM,GRAY,DOUBLE,MDI"
"LOCALDATA","celrapst","celra003.clw","Browse_Jobs","CurrentTab","","STRING(80)","","","","","","","",0,0,0,0
"LOCALDATA","celrapst","celra003.clw","Browse_Jobs","LSolCtrlQ","","QUEUE,PRE()","","","","","","","",0,0,0,0
"LOCALDATA","celrapst","celra003.clw","Browse_Jobs","SolaceUseRef","","LONG","","","","","","","",0,0,0,0
"LOCALDATA","celrapst","celra003.clw","Browse_Jobs","SolaceCtrlName","","STRING(20)","","","","","","","",0,0,0,0
"LOCALDATA","celrapst","celra003.clw","Browse_Jobs","","","END","","","","","","","",0,0,0,0
"CONTROLFILES","celrapst","celra003.clw","Browse_Jobs","","JOBS","","","","","","","","",0,0,0,0
"LIST","celrapst","celra003.clw","Browse_Jobs","USE(?Browse:1)","FROM(Queue:Browse:1)","","VSCROLL","","MSG('Browsing Records')","","IMM","","",0,0,0,0
"ENTRY","celrapst","celra003.clw","Browse_Jobs","ENTRY(@s8),AT(8,20,64,10),USE(job:Ref_Number),LEFT,FONT('Tahoma',8,,FONT:bold,CHARSET:ANSI),UPR"
"CONTROLS","celrapst","celra003.clw","Browse_Jobs","?Close","ICON('cancel.ico')","BUTTON('Close')","","","","","","","",0,0,0,0
"BUTTON","celrapst","celra003.clw","Browse_Jobs","BUTTON('Close'),AT(384,236,76,20),USE(?Close),LEFT,ICON('cancel.ico')"
"TEMPLATES","celrapst","celra003.clw","Browse_Jobs","","","Window","LocalForceColourFields(BryanTemplate)","","","","","","",0,0,0,0
"TEMPLATES","celrapst","celra003.clw","Browse_Jobs","","","Window","ClarioNETProcedure(ClarioNET)","","","","","","",0,0,0,0
"TEMPLATES","celrapst","celra003.clw","Browse_Jobs","","","Window","LocalVCR(BryanTemplate)","","","","","","",0,0,0,0
"TEMPLATES","celrapst","celra003.clw","Browse_Jobs","","","Window","BrowseBox(ABC)","","","","","","",0,0,0,0
"TEMPLATES","celrapst","celra003.clw","Browse_Jobs","","","Window","CloseButton(ABC)","","","","","","",0,0,0,0
"TEMPLATES","celrapst","celra003.clw","Browse_Jobs","","","Window","WindowResize(ABC)","","","","","","",0,0,0,0
"TEMPLATES","celrapst","celra003.clw","Browse_Jobs","","","Window","SolaceViewVars(SolaceViewVars)","","","","","","",0,0,0,0
"CONTROLS","celrapst","celra003.clw","Browse_Jobs","Window Icon","ICON('pc.ico')","","","QuickWindow","","","","","",0,0,0,0
"PROCEDURE","celrapst","celra004.clw","UpdateJobExchangeStatus","","","PROCEDURE","Window","","","GENERATED(ABC)","Clarion","","",73172,74784,3785191,5360218
"WINDOW","celrapst","celra004.clw","UpdateJobExchangeStatus","WINDOW('Rapid Status Update'),AT(,,355,147),FONT('Tahoma',8,,FONT:regular,CHARSET:ANSI),CENTER,ICON('pc.ico'),GRAY,DOUBLE,MDI"
"CALLTO","celrapst","celra004.clw","UpdateJobExchangeStatus","Browse_Warranty_Charge_Types","","","","","","","","","",0,0,0,0
"CALLTO","celrapst","celra004.clw","UpdateJobExchangeStatus","SelectStatus","","","","","","","","","",0,0,0,0
"OTHER","celrapst","celra004.clw","UpdateJobExchangeStatus","","STATUS","","","","","","","","",0,0,0,0
"OTHER","celrapst","celra004.clw","UpdateJobExchangeStatus","","JOBS","","","","","","","","",0,0,0,0
"OTHER","celrapst","celra004.clw","UpdateJobExchangeStatus","","AUDIT","","","","","","","","",0,0,0,0
"OTHER","celrapst","celra004.clw","UpdateJobExchangeStatus","","CHARTYPE","","","","","","","","",0,0,0,0
"OTHER","celrapst","celra004.clw","UpdateJobExchangeStatus","","JOBSTAGE","","","","","","","","",0,0,0,0
"OTHER","celrapst","celra004.clw","UpdateJobExchangeStatus","","STAHEAD","","","","","","","","",0,0,0,0
"LOCALDATA","celrapst","celra004.clw","UpdateJobExchangeStatus","LSolCtrlQ","","QUEUE,PRE()","","","","","","","",0,0,0,0
"LOCALDATA","celrapst","celra004.clw","UpdateJobExchangeStatus","SolaceUseRef","","LONG","","","","","","","",0,0,0,0
"LOCALDATA","celrapst","celra004.clw","UpdateJobExchangeStatus","SolaceCtrlName","","STRING(20)","","","","","","","",0,0,0,0
"LOCALDATA","celrapst","celra004.clw","UpdateJobExchangeStatus","","","END","","","","","","","",0,0,0,0
"LOCALDATA","celrapst","celra004.clw","UpdateJobExchangeStatus","tmp:status","","STRING(30)","","","","","","","",0,0,0,0
"LOCALDATA","celrapst","celra004.clw","UpdateJobExchangeStatus","tmp:jobnumber","","LONG","","","","","","","",0,0,0,0
"LOCALDATA","celrapst","celra004.clw","UpdateJobExchangeStatus","JobNumberQueue","","QUEUE,PRE(QUE)","","","","","","","",0,0,0,0
"LOCALDATA","celrapst","celra004.clw","UpdateJobExchangeStatus","JobNumber","","LONG","","","","","","","",0,0,0,0
"LOCALDATA","celrapst","celra004.clw","UpdateJobExchangeStatus","RecordNumber","","LONG","","","","","","","",0,0,0,0
"LOCALDATA","celrapst","celra004.clw","UpdateJobExchangeStatus","","","END","","","","","","","",0,0,0,0
"LOCALDATA","celrapst","celra004.clw","UpdateJobExchangeStatus","Update_Text_Temp","","STRING(100)","","","","","","","",0,0,0,0
"LOCALDATA","celrapst","celra004.clw","UpdateJobExchangeStatus","Proceed","","BYTE","","","","","","","",0,0,0,0
"LOCALDATA","celrapst","celra004.clw","UpdateJobExchangeStatus","Change_Charges","","BYTE","","","","","","","",0,0,0,0
"LOCALDATA","celrapst","celra004.clw","UpdateJobExchangeStatus","tmp:Charge_Type","","STRING(30)","","","","","","","",0,0,0,0
"LOCALDATA","celrapst","celra004.clw","UpdateJobExchangeStatus","tmp:Warranty_Type","","STRING(30)","","","","","","","",0,0,0,0
"ENTRY","celrapst","celra004.clw","UpdateJobExchangeStatus","ENTRY(@s30),AT(84,28,124,10),USE(tmp:status),LEFT,FONT('Tahoma',8,,FONT:bold,CHARSET:ANSI),MSG('Exchange Status'),TIP('Exchange Status'),UPR"
"CONTROLS","celrapst","celra004.clw","UpdateJobExchangeStatus","?LookupExchangeStatus","ICON('List3.ico')","BUTTON","","","","","","","",0,0,0,0
"BUTTON","celrapst","celra004.clw","UpdateJobExchangeStatus","BUTTON,AT(212,28,10,10),USE(?LookupExchangeStatus),SKIP,ICON('List3.ico')"
"CHECK","celrapst","celra004.clw","UpdateJobExchangeStatus","CHECK,AT(83,44),USE(Change_Charges),VALUE('1','0')"
"ENTRY","celrapst","celra004.clw","UpdateJobExchangeStatus","ENTRY(@s30),AT(84,60,124,10),USE(tmp:Charge_Type),DISABLE,LEFT,FONT('Tahoma',8,,FONT:bold),COLOR(COLOR:White),UPR"
"CONTROLS","celrapst","celra004.clw","UpdateJobExchangeStatus","?CallLookup","ICON('List3.ico')","BUTTON","","","","","","","",0,0,0,0
"BUTTON","celrapst","celra004.clw","UpdateJobExchangeStatus","BUTTON,AT(212,60,10,10),USE(?CallLookup),SKIP,DISABLE,ICON('List3.ico')"
"ENTRY","celrapst","celra004.clw","UpdateJobExchangeStatus","ENTRY(@s30),AT(84,76,124,10),USE(tmp:Warranty_Type),DISABLE,LEFT,FONT('Tahoma',8,,FONT:bold),COLOR(COLOR:White),UPR"
"CONTROLS","celrapst","celra004.clw","UpdateJobExchangeStatus","?CallLookup:2","ICON('List3.ico')","BUTTON","","","","","","","",0,0,0,0
"BUTTON","celrapst","celra004.clw","UpdateJobExchangeStatus","BUTTON,AT(212,76,10,10),USE(?CallLookup:2),SKIP,DISABLE,ICON('List3.ico')"
"ENTRY","celrapst","celra004.clw","UpdateJobExchangeStatus","ENTRY(@s8),AT(84,100,64,10),USE(tmp:jobnumber),FONT('Tahoma',8,,FONT:bold,CHARSET:ANSI),MSG('Job Number'),TIP('Job Number'),UPR"
"LIST","celrapst","celra004.clw","UpdateJobExchangeStatus","USE(?List1)","FROM(JobNumberQueue)","","VSCROLL","","","","","","",0,0,0,0
"CONTROLS","celrapst","celra004.clw","UpdateJobExchangeStatus","?Close","ICON('thumbs.gif')","BUTTON('&Finish')","","","","","","","",0,0,0,0
"BUTTON","celrapst","celra004.clw","UpdateJobExchangeStatus","BUTTON('&Finish'),AT(292,124,56,16),USE(?Close),LEFT,ICON('thumbs.gif')"
"TEMPLATES","celrapst","celra004.clw","UpdateJobExchangeStatus","","","Window","LocalForceColourFields(BryanTemplate)","","","","","","",0,0,0,0
"TEMPLATES","celrapst","celra004.clw","UpdateJobExchangeStatus","","","Window","ClarioNETProcedure(ClarioNET)","","","","","","",0,0,0,0
"TEMPLATES","celrapst","celra004.clw","UpdateJobExchangeStatus","","","Window","SolaceViewVars(SolaceViewVars)","","","","","","",0,0,0,0
"TEMPLATES","celrapst","celra004.clw","UpdateJobExchangeStatus","","","Window","LocalVCR(BryanTemplate)","","","","","","",0,0,0,0
"TEMPLATES","celrapst","celra004.clw","UpdateJobExchangeStatus","","","Window","LookupButtonTrigger(ABCFree)","","","","","","",0,0,0,0
"TEMPLATES","celrapst","celra004.clw","UpdateJobExchangeStatus","","","Window","CloseButton(ABC)","","","","","","",0,0,0,0
"CONTROLS","celrapst","celra004.clw","UpdateJobExchangeStatus","Window Icon","ICON('pc.ico')","","","window","","","","","",0,0,0,0
"PROCEDURE","celrapst","sbc01app.lib","Insert_Password","","","PROCEDURE","External","","","ExternalDLL(ABC)","External","","",73139,74784,4973422,5360207
"LOCALDATA","celrapst","sbc01app.lib","Insert_Password","LSolCtrlQ","","QUEUE,PRE()","","","","","","","",0,0,0,0
"LOCALDATA","celrapst","sbc01app.lib","Insert_Password","SolaceUseRef","","LONG","","","","","","","",0,0,0,0
"LOCALDATA","celrapst","sbc01app.lib","Insert_Password","SolaceCtrlName","","STRING(20)","","","","","","","",0,0,0,0
"LOCALDATA","celrapst","sbc01app.lib","Insert_Password","","","END","","","","","","","",0,0,0,0
"TEMPLATES","celrapst","sbc01app.lib","Insert_Password","","","External","LocalForceColourFields(BryanTemplate)","","","","","","",0,0,0,0
"TEMPLATES","celrapst","sbc01app.lib","Insert_Password","","","External","ClarioNETProcedure(ClarioNET)","","","","","","",0,0,0,0
"TEMPLATES","celrapst","sbc01app.lib","Insert_Password","","","External","LocalVCR(BryanTemplate)","","","","","","",0,0,0,0
"TEMPLATES","celrapst","sbc01app.lib","Insert_Password","","","External","SolaceViewVars(SolaceViewVars)","","","","","","",0,0,0,0
"PROCEDURE","celrapst","sbe01app.lib","Browse_Users_Job_Assignment","","","PROCEDURE","External","","","ExternalDLL(ABC)","External","","",73139,74784,4973422,5360218
"LOCALDATA","celrapst","sbe01app.lib","Browse_Users_Job_Assignment","LSolCtrlQ","","QUEUE,PRE()","","","","","","","",0,0,0,0
"LOCALDATA","celrapst","sbe01app.lib","Browse_Users_Job_Assignment","SolaceUseRef","","LONG","","","","","","","",0,0,0,0
"LOCALDATA","celrapst","sbe01app.lib","Browse_Users_Job_Assignment","SolaceCtrlName","","STRING(20)","","","","","","","",0,0,0,0
"LOCALDATA","celrapst","sbe01app.lib","Browse_Users_Job_Assignment","","","END","","","","","","","",0,0,0,0
"TEMPLATES","celrapst","sbe01app.lib","Browse_Users_Job_Assignment","","","External","LocalForceColourFields(BryanTemplate)","","","","","","",0,0,0,0
"TEMPLATES","celrapst","sbe01app.lib","Browse_Users_Job_Assignment","","","External","ClarioNETProcedure(ClarioNET)","","","","","","",0,0,0,0
"TEMPLATES","celrapst","sbe01app.lib","Browse_Users_Job_Assignment","","","External","LocalVCR(BryanTemplate)","","","","","","",0,0,0,0
"TEMPLATES","celrapst","sbe01app.lib","Browse_Users_Job_Assignment","","","External","SolaceViewVars(SolaceViewVars)","","","","","","",0,0,0,0
"PROCEDURE","celrapst","sbe01app.lib","Browse_Available_Locations","","","PROCEDURE","External","","","ExternalDLL(ABC)","External","","",73139,74784,4973422,5360218
"LOCALDATA","celrapst","sbe01app.lib","Browse_Available_Locations","LSolCtrlQ","","QUEUE,PRE()","","","","","","","",0,0,0,0
"LOCALDATA","celrapst","sbe01app.lib","Browse_Available_Locations","SolaceUseRef","","LONG","","","","","","","",0,0,0,0
"LOCALDATA","celrapst","sbe01app.lib","Browse_Available_Locations","SolaceCtrlName","","STRING(20)","","","","","","","",0,0,0,0
"LOCALDATA","celrapst","sbe01app.lib","Browse_Available_Locations","","","END","","","","","","","",0,0,0,0
"TEMPLATES","celrapst","sbe01app.lib","Browse_Available_Locations","","","External","LocalForceColourFields(BryanTemplate)","","","","","","",0,0,0,0
"TEMPLATES","celrapst","sbe01app.lib","Browse_Available_Locations","","","External","ClarioNETProcedure(ClarioNET)","","","","","","",0,0,0,0
"TEMPLATES","celrapst","sbe01app.lib","Browse_Available_Locations","","","External","LocalVCR(BryanTemplate)","","","","","","",0,0,0,0
"TEMPLATES","celrapst","sbe01app.lib","Browse_Available_Locations","","","External","SolaceViewVars(SolaceViewVars)","","","","","","",0,0,0,0
"PROCEDURE","celrapst","sbe01app.lib","SelectStatus","","","PROCEDURE","External","","","ExternalDLL(ABC)","External","","",73172,74784,4371163,5360218
"LOCALDATA","celrapst","sbe01app.lib","SelectStatus","LSolCtrlQ","","QUEUE,PRE()","","","","","","","",0,0,0,0
"LOCALDATA","celrapst","sbe01app.lib","SelectStatus","SolaceUseRef","","LONG","","","","","","","",0,0,0,0
"LOCALDATA","celrapst","sbe01app.lib","SelectStatus","SolaceCtrlName","","STRING(20)","","","","","","","",0,0,0,0
"LOCALDATA","celrapst","sbe01app.lib","SelectStatus","","","END","","","","","","","",0,0,0,0
"TEMPLATES","celrapst","sbe01app.lib","SelectStatus","","","External","LocalForceColourFields(BryanTemplate)","","","","","","",0,0,0,0
"TEMPLATES","celrapst","sbe01app.lib","SelectStatus","","","External","ClarioNETProcedure(ClarioNET)","","","","","","",0,0,0,0
"TEMPLATES","celrapst","sbe01app.lib","SelectStatus","","","External","SolaceViewVars(SolaceViewVars)","","","","","","",0,0,0,0
"TEMPLATES","celrapst","sbe01app.lib","SelectStatus","","","External","LocalVCR(BryanTemplate)","","","","","","",0,0,0,0
"PROCEDURE","celrapst","sbd03app.lib","Rapid_Status_Update_Report","","","PROCEDURE","External","","","ExternalDLL(ABC)","External","","",73139,74784,4973427,5360218
"LOCALDATA","celrapst","sbd03app.lib","Rapid_Status_Update_Report","LSolCtrlQ","","QUEUE,PRE()","","","","","","","",0,0,0,0
"LOCALDATA","celrapst","sbd03app.lib","Rapid_Status_Update_Report","SolaceUseRef","","LONG","","","","","","","",0,0,0,0
"LOCALDATA","celrapst","sbd03app.lib","Rapid_Status_Update_Report","SolaceCtrlName","","STRING(20)","","","","","","","",0,0,0,0
"LOCALDATA","celrapst","sbd03app.lib","Rapid_Status_Update_Report","","","END","","","","","","","",0,0,0,0
"TEMPLATES","celrapst","sbd03app.lib","Rapid_Status_Update_Report","","","External","LocalForceColourFields(BryanTemplate)","","","","","","",0,0,0,0
"TEMPLATES","celrapst","sbd03app.lib","Rapid_Status_Update_Report","","","External","ClarioNETProcedure(ClarioNET)","","","","","","",0,0,0,0
"TEMPLATES","celrapst","sbd03app.lib","Rapid_Status_Update_Report","","","External","LocalVCR(BryanTemplate)","","","","","","",0,0,0,0
"TEMPLATES","celrapst","sbd03app.lib","Rapid_Status_Update_Report","","","External","SolaceViewVars(SolaceViewVars)","","","","","","",0,0,0,0
"PROCEDURE","celrapst","sba01app.lib","SecurityCheck","","","FUNCTION","External","(String),Byte","","ExternalDLL(ABC)","External","","",73139,74784,4973433,5360218
"LOCALDATA","celrapst","sba01app.lib","SecurityCheck","LSolCtrlQ","","QUEUE,PRE()","","","","","","","",0,0,0,0
"LOCALDATA","celrapst","sba01app.lib","SecurityCheck","SolaceUseRef","","LONG","","","","","","","",0,0,0,0
"LOCALDATA","celrapst","sba01app.lib","SecurityCheck","SolaceCtrlName","","STRING(20)","","","","","","","",0,0,0,0
"LOCALDATA","celrapst","sba01app.lib","SecurityCheck","","","END","","","","","","","",0,0,0,0
"TEMPLATES","celrapst","sba01app.lib","SecurityCheck","","","External","LocalForceColourFields(BryanTemplate)","","","","","","",0,0,0,0
"TEMPLATES","celrapst","sba01app.lib","SecurityCheck","","","External","ClarioNETProcedure(ClarioNET)","","","","","","",0,0,0,0
"TEMPLATES","celrapst","sba01app.lib","SecurityCheck","","","External","LocalVCR(BryanTemplate)","","","","","","",0,0,0,0
"TEMPLATES","celrapst","sba01app.lib","SecurityCheck","","","External","SolaceViewVars(SolaceViewVars)","","","","","","",0,0,0,0
"PROCEDURE","celrapst","sba01app.lib","CheckPricing","","","FUNCTION","External","(String),Byte","","ExternalDLL(ABC)","External","","",73285,74784,4810809,5360218
"LOCALDATA","celrapst","sba01app.lib","CheckPricing","LSolCtrlQ","","QUEUE,PRE()","","","","","","","",0,0,0,0
"LOCALDATA","celrapst","sba01app.lib","CheckPricing","SolaceUseRef","","LONG","","","","","","","",0,0,0,0
"LOCALDATA","celrapst","sba01app.lib","CheckPricing","SolaceCtrlName","","STRING(20)","","","","","","","",0,0,0,0
"LOCALDATA","celrapst","sba01app.lib","CheckPricing","","","END","","","","","","","",0,0,0,0
"TEMPLATES","celrapst","sba01app.lib","CheckPricing","","","External","LocalForceColourFields(BryanTemplate)","","","","","","",0,0,0,0
"TEMPLATES","celrapst","sba01app.lib","CheckPricing","","","External","ClarioNETProcedure(ClarioNET)","","","","","","",0,0,0,0
"TEMPLATES","celrapst","sba01app.lib","CheckPricing","","","External","SolaceViewVars(SolaceViewVars)","","","","","","",0,0,0,0
"TEMPLATES","celrapst","sba01app.lib","CheckPricing","","","External","LocalVCR(BryanTemplate)","","","","","","",0,0,0,0
"PROCEDURE","celrapst","sba01app.lib","GetStatus","","","PROCEDURE","External","(Long,Byte,String)","","ExternalDLL(ABC)","External","","",73294,74784,5346025,5360218
"LOCALDATA","celrapst","sba01app.lib","GetStatus","LSolCtrlQ","","QUEUE,PRE()","","","","","","","",0,0,0,0
"LOCALDATA","celrapst","sba01app.lib","GetStatus","SolaceUseRef","","LONG","","","","","","","",0,0,0,0
"LOCALDATA","celrapst","sba01app.lib","GetStatus","SolaceCtrlName","","STRING(20)","","","","","","","",0,0,0,0
"LOCALDATA","celrapst","sba01app.lib","GetStatus","","","END","","","","","","","",0,0,0,0
"TEMPLATES","celrapst","sba01app.lib","GetStatus","","","External","LocalForceColourFields(BryanTemplate)","","","","","","",0,0,0,0
"TEMPLATES","celrapst","sba01app.lib","GetStatus","","","External","ClarioNETProcedure(ClarioNET)","","","","","","",0,0,0,0
"TEMPLATES","celrapst","sba01app.lib","GetStatus","","","External","SolaceViewVars(SolaceViewVars)","","","","","","",0,0,0,0
"TEMPLATES","celrapst","sba01app.lib","GetStatus","","","External","LocalVCR(BryanTemplate)","","","","","","",0,0,0,0
"PROCEDURE","celrapst","sbf01app.lib","Browse_Warranty_Charge_Types","","","PROCEDURE","External","","","ExternalDLL(ABC)","External","","",73285,74784,4592255,5360218
"LOCALDATA","celrapst","sbf01app.lib","Browse_Warranty_Charge_Types","LSolCtrlQ","","QUEUE,PRE()","","","","","","","",0,0,0,0
"LOCALDATA","celrapst","sbf01app.lib","Browse_Warranty_Charge_Types","SolaceUseRef","","LONG","","","","","","","",0,0,0,0
"LOCALDATA","celrapst","sbf01app.lib","Browse_Warranty_Charge_Types","SolaceCtrlName","","STRING(20)","","","","","","","",0,0,0,0
"LOCALDATA","celrapst","sbf01app.lib","Browse_Warranty_Charge_Types","","","END","","","","","","","",0,0,0,0
"TEMPLATES","celrapst","sbf01app.lib","Browse_Warranty_Charge_Types","","","External","LocalForceColourFields(BryanTemplate)","","","","","","",0,0,0,0
"TEMPLATES","celrapst","sbf01app.lib","Browse_Warranty_Charge_Types","","","External","ClarioNETProcedure(ClarioNET)","","","","","","",0,0,0,0
"TEMPLATES","celrapst","sbf01app.lib","Browse_Warranty_Charge_Types","","","External","SolaceViewVars(SolaceViewVars)","","","","","","",0,0,0,0
"TEMPLATES","celrapst","sbf01app.lib","Browse_Warranty_Charge_Types","","","External","LocalVCR(BryanTemplate)","","","","","","",0,0,0,0
"PROCEDURE","celrapst","sba03app.lib","PickEngineers","","","PROCEDURE","External","","","ExternalDLL(ABC)","External","","",73420,74784,5724594,5360218
"LOCALDATA","celrapst","sba03app.lib","PickEngineers","LSolCtrlQ","","QUEUE,PRE()","","","","","","","",0,0,0,0
"LOCALDATA","celrapst","sba03app.lib","PickEngineers","SolaceUseRef","","LONG","","","","","","","",0,0,0,0
"LOCALDATA","celrapst","sba03app.lib","PickEngineers","SolaceCtrlName","","STRING(20)","","","","","","","",0,0,0,0
"LOCALDATA","celrapst","sba03app.lib","PickEngineers","","","END","","","","","","","",0,0,0,0
"TEMPLATES","celrapst","sba03app.lib","PickEngineers","","","External","LocalForceColourFields(BryanTemplate)","","","","","","",0,0,0,0
"TEMPLATES","celrapst","sba03app.lib","PickEngineers","","","External","ClarioNETProcedure(ClarioNET)","","","","","","",0,0,0,0
"TEMPLATES","celrapst","sba03app.lib","PickEngineers","","","External","SolaceViewVars(SolaceViewVars)","","","","","","",0,0,0,0
"TEMPLATES","celrapst","sba03app.lib","PickEngineers","","","External","LocalVCR(BryanTemplate)","","","","","","",0,0,0,0
"PROCEDURE","celrapst","sba03app.lib","PickEngineersSkillLevel","","","PROCEDURE","External","(Long)","","ExternalDLL(ABC)","External","","",73420,74784,5726214,5360218
"LOCALDATA","celrapst","sba03app.lib","PickEngineersSkillLevel","LSolCtrlQ","","QUEUE,PRE()","","","","","","","",0,0,0,0
"LOCALDATA","celrapst","sba03app.lib","PickEngineersSkillLevel","SolaceUseRef","","LONG","","","","","","","",0,0,0,0
"LOCALDATA","celrapst","sba03app.lib","PickEngineersSkillLevel","SolaceCtrlName","","STRING(20)","","","","","","","",0,0,0,0
"LOCALDATA","celrapst","sba03app.lib","PickEngineersSkillLevel","","","END","","","","","","","",0,0,0,0
"TEMPLATES","celrapst","sba03app.lib","PickEngineersSkillLevel","","","External","LocalForceColourFields(BryanTemplate)","","","","","","",0,0,0,0
"TEMPLATES","celrapst","sba03app.lib","PickEngineersSkillLevel","","","External","ClarioNETProcedure(ClarioNET)","","","","","","",0,0,0,0
"TEMPLATES","celrapst","sba03app.lib","PickEngineersSkillLevel","","","External","SolaceViewVars(SolaceViewVars)","","","","","","",0,0,0,0
"TEMPLATES","celrapst","sba03app.lib","PickEngineersSkillLevel","","","External","LocalVCR(BryanTemplate)","","","","","","",0,0,0,0
"TEMPLATES","celrapst","celrapst.CLW","Global Extension Template","","","GlobalExtTemplate","ClarioNET(ClarioNET)","","","","","","",0,0,0,0
"TEMPLATES","celrapst","celrapst.CLW","Global Extension Template","","","GlobalExtTemplate","AppRefAutoExport(App_Ref)","","","","","","",0,0,0,0
"TEMPLATES","celrapst","celrapst.CLW","Global Extension Template","","","GlobalExtTemplate","MessageEx(MessageExABC)","","","","","","",0,0,0,0
"TEMPLATES","celrapst","celrapst.CLW","Global Extension Template","","","GlobalExtTemplate","Activate_NetTalk(NetTalk)","","","","","","",0,0,0,0
"TEMPLATES","celrapst","celrapst.CLW","Global Extension Template","","","GlobalExtTemplate","AddVCR(BryanTemplate)","","","","","","",0,0,0,0
"TEMPLATES","celrapst","celrapst.CLW","Global Extension Template","","","GlobalExtTemplate","SolaceViewVarGlobal(SolaceViewVars)","","","","","","",0,0,0,0
"TEMPLATES","celrapst","celrapst.CLW","Global Extension Template","","","GlobalExtTemplate","AddStartScreen(BryanTemplate)","","","","","","",0,0,0,0
"TEMPLATES","celrapst","celrapst.CLW","Global Extension Template","","","GlobalExtTemplate","OneInstance(BryanTemplate)","","","","","","",0,0,0,0
"TEMPLATES","celrapst","celrapst.CLW","Global Extension Template","","","GlobalExtTemplate","ForceColourFields(BryanTemplate)","","","","","","",0,0,0,0
"GLOBAL","celrapst","GlobalData","glo:ErrorText","STRING(1000)","","","","","","","","","",0,0,0,0
"GLOBAL","celrapst","GlobalData","glo:owner","STRING(20)","","","","","","","","","",0,0,0,0
"GLOBAL","celrapst","GlobalData","glo:DateModify","DATE","","","","","","","","","",0,0,0,0
"GLOBAL","celrapst","GlobalData","glo:TimeModify","TIME","","","","","","","","","",0,0,0,0
"GLOBAL","celrapst","GlobalData","glo:Notes_Global","STRING(1000)","","","","","","","","","",0,0,0,0
"GLOBAL","celrapst","GlobalData","glo:Q_Invoice","QUEUE,PRE(glo)","","","","","","","","","",0,0,0,0
"GLOBAL","celrapst","GlobalData","Invoice_Number","REAL","","","","","","","","","",0,0,0,0
"GLOBAL","celrapst","GlobalData","Account_Number","STRING(15)","","","","","","","","","",0,0,0,0
"GLOBAL","celrapst","GlobalData","","END","","","","","","","","","",0,0,0,0
"GLOBAL","celrapst","GlobalData","glo:afe_path","STRING(255)","","","","","","","","","",0,0,0,0
"GLOBAL","celrapst","GlobalData","glo:Password","STRING(20)","","","","","","","","","",0,0,0,0
"GLOBAL","celrapst","GlobalData","glo:PassAccount","STRING(30)","","","","","","","","","",0,0,0,0
"GLOBAL","celrapst","GlobalData","glo:Preview","STRING('True')","","","","","","","","","",0,0,0,0
"GLOBAL","celrapst","GlobalData","glo:q_JobNumber","QUEUE,PRE(GLO)","","","","","","","","","",0,0,0,0
"GLOBAL","celrapst","GlobalData","Job_Number_Pointer","REAL","","","","","","","","","",0,0,0,0
"GLOBAL","celrapst","GlobalData","","END","","","","","","","","","",0,0,0,0
"GLOBAL","celrapst","GlobalData","glo:Q_PartsOrder","QUEUE,PRE(GLO)","","","","","","","","","",0,0,0,0
"GLOBAL","celrapst","GlobalData","Q_Order_Number","REAL","","","","","","","","","",0,0,0,0
"GLOBAL","celrapst","GlobalData","Q_Part_Number","STRING(30)","","","","","","","","","",0,0,0,0
"GLOBAL","celrapst","GlobalData","Q_Description","STRING(30)","","","","","","","","","",0,0,0,0
"GLOBAL","celrapst","GlobalData","Q_Supplier","STRING(30)","","","","","","","","","",0,0,0,0
"GLOBAL","celrapst","GlobalData","Q_Quantity","LONG","","","","","","","","","",0,0,0,0
"GLOBAL","celrapst","GlobalData","Q_Purchase_Cost","REAL","","","","","","","","","",0,0,0,0
"GLOBAL","celrapst","GlobalData","Q_Sale_Cost","REAL","","","","","","","","","",0,0,0,0
"GLOBAL","celrapst","GlobalData","","END","","","","","","","","","",0,0,0,0
"GLOBAL","celrapst","GlobalData","glo:G_Select1","GROUP,PRE(GLO)","","","","","","","","","",0,0,0,0
"GLOBAL","celrapst","GlobalData","Select1","STRING(30)","","","","","","","","","",0,0,0,0
"GLOBAL","celrapst","GlobalData","Select2","STRING(40)","","","","","","","","","",0,0,0,0
"GLOBAL","celrapst","GlobalData","Select3","STRING(40)","","","","","","","","","",0,0,0,0
"GLOBAL","celrapst","GlobalData","Select4","STRING(40)","","","","","","","","","",0,0,0,0
"GLOBAL","celrapst","GlobalData","Select5","STRING(40)","","","","","","","","","",0,0,0,0
"GLOBAL","celrapst","GlobalData","Select6","STRING(40)","","","","","","","","","",0,0,0,0
"GLOBAL","celrapst","GlobalData","Select7","STRING(40)","","","","","","","","","",0,0,0,0
"GLOBAL","celrapst","GlobalData","Select8","STRING(40)","","","","","","","","","",0,0,0,0
"GLOBAL","celrapst","GlobalData","Select9","STRING(40)","","","","","","","","","",0,0,0,0
"GLOBAL","celrapst","GlobalData","Select10","STRING(40)","","","","","","","","","",0,0,0,0
"GLOBAL","celrapst","GlobalData","Select11","STRING(40)","","","","","","","","","",0,0,0,0
"GLOBAL","celrapst","GlobalData","Select12","STRING(40)","","","","","","","","","",0,0,0,0
"GLOBAL","celrapst","GlobalData","Select13","STRING(40)","","","","","","","","","",0,0,0,0
"GLOBAL","celrapst","GlobalData","Select14","STRING(40)","","","","","","","","","",0,0,0,0
"GLOBAL","celrapst","GlobalData","Select15","STRING(40)","","","","","","","","","",0,0,0,0
"GLOBAL","celrapst","GlobalData","Select16","STRING(40)","","","","","","","","","",0,0,0,0
"GLOBAL","celrapst","GlobalData","Select17","STRING(40)","","","","","","","","","",0,0,0,0
"GLOBAL","celrapst","GlobalData","Select18","STRING(40)","","","","","","","","","",0,0,0,0
"GLOBAL","celrapst","GlobalData","Select19","STRING(40)","","","","","","","","","",0,0,0,0
"GLOBAL","celrapst","GlobalData","Select20","STRING(40)","","","","","","","","","",0,0,0,0
"GLOBAL","celrapst","GlobalData","Select21","STRING(40)","","","","","","","","","",0,0,0,0
"GLOBAL","celrapst","GlobalData","Select22","STRING(40)","","","","","","","","","",0,0,0,0
"GLOBAL","celrapst","GlobalData","Select23","STRING(40)","","","","","","","","","",0,0,0,0
"GLOBAL","celrapst","GlobalData","Select24","STRING(40)","","","","","","","","","",0,0,0,0
"GLOBAL","celrapst","GlobalData","Select25","STRING(40)","","","","","","","","","",0,0,0,0
"GLOBAL","celrapst","GlobalData","Select26","STRING(40)","","","","","","","","","",0,0,0,0
"GLOBAL","celrapst","GlobalData","Select27","STRING(40)","","","","","","","","","",0,0,0,0
"GLOBAL","celrapst","GlobalData","Select28","STRING(40)","","","","","","","","","",0,0,0,0
"GLOBAL","celrapst","GlobalData","Select29","STRING(40)","","","","","","","","","",0,0,0,0
"GLOBAL","celrapst","GlobalData","Select30","STRING(40)","","","","","","","","","",0,0,0,0
"GLOBAL","celrapst","GlobalData","Select31","STRING(40)","","","","","","","","","",0,0,0,0
"GLOBAL","celrapst","GlobalData","Select32","STRING(40)","","","","","","","","","",0,0,0,0
"GLOBAL","celrapst","GlobalData","Select33","STRING(40)","","","","","","","","","",0,0,0,0
"GLOBAL","celrapst","GlobalData","Select34","STRING(40)","","","","","","","","","",0,0,0,0
"GLOBAL","celrapst","GlobalData","Select35","STRING(40)","","","","","","","","","",0,0,0,0
"GLOBAL","celrapst","GlobalData","Select36","STRING(40)","","","","","","","","","",0,0,0,0
"GLOBAL","celrapst","GlobalData","Select37","STRING(40)","","","","","","","","","",0,0,0,0
"GLOBAL","celrapst","GlobalData","Select38","STRING(40)","","","","","","","","","",0,0,0,0
"GLOBAL","celrapst","GlobalData","Select39","STRING(40)","","","","","","","","","",0,0,0,0
"GLOBAL","celrapst","GlobalData","Select40","STRING(40)","","","","","","","","","",0,0,0,0
"GLOBAL","celrapst","GlobalData","Select41","STRING(40)","","","","","","","","","",0,0,0,0
"GLOBAL","celrapst","GlobalData","Select42","STRING(40)","","","","","","","","","",0,0,0,0
"GLOBAL","celrapst","GlobalData","Select43","STRING(40)","","","","","","","","","",0,0,0,0
"GLOBAL","celrapst","GlobalData","Select44","STRING(40)","","","","","","","","","",0,0,0,0
"GLOBAL","celrapst","GlobalData","Select45","STRING(40)","","","","","","","","","",0,0,0,0
"GLOBAL","celrapst","GlobalData","Select46","STRING(40)","","","","","","","","","",0,0,0,0
"GLOBAL","celrapst","GlobalData","Select47","STRING(40)","","","","","","","","","",0,0,0,0
"GLOBAL","celrapst","GlobalData","Select48","STRING(40)","","","","","","","","","",0,0,0,0
"GLOBAL","celrapst","GlobalData","Select49","STRING(40)","","","","","","","","","",0,0,0,0
"GLOBAL","celrapst","GlobalData","Select50","STRING(40)","","","","","","","","","",0,0,0,0
"GLOBAL","celrapst","GlobalData","","END","","","","","","","","","",0,0,0,0
"GLOBAL","celrapst","GlobalData","glo:q_RepairType","QUEUE,PRE(GLO)","","","","","","","","","",0,0,0,0
"GLOBAL","celrapst","GlobalData","Repair_Type_Pointer","STRING(30)","","","","","","","","","",0,0,0,0
"GLOBAL","celrapst","GlobalData","","END","","","","","","","","","",0,0,0,0
"GLOBAL","celrapst","GlobalData","glo:Q_UnitType","QUEUE,PRE(GLO)","","","","","","","","","",0,0,0,0
"GLOBAL","celrapst","GlobalData","Unit_Type_Pointer","STRING(30)","","","","","","","","","",0,0,0,0
"GLOBAL","celrapst","GlobalData","","END","","","","","","","","","",0,0,0,0
"GLOBAL","celrapst","GlobalData","glo:Q_ChargeType","QUEUE,PRE(GLO)","","","","","","","","","",0,0,0,0
"GLOBAL","celrapst","GlobalData","Charge_Type_Pointer","STRING(30)","","","","","","","","","",0,0,0,0
"GLOBAL","celrapst","GlobalData","","END","","","","","","","","","",0,0,0,0
"GLOBAL","celrapst","GlobalData","glo:Q_ModelNumber","QUEUE,PRE(glo)","","","","","","","","","",0,0,0,0
"GLOBAL","celrapst","GlobalData","Model_Number_Pointer","STRING(30)","","","","","","","","","",0,0,0,0
"GLOBAL","celrapst","GlobalData","","END","","","","","","","","","",0,0,0,0
"GLOBAL","celrapst","GlobalData","glo:Q_Accessory","QUEUE,PRE(GLO)","","","","","","","","","",0,0,0,0
"GLOBAL","celrapst","GlobalData","Accessory_Pointer","STRING(30)","","","","","","","","","",0,0,0,0
"GLOBAL","celrapst","GlobalData","","END","","","","","","","","","",0,0,0,0
"GLOBAL","celrapst","GlobalData","glo:Q_AccessLevel","QUEUE,PRE(GLO)","","","","","","","","","",0,0,0,0
"GLOBAL","celrapst","GlobalData","Access_Level_Pointer","STRING(30)","","","","","","","","","",0,0,0,0
"GLOBAL","celrapst","GlobalData","","END","","","","","","","","","",0,0,0,0
"GLOBAL","celrapst","GlobalData","glo:Q_AccessAreas","QUEUE,PRE(GLO)","","","","","","","","","",0,0,0,0
"GLOBAL","celrapst","GlobalData","Access_Areas_Pointer","STRING(30)","","","","","","","","","",0,0,0,0
"GLOBAL","celrapst","GlobalData","","END","","","","","","","","","",0,0,0,0
"GLOBAL","celrapst","GlobalData","glo:Q_Notes","QUEUE,PRE(GLO)","","","","","","","","","",0,0,0,0
"GLOBAL","celrapst","GlobalData","notes_pointer","STRING(80)","","","","","","","","","",0,0,0,0
"GLOBAL","celrapst","GlobalData","","END","","","","","","","","","",0,0,0,0
"GLOBAL","celrapst","GlobalData","glo:EnableFlag","STRING(3)","","","","","","","","","",0,0,0,0
"GLOBAL","celrapst","GlobalData","glo:TimeLogged","TIME","","","","","","","","","",0,0,0,0
"GLOBAL","celrapst","GlobalData","glo:GLO:ApplicationName","STRING(8)","","","","","","","","","",0,0,0,0
"GLOBAL","celrapst","GlobalData","glo:GLO:ApplicationCreationDate","LONG","","","","","","","","","",0,0,0,0
"GLOBAL","celrapst","GlobalData","glo:GLO:ApplicationCreationTime","LONG","","","","","","","","","",0,0,0,0
"GLOBAL","celrapst","GlobalData","glo:GLO:ApplicationChangeDate","LONG","","","","","","","","","",0,0,0,0
"GLOBAL","celrapst","GlobalData","glo:GLO:ApplicationChangeTime","LONG","","","","","","","","","",0,0,0,0
"GLOBAL","celrapst","GlobalData","glo:GLO:Compiled32","BYTE","","","","","","","","","",0,0,0,0
"GLOBAL","celrapst","GlobalData","glo:GLO:AppINIFile","STRING(255)","","","","","","","","","",0,0,0,0
"GLOBAL","celrapst","GlobalData","glo:Queue","QUEUE,PRE(GLO)","","","","","","","","","",0,0,0,0
"GLOBAL","celrapst","GlobalData","Pointer","STRING(40)","","","","","","","","","",0,0,0,0
"GLOBAL","celrapst","GlobalData","","END","","","","","","","","","",0,0,0,0
"GLOBAL","celrapst","GlobalData","glo:Queue2","QUEUE,PRE(GLO)","","","","","","","","","",0,0,0,0
"GLOBAL","celrapst","GlobalData","Pointer2","STRING(40)","","","","","","","","","",0,0,0,0
"GLOBAL","celrapst","GlobalData","","END","","","","","","","","","",0,0,0,0
"GLOBAL","celrapst","GlobalData","glo:Queue3","QUEUE,PRE(GLO)","","","","","","","","","",0,0,0,0
"GLOBAL","celrapst","GlobalData","Pointer3","STRING(40)","","","","","","","","","",0,0,0,0
"GLOBAL","celrapst","GlobalData","","END","","","","","","","","","",0,0,0,0
"GLOBAL","celrapst","GlobalData","glo:Queue4","QUEUE,PRE(GLO)","","","","","","","","","",0,0,0,0
"GLOBAL","celrapst","GlobalData","Pointer4","STRING(40)","","","","","","","","","",0,0,0,0
"GLOBAL","celrapst","GlobalData","","END","","","","","","","","","",0,0,0,0
"GLOBAL","celrapst","GlobalData","glo:Queue5","QUEUE,PRE(GLO)","","","","","","","","","",0,0,0,0
"GLOBAL","celrapst","GlobalData","Pointer5","STRING(40)","","","","","","","","","",0,0,0,0
"GLOBAL","celrapst","GlobalData","","END","","","","","","","","","",0,0,0,0
"GLOBAL","celrapst","GlobalData","glo:Queue6","QUEUE,PRE(GLO)","","","","","","","","","",0,0,0,0
"GLOBAL","celrapst","GlobalData","Pointer6","STRING(40)","","","","","","","","","",0,0,0,0
"GLOBAL","celrapst","GlobalData","","END","","","","","","","","","",0,0,0,0
"GLOBAL","celrapst","GlobalData","glo:Queue7","QUEUE,PRE(GLO)","","","","","","","","","",0,0,0,0
"GLOBAL","celrapst","GlobalData","Pointer7","STRING(40)","","","","","","","","","",0,0,0,0
"GLOBAL","celrapst","GlobalData","","END","","","","","","","","","",0,0,0,0
"GLOBAL","celrapst","GlobalData","glo:Queue8","QUEUE,PRE(GLO)","","","","","","","","","",0,0,0,0
"GLOBAL","celrapst","GlobalData","Pointer8","STRING(40)","","","","","","","","","",0,0,0,0
"GLOBAL","celrapst","GlobalData","","END","","","","","","","","","",0,0,0,0
"GLOBAL","celrapst","GlobalData","glo:Queue9","QUEUE,PRE(GLO)","","","","","","","","","",0,0,0,0
"GLOBAL","celrapst","GlobalData","Pointer9","STRING(40)","","","","","","","","","",0,0,0,0
"GLOBAL","celrapst","GlobalData","","END","","","","","","","","","",0,0,0,0
"GLOBAL","celrapst","GlobalData","glo:Queue10","QUEUE,PRE(GLO)","","","","","","","","","",0,0,0,0
"GLOBAL","celrapst","GlobalData","Pointer10","STRING(40)","","","","","","","","","",0,0,0,0
"GLOBAL","celrapst","GlobalData","","END","","","","","","","","","",0,0,0,0
"GLOBAL","celrapst","GlobalData","glo:Queue11","QUEUE,PRE(GLO)","","","","","","","","","",0,0,0,0
"GLOBAL","celrapst","GlobalData","Pointer11","STRING(40)","","","","","","","","","",0,0,0,0
"GLOBAL","celrapst","GlobalData","","END","","","","","","","","","",0,0,0,0
"GLOBAL","celrapst","GlobalData","glo:Queue12","QUEUE,PRE(GLO)","","","","","","","","","",0,0,0,0
"GLOBAL","celrapst","GlobalData","Pointer12","STRING(40)","","","","","","","","","",0,0,0,0
"GLOBAL","celrapst","GlobalData","","END","","","","","","","","","",0,0,0,0
"GLOBAL","celrapst","GlobalData","glo:Queue13","QUEUE,PRE(GLO)","","","","","","","","","",0,0,0,0
"GLOBAL","celrapst","GlobalData","Pointer13","STRING(40)","","","","","","","","","",0,0,0,0
"GLOBAL","celrapst","GlobalData","","END","","","","","","","","","",0,0,0,0
"GLOBAL","celrapst","GlobalData","glo:Queue14","QUEUE,PRE(GLO)","","","","","","","","","",0,0,0,0
"GLOBAL","celrapst","GlobalData","Pointer14","STRING(40)","","","","","","","","","",0,0,0,0
"GLOBAL","celrapst","GlobalData","","END","","","","","","","","","",0,0,0,0
"GLOBAL","celrapst","GlobalData","glo:Queue15","QUEUE,PRE(GLO)","","","","","","","","","",0,0,0,0
"GLOBAL","celrapst","GlobalData","Pointer15","STRING(40)","","","","","","","","","",0,0,0,0
"GLOBAL","celrapst","GlobalData","","END","","","","","","","","","",0,0,0,0
"GLOBAL","celrapst","GlobalData","glo:Queue16","QUEUE,PRE(GLO)","","","","","","","","","",0,0,0,0
"GLOBAL","celrapst","GlobalData","Pointer16","STRING(40)","","","","","","","","","",0,0,0,0
"GLOBAL","celrapst","GlobalData","","END","","","","","","","","","",0,0,0,0
"GLOBAL","celrapst","GlobalData","glo:Queue17","QUEUE,PRE(GLO)","","","","","","","","","",0,0,0,0
"GLOBAL","celrapst","GlobalData","Pointer17","STRING(40)","","","","","","","","","",0,0,0,0
"GLOBAL","celrapst","GlobalData","","END","","","","","","","","","",0,0,0,0
"GLOBAL","celrapst","GlobalData","glo:Queue18","QUEUE,PRE(GLO)","","","","","","","","","",0,0,0,0
"GLOBAL","celrapst","GlobalData","Pointer18","STRING(40)","","","","","","","","","",0,0,0,0
"GLOBAL","celrapst","GlobalData","","END","","","","","","","","","",0,0,0,0
"GLOBAL","celrapst","GlobalData","glo:Queue19","QUEUE,PRE(GLO)","","","","","","","","","",0,0,0,0
"GLOBAL","celrapst","GlobalData","Pointer19","STRING(40)","","","","","","","","","",0,0,0,0
"GLOBAL","celrapst","GlobalData","","END","","","","","","","","","",0,0,0,0
"GLOBAL","celrapst","GlobalData","glo:Queue20","QUEUE,PRE(GLO)","","","","","","","","","",0,0,0,0
"GLOBAL","celrapst","GlobalData","Pointer20","STRING(40)","","","","","","","","","",0,0,0,0
"GLOBAL","celrapst","GlobalData","","END","","","","","","","","","",0,0,0,0
"GLOBAL","celrapst","GlobalData","glo:FaultCode1","STRING(30)","","","","","","","","","",0,0,0,0
"GLOBAL","celrapst","GlobalData","glo:FaultCode2","STRING(30)","","","","","","","","","",0,0,0,0
"GLOBAL","celrapst","GlobalData","glo:FaultCode3","STRING(30)","","","","","","","","","",0,0,0,0
"GLOBAL","celrapst","GlobalData","glo:FaultCode4","STRING(30)","","","","","","","","","",0,0,0,0
"GLOBAL","celrapst","GlobalData","glo:FaultCode5","STRING(30)","","","","","","","","","",0,0,0,0
"GLOBAL","celrapst","GlobalData","glo:FaultCode6","STRING(30)","","","","","","","","","",0,0,0,0
"GLOBAL","celrapst","GlobalData","glo:FaultCode7","STRING(30)","","","","","","","","","",0,0,0,0
"GLOBAL","celrapst","GlobalData","glo:FaultCode8","STRING(30)","","","","","","","","","",0,0,0,0
"GLOBAL","celrapst","GlobalData","glo:FaultCode9","STRING(30)","","","","","","","","","",0,0,0,0
"GLOBAL","celrapst","GlobalData","glo:FaultCode10","STRING(255)","","","","","","","","","",0,0,0,0
"GLOBAL","celrapst","GlobalData","glo:FaultCode11","STRING(255)","","","","","","","","","",0,0,0,0
"GLOBAL","celrapst","GlobalData","glo:FaultCode12","STRING(255)","","","","","","","","","",0,0,0,0
"GLOBAL","celrapst","GlobalData","glo:FaultCode13","STRING(30)","","","","","","","","","",0,0,0,0
"GLOBAL","celrapst","GlobalData","glo:FaultCode14","STRING(30)","","","","","","","","","",0,0,0,0
"GLOBAL","celrapst","GlobalData","glo:FaultCode15","STRING(30)","","","","","","","","","",0,0,0,0
"GLOBAL","celrapst","GlobalData","glo:FaultCode16","STRING(30)","","","","","","","","","",0,0,0,0
"GLOBAL","celrapst","GlobalData","glo:FaultCode17","STRING(30)","","","","","","","","","",0,0,0,0
"GLOBAL","celrapst","GlobalData","glo:FaultCode18","STRING(30)","","","","","","","","","",0,0,0,0
"GLOBAL","celrapst","GlobalData","glo:FaultCode19","STRING(30)","","","","","","","","","",0,0,0,0
"GLOBAL","celrapst","GlobalData","glo:FaultCode20","STRING(30)","","","","","","","","","",0,0,0,0
"GLOBAL","celrapst","GlobalData","glo:TradeFaultCode1","STRING(30)","","","","","","","","","",0,0,0,0
"GLOBAL","celrapst","GlobalData","glo:TradeFaultCode2","STRING(30)","","","","","","","","","",0,0,0,0
"GLOBAL","celrapst","GlobalData","glo:TradeFaultCode3","STRING(30)","","","","","","","","","",0,0,0,0
"GLOBAL","celrapst","GlobalData","glo:TradeFaultCode4","STRING(30)","","","","","","","","","",0,0,0,0
"GLOBAL","celrapst","GlobalData","glo:TradeFaultCode5","STRING(30)","","","","","","","","","",0,0,0,0
"GLOBAL","celrapst","GlobalData","glo:TradeFaultCode6","STRING(30)","","","","","","","","","",0,0,0,0
"GLOBAL","celrapst","GlobalData","glo:TradeFaultCode7","STRING(30)","","","","","","","","","",0,0,0,0
"GLOBAL","celrapst","GlobalData","glo:TradeFaultCode8","STRING(30)","","","","","","","","","",0,0,0,0
"GLOBAL","celrapst","GlobalData","glo:TradeFaultCode9","STRING(30)","","","","","","","","","",0,0,0,0
"GLOBAL","celrapst","GlobalData","glo:TradeFaultCode10","STRING(30)","","","","","","","","","",0,0,0,0
"GLOBAL","celrapst","GlobalData","glo:TradeFaultCode11","STRING(30)","","","","","","","","","",0,0,0,0
"GLOBAL","celrapst","GlobalData","glo:TradeFaultCode12","STRING(30)","","","","","","","","","",0,0,0,0
"GLOBAL","celrapst","GlobalData","filename3","STRING(255)","","","","","","","","","",0,0,0,0
