Error: General Protection Fault
   C:\C55\BIN\C55RUN.DLL 30:1072
   C:\C55\BIN\C55ADM.DLL 11:079a
   C:\C55\BIN\C55ADM.DLL 11:0941
   C:\C55\BIN\C55GEN.DLL  8:0b4a
   C:\C55\BIN\C55ASL.DLL  f:0555
   C:\C55\BIN\C55ASL.DLL  f:003a
   C:\C55\BIN\C55RUN.DLL 17:0277
   C:\C55\BIN\C55RUN.DLL 17:087a
   C:\C55\BIN\C55ASL.DLL 12:04d4
   C:\C55\BIN\C55RUN.DLL 17:09dd
   C:\C55\BIN\C55ASL.DLL 26:3303
   C:\C55\BIN\C55ASL.DLL 26:19b3
   C:\C55\BIN\C55ASL.DLL 26:1715
   C:\C55\BIN\C55ASL.DLL 26:29db
   C:\C55\BIN\C55ASL.DLL 26:1e63
   C:\C55\BIN\C55ASL.DLL 26:1dc7
----------------------------------
